%!PS-Adobe-3.0 
%%Creator: MATLAB, The Mathworks, Inc.
%%Title: /home/pawsa/molecules/HF/ram/collectedCrossSections2official.ps
%%CreationDate: 09/06/ 0  07:45:16
%%DocumentNeededFonts: Helvetica
%%DocumentProcessColors: Cyan Magenta Yellow Black
%%LanguageLevel: 2
%%Pages: (atend)
%%BoundingBox: (atend)
%%EndComments

%%BeginProlog

% MathWorks dictionary
/MathWorks 160 dict begin

% definition operators
/bdef {bind def} bind def
/ldef {load def} bind def
/xdef {exch def} bdef
/xstore {exch store} bdef

% operator abbreviations
/c  /clip ldef
/cc /concat ldef
/cp /closepath ldef
/gr /grestore ldef
/gs /gsave ldef
/mt /moveto ldef
/np /newpath ldef
/cm /currentmatrix ldef
/sm /setmatrix ldef
/rc {rectclip} bdef
/rf {rectfill} bdef
/rm /rmoveto ldef
/rl /rlineto ldef
/s /show ldef
/sc {setcmykcolor} bdef
/sr /setrgbcolor ldef
/sg /setgray ldef
/w /setlinewidth ldef
/j /setlinejoin ldef
/cap /setlinecap ldef

% page state control
/pgsv () def
/bpage {/pgsv save def} bdef
/epage {pgsv restore} bdef
/bplot /gsave ldef
/eplot {stroke grestore} bdef

% orientation switch
/portraitMode 	0 def
/landscapeMode 	1 def

% coordinate system mappings
/dpi2point 0 def

% font control
/FontSize 0 def
/FMS {
	/FontSize xstore		%save size off stack
	findfont
	[FontSize 0 0 FontSize neg 0 0]
	makefont
	setfont
	}bdef

/reencode {
exch dup where
{pop load} {pop StandardEncoding} ifelse
exch
dup 3 1 roll
findfont dup length dict begin
  { 1 index /FID ne {def}{pop pop} ifelse } forall
  /Encoding exch def
  currentdict
end
definefont pop
} bdef

/isroman {
findfont /CharStrings get
/Agrave known
} bdef

/FMSR {
3 1 roll 1 index
dup isroman
{reencode} {pop pop} ifelse
exch FMS
} bdef

/csm {
	1 dpi2point div -1 dpi2point div scale
	neg translate
	landscapeMode eq {90 rotate} if
	} bdef

% line types: solid, dotted, dashed, dotdash
/SO { [] 0 setdash } bdef
/DO { [.5 dpi2point mul 4 dpi2point mul] 0 setdash } bdef
/DA { [6 dpi2point mul] 0 setdash } bdef
/DD { [.5 dpi2point mul 4 dpi2point mul 6 dpi2point mul 4 dpi2point mul] 0 setdash } bdef

% macros for lines and objects
/L {
	lineto
	stroke
	} bdef
/MP {
	3 1 roll moveto
	1 sub {rlineto} repeat
	} bdef
/AP {
	{rlineto} repeat
	} bdef
/PP {
	closepath eofill
	} bdef
/DP {
	closepath stroke
	} bdef
/MR {
	4 -2 roll moveto
	dup  0 exch rlineto
	exch 0 rlineto
	neg  0 exch rlineto
	closepath
	} bdef
/FR {
	MR stroke
	} bdef
/PR {
	MR fill
	} bdef
/L1i {
	{ currentfile picstr readhexstring pop } image
	} bdef

/tMatrix matrix def
/MakeOval {
	newpath
	tMatrix currentmatrix pop
	translate scale
	0 0 1 0 360 arc
	tMatrix setmatrix
	} bdef
/FO {
	MakeOval
	stroke
	} bdef
/PO {
	MakeOval
	fill
	} bdef

/PD {
	currentlinecap 1 setlinecap 3 1 roll 2 copy moveto lineto stroke setlinecap
	} bdef

/FA {
	newpath
	tMatrix currentmatrix pop
	translate scale
	0 0 1 5 -2 roll arc
	tMatrix setmatrix
	stroke
	} bdef
/PA {
	newpath
	tMatrix currentmatrix pop
	translate 0 0 moveto scale
	0 0 1 5 -2 roll arc
	closepath
	tMatrix setmatrix
	fill
	} bdef

/FAn {
	newpath
	tMatrix currentmatrix pop
	translate scale
	0 0 1 5 -2 roll arcn
	tMatrix setmatrix
	stroke
	} bdef
/PAn {
	newpath
	tMatrix currentmatrix pop
	translate 0 0 moveto scale
	0 0 1 5 -2 roll arcn
	closepath
	tMatrix setmatrix
	fill
	} bdef

/MRR {
	/vradius xdef
	/hradius xdef
	/lry xdef
	/lrx xdef
	/uly xdef
	/ulx xdef
	newpath
	tMatrix currentmatrix pop
	ulx hradius add uly vradius add translate
	hradius vradius scale
	0 0 1 180 270 arc 
	tMatrix setmatrix
	lrx hradius sub uly vradius add translate
	hradius vradius scale
	0 0 1 270 360 arc
	tMatrix setmatrix
	lrx hradius sub lry vradius sub translate
	hradius vradius scale
	0 0 1 0 90 arc
	tMatrix setmatrix
	ulx hradius add lry vradius sub translate
	hradius vradius scale
	0 0 1 90 180 arc
	tMatrix setmatrix
	closepath
	} bdef
/FRR {
	MRR stroke } bdef
/PRR {
	MRR fill } bdef

/MlrRR {
	/lry xdef
	/lrx xdef
	/uly xdef
	/ulx xdef
	/rad lry uly sub 2 div def
	newpath
	tMatrix currentmatrix pop
	ulx rad add uly rad add translate
	rad rad scale
	0 0 1 90 270 arc
	tMatrix setmatrix
	lrx rad sub lry rad sub translate
	rad rad scale
	0 0 1 270 90 arc
	tMatrix setmatrix
	closepath
	} bdef
/FlrRR {
	MlrRR stroke } bdef
/PlrRR {
	MlrRR fill } bdef

/MtbRR {
	/lry xdef
	/lrx xdef
	/uly xdef
	/ulx xdef
	/rad lrx ulx sub 2 div def
	newpath
	tMatrix currentmatrix pop
	ulx rad add uly rad add translate
	rad rad scale
	0 0 1 180 360 arc
	tMatrix setmatrix
	lrx rad sub lry rad sub translate
	rad rad scale
	0 0 1 0 180 arc
	tMatrix setmatrix
	closepath
	} bdef
/FtbRR {
	MtbRR stroke } bdef
/PtbRR {
	MtbRR fill } bdef

currentdict end def
%%EndProlog

%%BeginSetup
MathWorks begin

0 cap

end
%%EndSetup

%%Page: 1 1
%%BeginPageSetup
%%PageBoundingBox:    52   105   557   723
MathWorks begin
bpage
%%EndPageSetup

%%BeginObject: obj1
bplot

/dpi2point 12 def
landscapeMode 6924 9516 csm

  839   231  7416  6059 rc
88 dict begin %Colortable dictionary
/c0 { 0 0 0 sr} bdef
/c1 { 1 1 1 sr} bdef
/c2 { 1 0 0 sr} bdef
/c3 { 0 1 0 sr} bdef
/c4 { 0 0 1 sr} bdef
/c5 { 1 1 0 sr} bdef
/c6 { 1 0 1 sr} bdef
/c7 { 0 1 1 sr} bdef
1 j
1 sg
   0    0 8960 6713 rf
6 w
0 5469 6942 0 0 -5469 1164 5972 4 MP
PP
-6942 0 0 5469 6942 0 0 -5469 1164 5972 5 MP stroke
4 w
DO
0 sg
1164 5972 mt 1164  503 L
1164  503 mt 1164  503 L
2321 5972 mt 2321  503 L
2321  503 mt 2321  503 L
3478 5972 mt 3478  503 L
3478  503 mt 3478  503 L
4635 5972 mt 4635  503 L
4635  503 mt 4635  503 L
5792 5972 mt 5792  503 L
5792  503 mt 5792  503 L
6949 5972 mt 6949  503 L
6949  503 mt 6949  503 L
8106 5972 mt 8106  503 L
8106  503 mt 8106  503 L
1164 5972 mt 8106 5972 L
8106 5972 mt 8106 5972 L
1164 4878 mt 8106 4878 L
8106 4878 mt 8106 4878 L
1164 3784 mt 8106 3784 L
8106 3784 mt 8106 3784 L
1164 2691 mt 8106 2691 L
8106 2691 mt 8106 2691 L
1164 1597 mt 8106 1597 L
8106 1597 mt 8106 1597 L
1164  503 mt 8106  503 L
8106  503 mt 8106  503 L
SO
6 w
1164 5972 mt 8106 5972 L
1164  503 mt 8106  503 L
1164 5972 mt 1164  503 L
8106 5972 mt 8106  503 L
1164 5972 mt 8106 5972 L
1164 5972 mt 1164  503 L
1164 5972 mt 1164 5903 L
1164  503 mt 1164  572 L
%%IncludeResource: font Helvetica
/Helvetica /ISOLatin1Encoding 120 FMSR

1064 6118 mt 
(645) s
2321 5972 mt 2321 5903 L
2321  503 mt 2321  572 L
2221 6118 mt 
(650) s
3478 5972 mt 3478 5903 L
3478  503 mt 3478  572 L
3378 6118 mt 
(655) s
4635 5972 mt 4635 5903 L
4635  503 mt 4635  572 L
4535 6118 mt 
(660) s
5792 5972 mt 5792 5903 L
5792  503 mt 5792  572 L
5692 6118 mt 
(665) s
6949 5972 mt 6949 5903 L
6949  503 mt 6949  572 L
6849 6118 mt 
(670) s
8106 5972 mt 8106 5903 L
8106  503 mt 8106  572 L
8006 6118 mt 
(675) s
1164 5972 mt 1233 5972 L
8106 5972 mt 8037 5972 L
1063 6016 mt 
(0) s
1164 4878 mt 1233 4878 L
8106 4878 mt 8037 4878 L
 896 4922 mt 
(0.05) s
1164 3784 mt 1233 3784 L
8106 3784 mt 8037 3784 L
 963 3828 mt 
(0.1) s
1164 2691 mt 1233 2691 L
8106 2691 mt 8037 2691 L
 896 2735 mt 
(0.15) s
1164 1597 mt 1233 1597 L
8106 1597 mt 8037 1597 L
 963 1641 mt 
(0.2) s
1164  503 mt 1233  503 L
8106  503 mt 8037  503 L
 896  547 mt 
(0.25) s
1164 5972 mt 8106 5972 L
1164  503 mt 8106  503 L
1164 5972 mt 1164  503 L
8106 5972 mt 8106  503 L
gs 1164 503 6943 5470 rc
/c8 { 0.000000 0.000000 1.000000 sr} bdef
c8
3 0 2 0 2 0 3 0 2 0 2 0 3 0 2 0 
2 0 2 0 3 0 2 0 2 0 3 0 2 0 2 0 
3 0 2 0 2 0 3 0 2 0 2 0 3 0 2 0 
2 0 3 0 2 0 2 0 2 0 3 0 2 0 2 0 
3 0 2 0 2 0 3 0 2 0 2 0 3 0 2 0 
2 0 3 0 2 0 2 0 2 0 3 0 2 0 2 0 
3 0 2 0 2 0 3 0 2 0 2 0 3 0 2 0 
2 0 3 0 2 0 2 0 2 0 3 0 2 0 2 0 
3 0 2 0 2 0 3 0 2 0 2 0 3 0 2 0 
2 0 3 0 2 0 2 0 3 0 2 0 2 0 2 0 
3 0 2 0 2 0 3 0 2 0 2 0 3 0 2 0 
2 0 3 0 2 0 2 0 3 0 2 0 2 0 2 0 
3 0 2 0 2 0 3 0 2 0 2 0 3 0 2 0 
2 0 3 0 2 0 2 0 3 0 2 0 2 0 3 0 
2 0 2 0 2 0 3 0 2 0 2 0 3 0 2 0 
2 0 3 0 2 0 2 0 3 0 2 0 2 0 3 0 
2 0 2 0 2 0 3 0 2 0 2 0 3 0 2 0 
2 0 3 0 2 0 2 0 3 0 2 0 2 0 3 0 
2 0 2 0 2 0 3 0 2 0 2 0 3 0 2 0 
2 0 3 0 2 0 2 0 3 0 2 0 2 0 3 0 
2 0 2 0 3 0 2 0 2 0 2 0 3 0 2 0 
2 0 3 0 2 0 2 0 3 0 2 0 2 0 3 0 
2 0 2 0 3 0 2 0 2 0 2 0 3 0 2 0 
2 0 3 0 2 0 2 0 3 0 2 0 2 0 3 0 
2 0 2 0 3 0 2 0 2 0 3 0 2 0 2 0 
2 0 3 0 2 0 2 0 3 0 2 0 2 0 3 0 
2 0 2 0 3 0 2 0 2 0 3 0 2 0 2 0 
2 0 3 0 2 0 2 0 3 0 2 0 2 0 3 0 
2 0 2 0 3 0 2 0 2 0 3 0 2 0 2 0 
3 0 2 0 2 0 2 0 3 0 2 0 2 0 3 0 
2 0 2 0 3 0 2 0 2 0 3 0 2 0 2 0 
3 0 2 0 2 0 2 0 3 0 2 0 2 0 3 0 
2 0 2 0 3 0 2 0 2 0 3 0 2 0 2 0 
3 0 2 0 2 0 2 0 3 0 2 0 2 0 3 0 
2 0 2 0 3 0 2 0 2 0 3 0 2 0 2 0 
3 0 2 0 2 0 3 0 2 0 2 0 2 0 3 0 
2 0 2 0 3 0 2 0 2 0 3 0 2 0 2 0 
3 0 2 0 2 0 8333 5972 300 MP stroke
3 0 2 0 2 0 2 0 3 0 2 0 2 0 3 0 
2 0 2 0 3 0 2 0 2 0 3 0 2 0 2 0 
3 0 2 0 2 0 3 0 2 0 2 0 2 0 3 0 
2 0 2 0 3 0 2 0 2 0 3 0 2 0 2 0 
3 0 2 0 2 0 3 0 2 0 2 0 2 0 3 0 
2 0 2 0 3 0 2 0 2 0 3 0 2 0 2 0 
3 0 2 0 2 0 3 0 2 0 2 0 2 0 3 0 
2 0 2 0 3 0 2 0 2 0 3 0 2 0 2 0 
3 0 2 0 2 0 3 0 2 0 2 0 3 0 2 0 
2 0 2 0 3 0 2 0 2 0 3 0 2 0 2 0 
3 0 2 0 2 0 3 0 2 0 2 0 3 0 2 0 
2 0 2 0 3 0 2 0 2 0 3 0 2 0 2 0 
3 0 2 0 2 0 3 0 2 0 2 0 3 0 2 0 
2 0 3 0 2 0 2 0 2 0 3 0 2 0 2 0 
3 0 2 0 2 0 3 0 2 0 2 0 3 0 2 0 
2 0 3 0 2 0 2 0 2 0 3 0 2 0 2 0 
3 0 2 0 2 0 3 0 2 0 2 0 3 0 2 0 
2 0 3 0 2 0 2 0 3 0 2 0 2 0 2 0 
3 0 2 0 2 0 3 0 2 0 2 0 3 0 2 0 
2 0 3 0 2 0 2 0 3 0 2 0 2 0 2 0 
3 0 2 0 2 0 3 0 2 0 2 0 3 0 2 0 
2 0 3 0 2 0 2 0 3 0 2 0 2 0 2 0 
3 0 2 0 2 0 3 0 2 0 2 0 3 0 2 0 
2 0 3 0 2 0 2 0 3 0 2 0 2 0 3 0 
2 0 2 0 2 0 3 0 2 0 2 0 3 0 2 0 
2 0 3 0 2 0 2 0 3 0 2 0 2 0 3 0 
2 0 2 0 2 0 3 0 2 0 2 0 3 0 2 0 
2 0 3 0 2 0 2 0 3 0 2 0 2 0 3 0 
2 0 2 0 3 0 2 0 2 0 2 0 3 0 2 0 
2 0 3 0 2 0 2 0 3 0 2 0 2 0 3 0 
2 0 2 0 3 0 2 0 2 0 2 0 3 0 2 0 
2 0 3 0 2 0 2 0 3 0 2 0 2 0 3 0 
2 0 2 0 3 0 2 0 2 0 2 0 3 0 2 0 
2 0 3 0 2 0 2 0 3 1 2 0 2 0 3 0 
2 1 2 0 3 1 2 1 2 1 3 2 2 2 2 2 
2 3 3 4 2 5 2 5 3 7 2 8 2 9 3 11 
2 13 2 14 3 16 2 17 2 20 3 20 2 23 2 23 
2 25 3 25 2 25 7641 5688 300 MP stroke
2 24 3 24 2 23 2 21 3 19 2 16 2 13 3 9 
2 6 2 2 3 -2 2 -6 2 -10 3 -13 2 -16 2 -18 
2 -21 3 -23 2 -24 2 -24 3 -25 2 -24 2 -24 3 -23 
2 -22 2 -20 3 -18 2 -17 2 -15 3 -12 2 -12 2 -9 
2 -8 3 -6 2 -6 2 -4 3 -3 2 -2 2 -2 3 -1 
2 0 2 -1 3 0 2 0 2 0 3 0 2 0 2 -1 
2 0 3 0 2 -1 2 0 3 0 2 -1 2 0 3 1 
2 0 2 1 3 2 2 2 2 2 3 4 2 3 2 5 
3 5 2 6 2 6 2 7 3 7 2 8 2 7 3 8 
2 8 2 7 3 6 2 6 2 5 3 4 2 3 2 2 
3 1 2 -1 2 -2 2 -3 3 -4 2 -6 2 -6 3 -6 
2 -8 2 -7 3 -8 2 -8 2 -8 3 -8 2 -8 2 -7 
3 -6 2 -7 2 -5 3 -5 2 -5 2 -3 2 -4 3 -3 
2 -2 2 -2 3 -2 2 -1 2 -1 3 -1 2 -1 2 0 
3 -1 2 0 2 0 3 -1 2 0 2 0 2 0 3 0 
2 0 2 0 3 -1 2 0 2 0 3 0 2 0 2 0 
3 1 2 0 2 0 3 0 2 0 2 0 3 0 2 1 
2 0 2 0 3 0 2 0 2 1 3 0 2 0 2 0 
3 1 2 0 2 0 3 0 2 1 2 0 3 1 2 1 
2 0 2 1 3 1 2 2 2 1 3 1 2 2 2 1 
3 2 2 2 2 1 3 2 2 1 2 2 3 1 2 1 
2 1 2 1 3 0 2 1 2 -1 3 0 2 -1 2 0 
3 -1 2 -2 2 -1 3 -1 2 -2 2 -2 3 -1 2 -2 
2 -1 3 -1 2 -2 2 -1 2 -1 3 -1 2 -1 2 0 
3 -1 2 0 2 0 3 -1 2 0 2 0 3 0 2 1 
2 0 3 1 2 0 2 1 2 1 3 0 2 2 2 1 
3 1 2 1 2 2 3 1 2 2 2 2 3 1 2 2 
2 1 3 2 2 1 2 1 3 1 2 1 2 1 2 0 
3 1 2 0 2 0 3 0 2 1 2 0 3 0 2 0 
2 0 3 0 2 1 2 0 3 1 2 1 2 0 2 1 
3 1 2 1 2 1 3 1 2 1 2 0 3 1 2 1 
2 1 3 1 2 1 2 1 3 1 2 1 2 1 2 1 
3 2 2 1 2 1 3 2 2 1 2 1 3 1 2 1 
2 1 3 1 2 0 2 0 3 0 2 -1 2 0 3 -1 
2 -1 2 -1 2 -1 3 -1 2 -1 2 -2 3 -1 2 -1 
2 -1 3 -2 2 -1 2 -1 3 -1 2 -1 2 -2 3 -1 
2 -1 2 -1 2 -2 3 -1 2 -1 2 -1 3 -2 2 -1 
2 -1 3 -1 2 -1 6949 5937 300 MP stroke
2 -2 3 -1 2 -1 2 -1 3 -1 2 0 2 -1 3 -1 
2 0 2 -1 2 0 3 0 2 0 2 0 3 0 2 1 
2 1 3 1 2 1 2 1 3 2 2 2 2 2 3 2 
2 2 2 2 2 3 3 2 2 2 2 2 3 2 2 2 
2 2 3 2 2 1 2 2 3 1 2 0 2 1 3 0 
2 0 2 0 3 0 2 0 2 0 2 -1 3 0 2 0 
2 0 3 0 2 0 2 1 3 1 2 1 2 2 3 2 
2 3 2 3 3 3 2 4 2 5 2 5 3 5 2 6 
2 6 3 6 2 7 2 7 3 7 2 7 2 7 3 6 
2 7 2 7 3 6 2 6 2 6 2 5 3 5 2 4 
2 4 3 4 2 3 2 3 3 3 2 2 2 1 3 2 
2 1 2 1 3 0 2 1 2 0 3 0 2 0 2 0 
2 -1 3 -1 2 0 2 -1 3 -1 2 -1 2 -1 3 -2 
2 -1 2 -1 3 -2 2 -1 2 -2 3 -2 2 -1 2 -2 
2 -2 3 -2 2 -2 2 -2 3 -2 2 -2 2 -2 3 -2 
2 -3 2 -2 3 -2 2 -3 2 -2 3 -2 2 -3 2 -2 
3 -3 2 -2 2 -3 2 -2 3 -3 2 -2 2 -3 3 -3 
2 -2 2 -3 3 -2 2 -3 2 -3 3 -2 2 -3 2 -2 
3 -3 2 -2 2 -3 2 -3 3 -2 2 -3 2 -2 3 -2 
2 -3 2 -2 3 -3 2 -2 2 -2 3 -3 2 -2 2 -2 
3 -2 2 -3 2 -2 2 -2 3 -2 2 -2 2 -2 3 -2 
2 -2 2 -2 3 -2 2 -1 2 -2 3 -2 2 -2 2 -1 
3 -2 2 -1 2 -2 3 -1 2 -2 2 -1 2 -1 3 -1 
2 -2 2 -1 3 -1 2 -1 2 -1 3 -1 2 -1 2 -1 
3 -1 2 -1 2 0 3 -1 2 -1 2 0 2 -1 3 -1 
2 0 2 -1 3 0 2 -1 2 0 3 0 2 -1 2 0 
3 0 2 0 2 -1 3 0 2 0 2 0 3 0 2 0 
2 0 2 0 3 0 2 0 2 0 3 0 2 0 2 0 
3 0 2 0 2 0 3 0 2 0 2 0 3 1 2 0 
2 0 2 0 3 0 2 0 2 0 3 1 2 0 2 0 
3 0 2 0 2 0 3 1 2 0 2 0 3 0 2 0 
2 0 2 0 3 1 2 0 2 0 3 0 2 0 2 0 
3 0 2 0 2 0 3 0 2 0 2 0 3 0 2 0 
2 0 3 0 2 0 2 0 2 0 3 0 2 -1 2 0 
3 0 2 0 2 0 3 0 2 0 2 -1 3 0 2 0 
2 0 3 -1 2 0 2 0 2 0 3 0 2 -1 2 0 
3 0 2 -1 2 0 3 0 2 0 2 -1 3 0 2 0 
2 -1 3 0 2 0 6257 5942 300 MP stroke
2 -1 3 0 2 0 2 0 2 -1 3 0 2 0 2 -1 
3 0 2 0 2 -1 3 0 2 0 2 0 3 -1 2 0 
2 0 3 0 2 -1 2 0 2 0 3 0 2 -1 2 0 
3 0 2 0 2 0 3 -1 2 0 2 0 3 0 2 0 
2 0 3 -1 2 0 2 0 3 0 2 0 2 0 2 0 
3 0 2 0 2 0 3 0 2 0 2 -1 3 0 2 0 
2 0 3 0 2 0 2 0 3 0 2 0 2 0 2 0 
3 0 2 0 2 0 3 0 2 0 2 0 3 1 2 0 
2 0 3 0 2 0 2 0 3 0 2 0 2 0 2 0 
3 0 2 0 2 0 3 0 2 0 2 0 3 0 2 1 
2 0 3 0 2 0 2 0 3 0 2 0 2 0 3 0 
2 0 2 0 2 0 3 0 2 0 2 0 3 0 2 0 
2 0 3 1 2 0 2 0 3 0 2 0 2 0 3 0 
2 0 2 0 2 0 3 0 2 0 2 0 3 0 2 0 
2 0 3 0 2 0 2 0 3 0 2 0 2 0 3 0 
2 0 2 0 3 0 2 0 2 0 2 0 3 0 2 1 
2 0 3 0 2 0 2 0 3 0 2 0 2 0 3 0 
2 0 2 0 3 0 2 0 2 0 2 0 3 0 2 0 
2 0 3 0 2 0 2 0 3 0 2 1 2 0 3 0 
2 0 2 0 3 0 2 0 2 0 2 0 3 0 2 0 
2 0 3 0 2 0 2 1 3 0 2 0 2 0 3 0 
2 0 2 0 3 0 2 0 2 0 3 0 2 0 2 1 
2 0 3 0 2 0 2 0 3 0 2 0 2 0 3 0 
2 0 2 0 3 1 2 0 2 0 3 0 2 0 2 0 
2 0 3 0 2 1 2 0 3 0 2 0 2 0 3 0 
2 0 2 1 3 0 2 0 2 0 3 0 2 1 2 0 
3 0 2 0 2 0 2 1 3 0 2 0 2 0 3 1 
2 0 2 0 3 0 2 1 2 0 3 0 2 0 2 1 
3 0 2 0 2 1 2 0 3 0 2 1 2 0 3 0 
2 1 2 0 3 0 2 1 2 0 3 1 2 0 2 0 
3 1 2 0 2 1 3 0 2 1 2 0 2 1 3 1 
2 0 2 1 3 1 2 0 2 1 3 1 2 1 2 1 
3 1 2 1 2 1 3 1 2 1 2 1 2 2 3 1 
2 2 2 1 3 2 2 2 2 2 3 2 2 2 2 3 
3 2 2 3 2 3 3 2 2 3 2 3 2 3 3 3 
2 3 2 4 3 3 2 3 2 2 3 3 2 3 2 2 
3 2 2 2 2 1 3 1 2 0 2 1 3 -1 2 -1 
2 -1 2 -2 3 -2 5565 5851 300 MP stroke
2 -2 2 -3 3 -4 2 -4 2 -4 3 -4 2 -5 2 -4 
3 -5 2 -5 2 -5 3 -5 2 -5 2 -5 2 -4 3 -5 
2 -4 2 -4 3 -4 2 -3 2 -4 3 -3 2 -3 2 -3 
3 -2 2 -2 2 -2 3 -2 2 -2 2 -1 3 -2 2 -1 
2 -1 2 -1 3 -1 2 -1 2 0 3 -1 2 0 2 -1 
3 0 2 -1 2 0 3 0 2 -1 2 0 3 0 2 0 
2 0 2 -1 3 0 2 0 2 0 3 0 2 0 2 0 
3 0 2 0 2 0 3 0 2 0 2 0 3 -1 2 0 
2 0 2 0 3 0 2 0 2 0 3 0 2 0 2 0 
3 0 2 0 2 0 3 0 2 0 2 0 3 0 2 0 
2 0 3 0 2 0 2 0 2 0 3 0 2 0 2 0 
3 0 2 0 2 0 3 0 2 0 2 0 3 0 2 0 
2 0 3 0 2 0 2 0 2 0 3 0 2 0 2 0 
3 0 2 0 2 0 3 0 2 0 2 0 3 0 2 0 
2 0 3 0 2 0 2 0 3 0 2 0 2 0 2 0 
3 0 2 0 2 0 3 0 2 0 2 0 3 0 2 0 
2 0 3 0 2 0 2 0 3 0 2 0 2 0 2 0 
3 0 2 0 2 0 3 0 2 0 2 0 3 0 2 0 
2 0 3 0 2 0 2 0 3 0 2 0 2 0 2 0 
3 0 2 0 2 0 3 0 2 0 2 0 3 0 2 0 
2 0 3 0 2 0 2 0 3 0 2 0 2 0 3 0 
2 0 2 0 2 0 3 0 2 0 2 0 3 0 2 0 
2 0 3 0 2 0 2 0 3 0 2 0 2 0 3 0 
2 0 2 0 2 0 3 0 2 0 2 0 3 0 2 0 
2 0 3 0 2 0 2 0 3 0 2 0 2 0 3 0 
2 0 2 0 3 0 2 0 2 0 2 0 3 0 2 0 
2 0 3 0 2 0 2 0 3 0 2 0 2 0 3 0 
2 0 2 0 3 0 2 0 2 0 2 0 3 0 2 0 
2 0 3 0 2 0 2 0 3 0 2 0 2 0 3 0 
2 0 2 0 3 0 2 0 2 0 3 0 2 0 2 0 
2 1 3 0 2 0 2 0 3 0 2 0 2 0 3 0 
2 0 2 0 3 0 2 0 2 0 3 0 2 0 2 0 
2 0 3 0 2 0 2 0 3 0 2 0 2 0 3 1 
2 0 2 0 3 0 2 0 2 0 3 0 2 1 2 0 
2 0 3 0 2 0 2 1 3 0 2 0 2 1 3 0 
2 0 2 1 3 0 2 1 2 1 3 0 2 1 2 1 
3 1 2 1 2 1 2 2 3 1 2 2 2 2 3 2 
2 2 2 2 3 3 4873 5943 300 MP stroke
2 3 2 4 3 4 2 4 2 5 3 6 2 6 2 7 
2 8 3 9 2 9 2 12 3 12 2 14 2 16 3 18 
2 20 2 23 3 26 2 29 2 32 3 37 2 41 2 46 
3 52 2 58 2 64 2 71 3 80 2 87 2 97 3 106 
2 116 2 125 3 137 2 146 2 158 3 167 2 177 2 186 
3 195 2 202 2 208 2 212 3 215 2 215 2 214 3 211 
2 204 2 197 3 185 2 173 2 158 3 141 2 123 2 102 
3 82 2 59 2 38 2 15 3 -7 2 -28 2 -48 3 -68 
2 -85 2 -100 3 -115 2 -126 2 -137 3 -144 2 -150 2 -154 
3 -156 2 -157 2 -156 3 -153 2 -150 2 -145 2 -140 3 -135 
2 -128 2 -122 3 -115 2 -108 2 -101 3 -95 2 -89 2 -83 
3 -76 2 -72 2 -66 3 -61 2 -57 2 -53 2 -49 3 -45 
2 -43 2 -39 3 -36 2 -34 2 -32 3 -29 2 -28 2 -26 
3 -24 2 -23 2 -21 3 -20 2 -19 2 -18 3 -17 2 -16 
2 -15 2 -14 3 -13 2 -13 2 -12 3 -11 2 -11 2 -10 
3 -10 2 -9 2 -8 3 -9 2 -7 2 -7 3 -7 2 -7 
2 -6 2 -5 3 -6 2 -5 2 -4 3 -5 2 -4 2 -3 
3 -4 2 -3 2 -3 3 -3 2 -2 2 -2 3 -2 2 -2 
2 -1 3 -2 2 -1 2 -1 2 0 3 -1 2 0 2 0 
3 0 2 0 2 0 3 1 2 0 2 1 3 1 2 1 
2 1 3 2 2 1 2 2 2 1 3 2 2 2 2 2 
3 2 2 2 2 3 3 2 2 2 2 3 3 2 2 3 
2 3 3 3 2 2 2 3 2 3 3 3 2 3 2 3 
3 3 2 3 2 4 3 3 2 3 2 3 3 3 2 4 
2 3 3 3 2 4 2 3 3 3 2 3 2 4 2 3 
3 3 2 3 2 4 3 3 2 3 2 3 3 3 2 3 
2 4 3 3 2 3 2 3 3 3 2 3 2 2 2 3 
3 3 2 3 2 3 3 2 2 3 2 2 3 3 2 2 
2 3 3 2 2 3 2 2 3 2 2 2 2 2 3 2 
2 2 2 2 2 2 3 2 2 1 2 2 3 2 2 1 
2 2 3 1 2 1 2 2 3 1 2 1 2 1 3 1 
2 1 2 1 2 1 3 1 2 1 2 1 3 0 2 1 
2 1 3 0 2 1 2 0 3 1 2 0 2 1 3 0 
2 1 2 1 2 0 3 1 2 1 2 1 3 1 2 1 
2 1 3 1 2 2 2 2 3 2 2 3 2 3 3 4 
2 4 2 4 3 6 2 6 2 7 2 8 3 10 2 10 
2 12 3 14 2 15 2 17 3 19 2 21 2 23 3 26 
2 27 2 30 3 33 4181 4352 300 MP stroke
2 35 2 37 2 39 3 41 2 43 2 44 3 46 2 46 
2 47 3 46 2 46 2 45 3 43 2 41 2 38 3 35 
2 32 2 27 3 23 2 18 2 13 2 8 3 3 2 -2 
2 -7 3 -12 2 -16 2 -21 3 -24 2 -27 2 -31 3 -33 
2 -35 2 -37 3 -38 2 -39 2 -39 2 -39 3 -38 2 -38 
2 -37 3 -37 2 -35 2 -33 3 -33 2 -31 2 -29 3 -28 
2 -26 2 -25 3 -24 2 -23 2 -21 2 -20 3 -19 2 -18 
2 -17 3 -16 2 -15 2 -15 3 -13 2 -14 2 -12 3 -12 
2 -12 2 -11 3 -11 2 -10 2 -10 3 -10 2 -10 2 -9 
2 -9 3 -9 2 -8 2 -9 3 -8 2 -8 2 -8 3 -8 
2 -8 2 -8 3 -7 2 -8 2 -7 3 -7 2 -8 2 -7 
2 -7 3 -7 2 -7 2 -7 3 -7 2 -7 2 -7 3 -7 
2 -7 2 -7 3 -6 2 -7 2 -7 3 -7 2 -6 2 -7 
3 -7 2 -6 2 -7 2 -6 3 -7 2 -7 2 -6 3 -7 
2 -6 2 -6 3 -7 2 -6 2 -7 3 -6 2 -6 2 -7 
3 -6 2 -6 2 -6 2 -7 3 -6 2 -6 2 -6 3 -6 
2 -6 2 -6 3 -6 2 -6 2 -6 3 -6 2 -6 2 -5 
3 -6 2 -6 2 -5 3 -6 2 -5 2 -6 2 -5 3 -6 
2 -5 2 -5 3 -6 2 -5 2 -5 3 -5 2 -5 2 -5 
3 -5 2 -5 2 -4 3 -5 2 -5 2 -4 2 -5 3 -4 
2 -5 2 -4 3 -4 2 -5 2 -4 3 -4 2 -4 2 -4 
3 -4 2 -4 2 -3 3 -4 2 -4 2 -3 2 -4 3 -3 
2 -4 2 -3 3 -3 2 -3 2 -4 3 -3 2 -3 2 -3 
3 -2 2 -3 2 -3 3 -3 2 -2 2 -3 3 -2 2 -3 
2 -2 2 -3 3 -2 2 -2 2 -2 3 -3 2 -2 2 -2 
3 -2 2 -2 2 -1 3 -2 2 -2 2 -2 3 -1 2 -2 
2 -2 2 -1 3 -2 2 -1 2 -2 3 -1 2 -1 2 -2 
3 -1 2 -1 2 -1 3 -1 2 -1 2 -2 3 -1 2 -1 
2 -1 3 -1 2 0 2 -1 2 -1 3 -1 2 -1 2 -1 
3 0 2 -1 2 -1 3 -1 2 0 2 -1 3 -1 2 0 
2 -1 3 0 2 -1 2 -1 2 0 3 -1 2 0 2 -1 
3 0 2 -1 2 0 3 -1 2 0 2 -1 3 -1 2 0 
2 -1 3 0 2 -1 2 0 2 -1 3 0 2 -1 2 0 
3 -1 2 -1 2 0 3 -1 2 0 2 -1 3 0 2 -1 
2 -1 3 0 2 -1 2 0 3 -1 2 0 2 -1 2 -1 
3 0 2 -1 2 0 3 -1 2 0 2 0 3 -1 2 0 
2 -1 3 0 2 0 2 -1 3 0 2 0 2 0 2 0 
3 -1 2 0 2 0 3490 5432 300 MP stroke
3 0 2 0 2 0 3 0 2 0 2 -1 3 0 2 0 
2 0 3 0 2 0 2 -1 3 0 2 0 2 -1 2 0 
3 -1 2 -1 2 0 3 -1 2 -1 2 -1 3 -1 2 -1 
2 -2 3 -1 2 -2 2 -1 3 -2 2 -2 2 -2 2 -2 
3 -2 2 -2 2 -2 3 -3 2 -2 2 -3 3 -2 2 -3 
2 -3 3 -2 2 -3 2 -3 3 -2 2 -3 2 -3 3 -3 
2 -3 2 -2 2 -3 3 -3 2 -2 2 -3 3 -3 2 -2 
2 -3 3 -3 2 -2 2 -3 3 -2 2 -2 2 -3 3 -2 
2 -2 2 -3 2 -2 3 -2 2 -2 2 -3 3 -2 2 -2 
2 -2 3 -2 2 -2 2 -3 3 -2 2 -2 2 -2 3 -2 
2 -2 2 -2 2 -2 3 -3 2 -2 2 -2 3 -2 2 -2 
2 -2 3 -3 2 -2 2 -2 3 -2 2 -3 2 -2 3 -2 
2 -2 2 -2 3 -3 2 -2 2 -2 2 -2 3 -2 2 -3 
2 -2 3 -2 2 -2 2 -2 3 -2 2 -3 2 -2 3 -2 
2 -2 2 -2 3 -2 2 -2 2 -2 2 -2 3 -2 2 -2 
2 -2 3 -2 2 -2 2 -2 3 -2 2 -2 2 -2 3 -2 
2 -2 2 -2 3 -2 2 -2 2 -2 3 -2 2 -2 2 -2 
2 -2 3 -1 2 -2 2 -2 3 -2 2 -2 2 -2 3 -2 
2 -2 2 -2 3 -2 2 -1 2 -2 3 -2 2 -2 2 -2 
2 -2 3 -2 2 -1 2 -2 3 -2 2 -2 2 -2 3 -1 
2 -2 2 -2 3 -1 2 -2 2 -2 3 -1 2 -2 2 -2 
2 -1 3 -2 2 -2 2 -1 3 -2 2 -1 2 -2 3 -1 
2 -2 2 -1 3 -2 2 -1 2 -2 3 -1 2 -2 2 -1 
3 -2 2 -1 2 -2 2 -1 3 -2 2 -1 2 -2 3 -1 
2 -2 2 -1 3 -2 2 -1 2 -2 3 -1 2 -1 2 -2 
3 -1 2 -2 2 -1 2 -1 3 -2 2 -1 2 -1 3 -2 
2 -1 2 -1 3 -1 2 -2 2 -1 3 -1 2 -1 2 -2 
3 -1 2 -1 2 -1 3 -1 2 -1 2 -1 2 -2 3 -1 
2 -1 2 -1 3 -1 2 -1 2 -1 3 -1 2 -1 2 -2 
3 -1 2 -1 2 -1 3 -1 2 -1 2 -1 2 -1 3 -1 
2 -1 2 -1 3 -1 2 -1 2 -1 3 -1 2 -1 2 -1 
3 -1 2 -1 2 -1 3 -1 2 -1 2 -1 2 -1 3 0 
2 -1 2 -1 3 -1 2 -1 2 -1 3 -1 2 0 2 -1 
3 -1 2 -1 2 -1 3 0 2 -1 2 -1 3 -1 2 0 
2 -1 2 -1 3 -1 2 0 2 -1 3 -1 2 0 2 -1 
3 -1 2 0 2 -1 3 -1 2 0 2 -1 3 -1 2 0 
2 -1 2 -1 3 0 2 -1 2 0 3 -1 2 -1 2 0 
3 -1 2 0 2 -1 2798 5890 300 MP stroke
3 0 2 -1 2 0 3 -1 2 0 2 -1 3 0 2 -1 
2 0 2 -1 3 0 2 -1 2 0 3 -1 2 0 2 0 
3 -1 2 0 2 -1 3 0 2 0 2 -1 3 0 2 0 
2 -1 2 0 3 0 2 -1 2 0 3 0 2 -1 2 0 
3 0 2 0 2 -1 3 0 2 0 2 0 3 0 2 -1 
2 0 3 0 2 0 2 0 2 -1 3 0 2 0 2 0 
3 0 2 0 2 0 3 0 2 0 2 0 3 -1 2 0 
2 0 3 0 2 0 2 0 2 0 3 0 2 0 2 0 
3 0 2 1 2 0 3 0 2 0 2 0 3 0 2 0 
2 0 3 0 2 1 2 0 2 0 3 0 2 0 2 1 
3 0 2 0 2 0 3 0 2 1 2 0 3 0 2 1 
2 0 3 0 2 1 2 0 3 0 2 1 2 0 2 1 
3 0 2 0 2 1 3 0 2 1 2 0 3 1 2 0 
2 1 3 0 2 1 2 1 3 0 2 1 2 0 2 1 
3 1 2 0 2 1 3 1 2 0 2 1 3 1 2 1 
2 0 3 1 2 1 2 1 3 1 2 1 2 0 3 1 
2 1 2 1 2 1 3 1 2 1 2 1 3 1 2 1 
2 1 3 1 2 1 2 1 3 1 2 1 2 1 3 2 
2 1 2 1 2 1 3 1 2 1 2 2 3 1 2 1 
2 2 3 1 2 1 2 2 3 1 2 1 2 2 3 1 
2 1 2 2 2 1 3 2 2 1 2 2 3 1 2 2 
2 2 3 1 2 2 2 1 3 2 2 2 2 1 3 2 
2 2 2 1 3 2 2 2 2 2 2 1 3 2 2 2 
2 2 3 2 2 2 2 1 3 2 2 2 2 2 3 2 
2 2 2 2 3 2 2 2 2 2 2 2 3 2 2 2 
2 2 3 2 2 2 2 2 3 2 2 3 2 2 3 2 
2 2 2 2 3 2 2 2 2 3 3 2 2 2 2 2 
2 2 3 3 2 2 2 2 3 2 2 2 2 3 3 2 
2 2 2 2 3 3 2 2 2 2 3 2 2 3 2 2 
2 2 3 2 2 3 2 2 3 2 2 2 2 3 3 2 
2 2 2 2 3 2 2 3 2 2 3 2 2 2 2 2 
3 2 2 2 2 3 2 2 3 2 2 2 2 2 3 2 
2 2 2 2 3 2 2 2 2 2 3 2 2 2 2 2 
3 1 2 2 2 2 2 2 3 2 2 1 2 2 3 2 
2 1 2 2 3 2 2 1 2 2 3 1 2 2 2 1 
3 2 2 1 2 1 2 2 3 1 2 1 2 1 3 2 
2 1 2 1 3 1 2 1 2 1 3 1 2 1 2 0 
3 1 2 1 2 1 2106 5587 300 MP stroke
3 0 2 1 2 0 2 1 3 0 2 1 2 0 3 1 
2 0 2 0 3 0 2 1 2 0 3 0 2 0 2 0 
3 0 2 -1 2 0 2 0 3 0 2 -1 2 0 3 0 
2 -1 2 -1 3 0 2 -1 2 0 3 -1 2 -1 2 -1 
3 -1 2 -1 2 -1 3 -1 2 -1 2 -1 2 -1 3 -1 
2 -2 2 -1 3 -1 2 -2 2 -1 3 -2 2 -1 2 -2 
3 -1 2 -2 2 -2 3 -1 2 -2 2 -2 2 -2 3 -2 
2 -2 2 -2 3 -2 2 -2 2 -2 3 -2 2 -2 2 -2 
3 -3 2 -2 2 -2 3 -2 2 -3 2 -2 2 -2 3 -3 
2 -2 2 -3 3 -2 2 -3 2 -2 3 -3 2 -2 2 -3 
3 -3 2 -2 2 -3 3 -2 2 -3 2 -3 3 -2 2 -3 
2 -3 2 -2 3 -3 2 -3 2 -3 3 -2 2 -3 2 -3 
3 -3 2 -2 2 -3 3 -3 2 -3 2 -2 3 -3 2 -3 
2 -2 2 -3 3 -3 2 -3 2 -2 3 -3 2 -3 2 -2 
3 -3 2 -3 2 -2 3 -3 2 -2 2 -3 3 -3 2 -2 
2 -3 3 -2 2 -3 2 -2 2 -3 3 -2 2 -3 2 -2 
3 -3 2 -2 2 -2 3 -3 2 -2 2 -2 3 -3 2 -2 
2 -2 3 -3 2 -2 2 -2 2 -2 3 -2 2 -3 2 -2 
3 -2 2 -2 2 -2 3 -2 2 -2 2 -2 3 -2 2 -2 
2 -2 3 -2 2 -1 2 -2 2 -2 3 -2 2 -2 2 -1 
3 -2 2 -2 2 -2 3 -1 2 -2 2 -2 3 -1 2 -2 
2 -1 3 -2 2 -1 2 -2 3 -1 2 -2 2 -1 2 -2 
3 -1 2 -1 2 -2 3 -1 2 -1 2 -1 3 -2 2 -1 
2 -1 3 -1 2 -2 2 -1 3 -1 2 -1 2 -1 2 -1 
3 -1 2 -1 2 -1 3 -1 2 -1 2 -1 3 -1 2 -1 
2 -1 3 -1 2 -1 2 -1 3 -1 2 -1 2 0 3 -1 
2 -1 2 -1 2 -1 3 0 2 -1 2 -1 3 -1 2 0 
2 -1 3 -1 2 0 2 -1 3 -1 2 0 2 -1 3 0 
2 -1 2 -1 2 0 3 -1 2 0 2 -1 3 0 2 -1 
2 0 3 -1 2 0 2 -1 3 0 2 -1 2 0 3 -1 
2 0 2 0 3 -1 2 0 2 -1 2 0 3 0 2 -1 
2 0 3 0 2 -1 2 0 3 -1 2 0 2 0 3 0 
2 -1 2 0 3 0 2 -1 2 0 2 0 3 0 2 -1 
2 0 3 0 2 0 2 -1 3 0 2 0 2 0 3 -1 
2 0 2 0 3 0 2 0 2 -1 2 0 3 0 2 0 
2 0 3 -1 2 0 2 0 3 0 2 0 2 0 3 0 
2 -1 2 0 3 0 2 0 2 0 3 0 2 0 2 -1 
2 0 3 0 2 0 1414 5967 300 MP stroke
2 0 3 0 2 0 2 0 3 0 2 -1 2 0 3 0 
2 0 2 0 3 0 2 0 2 0 2 0 3 0 2 -1 
2 0 3 0 2 0 2 0 3 0 2 0 2 0 3 0 
2 0 2 0 3 0 2 0 2 0 3 0 2 -1 2 0 
2 0 3 0 2 0 2 0 3 0 2 0 2 0 3 0 
2 0 2 0 3 0 2 0 2 0 3 0 2 0 2 0 
2 0 3 0 2 0 2 0 3 -1 2 0 2 0 3 0 
2 0 2 0 3 0 2 0 2 0 3 0 2 0 2 0 
2 0 3 0 2 0 2 0 3 0 2 0 2 0 3 0 
2 0 2 0 3 0 2 0 2 0 3 0 2 0 2 0 
3 0 2 0 2 0 2 0 3 0 2 0 2 0 3 0 
2 0 2 0 3 0 2 0 2 0 3 0 2 0 2 0 
3 0 2 0 2 0 2 -1 3 0 2 0 2 0 3 0 
2 0 2 0 3 0 2 0 2 0 3 0 2 0 2 0 
3 0 2 0 2 0 3 0 2 0 2 0 2 0 3 0 
2 0 2 0 3 0 2 0 2 0 3 0 2 0 2 0 
3 0 2 0 2 0 3 0 2 0 2 0 2 0 3 0 
2 0 2 0 3 0 2 0 2 0 3 0 2 0 2 0 
3 0 2 0 2 0 3 0 2 0 2 0 3 0 2 0 
2 0 2 0 3 0 2 0 2 0 3 0 2 0 2 0 
3 0 2 0 2 0 3 0 2 0 2 0 3 0 2 0 
2 0 2 0 3 0 2 0 2 0 3 0 2 0 2 0 
3 0 2 0 2 0 3 0 2 0 2 0 3 0 2 0 
2 0 2 0 3 0 2 0 2 0 3 0 2 0 2 0 
3 0 2 0 2 0 3 0 2 0 2 0 3 0 2 0 
2 0 3 0 2 0 2 0 2 0 3 0 2 0 2 0 
3 0 2 0 2 0 3 0 2 0 2 0 3 0 2 0 
2 0 3 0 2 0 2 0 2 0 3 0 2 0 2 0 
3 0 2 0 2 0 3 0 2 0 2 0 3 0 2 0 
2 0 3 0 2 0 2 0 3 0 2 0 2 0 2 0 
3 0 2 0 2 0 3 0 2 0 2 0 3 0 2 0 
2 0 3 0 2 0 2 0 3 0 2 0 2 0 2 0 
3 0 2 0 2 0 3 0 2 0 2 0 3 0 2 0 
2 0 3 0 2 0 2 0 3 0 2 0 2 0 2 0 
3 0 2 0 2 0 3 0 2 0 2 0 3 0 2 0 
2 0 3 0 2 0 2 0 3 0 2 0 2 0 3 0 
2 0 2 0 2 0 3 0 2 0 2 0 3 0 2 0 
2 0 3 0 2 0 722 5972 300 MP stroke
2 0 3 0 2 0 2 0 3 0 2 0 2 0 2 0 
3 0 2 0 2 0 3 0 2 0 2 0 3 0 2 0 
2 0 3 0 2 0 2 0 3 0 2 0 2 0 3 0 
2 0 2 0 2 0 3 0 2 0 2 0 3 0 2 0 
2 0 3 0 2 0 2 0 3 0 2 0 2 0 3 0 
2 0 2 0 2 0 3 0 2 0 2 0 3 0 2 0 
2 0 3 0 2 0 2 0 3 0 2 0 2 0 3 0 
2 0 2 0 2 0 3 0 2 0 2 0 3 0 2 0 
2 0 3 0 2 0 2 0 3 0 2 0 2 0 3 0 
2 0 2 0 3 0 2 0 2 0 2 0 3 0 2 0 
2 0 3 0 2 0 2 0 3 0 2 0 2 0 3 0 
2 0 2 0 3 0 2 0 2 0 2 0 3 0 2 0 
2 0 3 0 2 0 2 0 3 0 2 0 2 0 3 0 
2 0 2 0 3 0 2 0 2 0 3 0 2 0 2 0 
2 0 3 0 2 0 2 0 3 0 2 0 2 0 3 0 
2 0 2 0 3 0 2 0 2 0 3 0 2 0 2 0 
2 0 3 0 2 0 2 0 3 0 2 0 2 0 3 0 
2 0 2 0 3 0 2 0 2 0 3 0 2 0 2 0 
3 0 2 0 2 0 2 0 3 0 2 0 2 0 3 0 
2 0 2 0 3 0 2 0 2 0 3 0 2 0 2 0 
3 0 2 0 2 0 2 0 3 0 2 0 2 0 3 0 
2 0 2 0 3 0 2 0 2 0 3 0 2 0 2 0 
3 0 2 0 2 0 2 0 3 0 2 0 2 0 3 0 
2 0 2 0 3 0 2 0 2 0 3 0 2 0 2 0 
3 0 2 0 2 0 3 0 2 0 2 0 2 0 3 0 
2 0 2 0 3 0 2 0 2 0 3 0 2 0 2 0 
3 0 2 0 2 0 3 0 2 0 2 0 2 0 3 0 
2 0 2 0 3 0 2 0 2 0 3 0 2 0 2 0 
3 0 2 0 2 0 3 0 2 0 2 0 3 0 2 0 
2 0 2 0 3 0 2 0 2 0 3 0 2 0 2 0 
3 0 2 0 2 0 3 0 2 0 2 0 3 0 2 0 
2 0 2 0 3 0 2 0 2 0 3 0 2 0 2 0 
3 0 2 0 2 0 3 0 2 0 2 0 3 0 2 0 
2 0 2 0 3 0 2 0 2 0 3 0 2 0 2 0 
3 0 2 0 2 0 3 0 2 0 2 0 3 0 2 0 
2 0 3 0 2 0 2 0 2 0 3 0 2 0 2 0 
3 0 2 0 2 0 3 0 2 0 2 0 3 0 2 0 
2 0 3 0 2 0 30 5972 300 MP stroke
2 0 2 0 3 0 2 0 2 0 3 0 2 0 2 0 
3 0 2 0 2 0 3 0 2 0 1 0 3 0 2 0 
2 0 3 0 2 0 2 0 2 0 3 0 2 0 2 0 
3 0 2 0 2 0 3 0 2 0 2 0 3 0 2 0 
2 0 3 0 2 0 2 0 2 0 3 0 2 0 2 0 
3 0 2 0 2 0 3 0 2 0 2 0 3 0 2 0 
2 0 3 0 2 0 2 0 3 0 2 0 2 0 2 0 
2 0 -100 5972 58 MP stroke

gr 
c8
0 sg
3904 6261 mt 
(Electron kinetic energy \(eV\)) s
3411  400 mt 
(HF cross section at the resonance \() s
%%IncludeResource: font Symbol
/Symbol /ISOLatin1Encoding 120 FMSR

5305  400 mt 
(w) s
%%IncludeResource: font Helvetica
/Helvetica /ISOLatin1Encoding 120 FMSR

5387  400 mt 
(=687 eV\)) s

end

eplot
%%EndObject

epage
end

showpage

%%Trailer
%%BoundingBox:    52   105   557   723
%%Pages: 001
%%EOF
