%!PS-Adobe-3.0 
%%Creator: MATLAB, The Mathworks, Inc.
%%Title: /home/pawsa/molecules/HF/ram/collectedCrossSections3.ps
%%CreationDate: 09/01/ 0  08:55:14
%%DocumentNeededFonts: Helvetica
%%DocumentProcessColors: Cyan Magenta Yellow Black
%%LanguageLevel: 2
%%Pages: (atend)
%%BoundingBox: (atend)
%%EndComments

%%BeginProlog

% MathWorks dictionary
/MathWorks 160 dict begin

% definition operators
/bdef {bind def} bind def
/ldef {load def} bind def
/xdef {exch def} bdef
/xstore {exch store} bdef

% operator abbreviations
/c  /clip ldef
/cc /concat ldef
/cp /closepath ldef
/gr /grestore ldef
/gs /gsave ldef
/mt /moveto ldef
/np /newpath ldef
/cm /currentmatrix ldef
/sm /setmatrix ldef
/rc {rectclip} bdef
/rf {rectfill} bdef
/rm /rmoveto ldef
/rl /rlineto ldef
/s /show ldef
/sc {setcmykcolor} bdef
/sr /setrgbcolor ldef
/sg /setgray ldef
/w /setlinewidth ldef
/j /setlinejoin ldef
/cap /setlinecap ldef

% page state control
/pgsv () def
/bpage {/pgsv save def} bdef
/epage {pgsv restore} bdef
/bplot /gsave ldef
/eplot {stroke grestore} bdef

% orientation switch
/portraitMode 	0 def
/landscapeMode 	1 def

% coordinate system mappings
/dpi2point 0 def

% font control
/FontSize 0 def
/FMS {
	/FontSize xstore		%save size off stack
	findfont
	[FontSize 0 0 FontSize neg 0 0]
	makefont
	setfont
	}bdef

/reencode {
exch dup where
{pop load} {pop StandardEncoding} ifelse
exch
dup 3 1 roll
findfont dup length dict begin
  { 1 index /FID ne {def}{pop pop} ifelse } forall
  /Encoding exch def
  currentdict
end
definefont pop
} bdef

/isroman {
findfont /CharStrings get
/Agrave known
} bdef

/FMSR {
3 1 roll 1 index
dup isroman
{reencode} {pop pop} ifelse
exch FMS
} bdef

/csm {
	1 dpi2point div -1 dpi2point div scale
	neg translate
	landscapeMode eq {90 rotate} if
	} bdef

% line types: solid, dotted, dashed, dotdash
/SO { [] 0 setdash } bdef
/DO { [.5 dpi2point mul 4 dpi2point mul] 0 setdash } bdef
/DA { [6 dpi2point mul] 0 setdash } bdef
/DD { [.5 dpi2point mul 4 dpi2point mul 6 dpi2point mul 4 dpi2point mul] 0 setdash } bdef

% macros for lines and objects
/L {
	lineto
	stroke
	} bdef
/MP {
	3 1 roll moveto
	1 sub {rlineto} repeat
	} bdef
/AP {
	{rlineto} repeat
	} bdef
/PP {
	closepath eofill
	} bdef
/DP {
	closepath stroke
	} bdef
/MR {
	4 -2 roll moveto
	dup  0 exch rlineto
	exch 0 rlineto
	neg  0 exch rlineto
	closepath
	} bdef
/FR {
	MR stroke
	} bdef
/PR {
	MR fill
	} bdef
/L1i {
	{ currentfile picstr readhexstring pop } image
	} bdef

/tMatrix matrix def
/MakeOval {
	newpath
	tMatrix currentmatrix pop
	translate scale
	0 0 1 0 360 arc
	tMatrix setmatrix
	} bdef
/FO {
	MakeOval
	stroke
	} bdef
/PO {
	MakeOval
	fill
	} bdef

/PD {
	currentlinecap 1 setlinecap 3 1 roll 2 copy moveto lineto stroke setlinecap
	} bdef

/FA {
	newpath
	tMatrix currentmatrix pop
	translate scale
	0 0 1 5 -2 roll arc
	tMatrix setmatrix
	stroke
	} bdef
/PA {
	newpath
	tMatrix currentmatrix pop
	translate 0 0 moveto scale
	0 0 1 5 -2 roll arc
	closepath
	tMatrix setmatrix
	fill
	} bdef

/FAn {
	newpath
	tMatrix currentmatrix pop
	translate scale
	0 0 1 5 -2 roll arcn
	tMatrix setmatrix
	stroke
	} bdef
/PAn {
	newpath
	tMatrix currentmatrix pop
	translate 0 0 moveto scale
	0 0 1 5 -2 roll arcn
	closepath
	tMatrix setmatrix
	fill
	} bdef

/vradius 0 def
/hradius 0 def
/lry 0 def
/lrx 0 def
/uly 0 def
/ulx 0 def
/rad 0 def

/MRR {
	/vradius xdef
	/hradius xdef
	/lry xdef
	/lrx xdef
	/uly xdef
	/ulx xdef
	newpath
	tMatrix currentmatrix pop
	ulx hradius add uly vradius add translate
	hradius vradius scale
	0 0 1 180 270 arc 
	tMatrix setmatrix
	lrx hradius sub uly vradius add translate
	hradius vradius scale
	0 0 1 270 360 arc
	tMatrix setmatrix
	lrx hradius sub lry vradius sub translate
	hradius vradius scale
	0 0 1 0 90 arc
	tMatrix setmatrix
	ulx hradius add lry vradius sub translate
	hradius vradius scale
	0 0 1 90 180 arc
	tMatrix setmatrix
	closepath
	} bdef
/FRR {
	MRR stroke } bdef
/PRR {
	MRR fill } bdef

/MlrRR {
	/lry xdef
	/lrx xdef
	/uly xdef
	/ulx xdef
	/rad lry uly sub 2 div def
	newpath
	tMatrix currentmatrix pop
	ulx rad add uly rad add translate
	rad rad scale
	0 0 1 90 270 arc
	tMatrix setmatrix
	lrx rad sub lry rad sub translate
	rad rad scale
	0 0 1 270 90 arc
	tMatrix setmatrix
	closepath
	} bdef
/FlrRR {
	MlrRR stroke } bdef
/PlrRR {
	MlrRR fill } bdef

/MtbRR {
	/lry xdef
	/lrx xdef
	/uly xdef
	/ulx xdef
	/rad lrx ulx sub 2 div def
	newpath
	tMatrix currentmatrix pop
	ulx rad add uly rad add translate
	rad rad scale
	0 0 1 180 360 arc
	tMatrix setmatrix
	lrx rad sub lry rad sub translate
	rad rad scale
	0 0 1 0 180 arc
	tMatrix setmatrix
	closepath
	} bdef
/FtbRR {
	MtbRR stroke } bdef
/PtbRR {
	MtbRR fill } bdef

currentdict end def
%%EndProlog

%%BeginSetup
MathWorks begin

0 cap

end
%%EndSetup

%%Page: 1 1
%%BeginPageSetup
%%PageBoundingBox:    85   179   508   686
MathWorks begin
bpage
%%EndPageSetup

%%BeginObject: obj1
bplot

/dpi2point 12 def
portraitMode 0612 8508 csm

  409   265  5078  6094 rc
93 dict begin %Colortable dictionary
/c0 { 0 0 0 sr} bdef
/c1 { 1 1 1 sr} bdef
/c2 { 1 0 0 sr} bdef
/c3 { 0 1 0 sr} bdef
/c4 { 0 0 1 sr} bdef
/c5 { 1 1 0 sr} bdef
/c6 { 1 0 1 sr} bdef
/c7 { 0 1 1 sr} bdef
c0
1 j
1 sg
   0    0 5900 6921 rf
6 w
0 1135 4571 0 0 -1135 767 1654 4 MP
PP
-4571 0 0 1135 4571 0 0 -1135 767 1654 5 MP stroke
4 w
DO
SO
6 w
0 sg
 767 1654 mt 5338 1654 L
 767  519 mt 5338  519 L
 767 1654 mt  767  519 L
5338 1654 mt 5338  519 L
 767 1654 mt 5338 1654 L
 767 1654 mt  767  519 L
 767 1654 mt  767 1608 L
 767  519 mt  767  565 L
%%IncludeResource: font Helvetica
/Helvetica /ISOLatin1Encoding 120 FMSR

 667 1800 mt 
(645) s
1529 1654 mt 1529 1608 L
1529  519 mt 1529  565 L
1429 1800 mt 
(650) s
2291 1654 mt 2291 1608 L
2291  519 mt 2291  565 L
2191 1800 mt 
(655) s
3053 1654 mt 3053 1608 L
3053  519 mt 3053  565 L
2953 1800 mt 
(660) s
3814 1654 mt 3814 1608 L
3814  519 mt 3814  565 L
3714 1800 mt 
(665) s
4576 1654 mt 4576 1608 L
4576  519 mt 4576  565 L
4476 1800 mt 
(670) s
5338 1654 mt 5338 1608 L
5338  519 mt 5338  565 L
5238 1800 mt 
(675) s
 767 1654 mt  813 1654 L
5338 1654 mt 5292 1654 L
 666 1698 mt 
(0) s
 767 1370 mt  813 1370 L
5338 1370 mt 5292 1370 L
 532 1414 mt 
(500) s
 767 1087 mt  813 1087 L
5338 1087 mt 5292 1087 L
 466 1131 mt 
(1000) s
 767  803 mt  813  803 L
5338  803 mt 5292  803 L
 466  847 mt 
(1500) s
 767  519 mt  813  519 L
5338  519 mt 5292  519 L
 466  563 mt 
(2000) s
 767 1654 mt 5338 1654 L
 767  519 mt 5338  519 L
 767 1654 mt  767  519 L
5338 1654 mt 5338  519 L
gs 767 519 4572 1136 rc
/c8 { 0.000000 0.000000 1.000000 sr} bdef
c8
2 0 1 0 2 0 1 0 2 0 1 0 2 0 1 0 
2 0 1 0 2 0 1 0 2 0 1 0 2 0 1 0 
2 0 2 0 1 0 2 0 1 0 2 0 1 0 2 0 
1 0 2 0 1 0 2 0 1 0 2 0 1 0 2 0 
1 0 2 0 1 0 2 0 1 0 2 0 2 0 1 0 
2 0 1 0 2 0 1 0 2 0 1 0 2 0 1 0 
2 0 1 0 2 0 1 0 2 0 1 0 2 0 1 0 
2 0 1 0 2 0 2 0 1 0 2 0 1 0 2 0 
1 0 2 0 1 0 2 0 1 0 2 0 1 0 2 0 
1 0 2 0 1 0 2 0 1 0 2 0 1 0 2 0 
2 0 1 0 2 0 1 0 2 0 1 0 2 0 1 0 
2 0 1 0 2 0 1 0 2 0 1 0 2 0 1 0 
2 0 1 0 2 0 1 0 2 0 2 0 1 0 2 0 
1 0 2 0 1 0 2 0 1 0 2 0 1 0 2 0 
1 0 2 0 1 0 2 0 1 0 2 0 1 0 2 0 
1 0 2 0 2 0 1 0 2 0 1 0 2 0 1 0 
2 0 1 0 2 0 1 0 2 0 1 0 2 0 1 0 
2 0 1 0 2 0 1 0 2 0 1 0 2 0 2 0 
1 0 2 0 1 0 2 0 1 0 2 0 1 0 2 0 
1 0 2 0 1 0 2 0 1 0 2 0 1 0 2 0 
1 0 2 0 1 0 2 0 2 0 1 0 2 0 1 0 
2 0 1 0 2 0 1 0 2 0 1 0 2 0 1 0 
2 0 1 0 2 0 1 0 2 0 1 0 2 0 1 0 
2 0 2 0 1 0 2 0 1 0 2 0 1 0 2 0 
1 0 2 0 1 0 2 0 1 0 2 0 1 0 2 0 
1 0 2 0 1 0 2 0 1 0 2 0 2 0 1 0 
2 0 1 0 2 0 1 0 2 0 1 0 2 0 1 0 
2 0 1 0 2 0 1 0 2 0 1 0 2 0 1 0 
2 0 1 0 2 0 2 0 1 0 2 0 1 0 2 0 
1 0 2 0 1 0 2 0 1 0 2 0 1 0 2 0 
1 0 2 0 1 0 2 0 1 0 2 0 1 0 2 0 
1 0 2 0 2 0 1 0 2 0 1 0 2 0 1 0 
2 0 1 0 2 0 1 0 2 0 1 0 2 0 1 0 
2 0 1 0 2 0 1 0 2 0 1 0 2 0 2 0 
1 0 2 0 1 0 2 0 1 0 2 0 1 0 2 0 
1 0 2 0 1 0 2 0 1 0 2 0 1 0 2 0 
1 0 2 0 1 0 2 0 2 0 1 0 2 0 1 0 
2 0 1 0 2 0 5487 1654 300 MP stroke
1 0 2 0 1 0 2 0 1 0 2 0 1 0 2 0 
1 0 2 0 1 0 2 0 1 0 2 0 2 0 1 0 
2 0 1 0 2 0 1 0 2 0 1 0 2 0 1 0 
2 0 1 0 2 0 1 0 2 0 1 0 2 0 1 0 
2 0 1 0 2 0 2 0 1 0 2 0 1 0 2 0 
1 0 2 0 1 0 2 0 1 0 2 0 1 0 2 0 
1 0 2 0 1 0 2 0 1 0 2 0 1 0 2 0 
2 0 1 0 2 0 1 0 2 0 1 0 2 0 1 0 
2 0 1 0 2 0 1 0 2 0 1 0 2 0 1 0 
2 0 1 0 2 0 1 0 2 0 2 0 1 0 2 0 
1 0 2 0 1 0 2 0 1 0 2 0 1 0 2 0 
1 0 2 0 1 0 2 0 1 0 2 0 1 0 2 0 
1 0 2 0 2 0 1 0 2 0 1 0 2 0 1 0 
2 0 1 0 2 0 1 0 2 0 1 0 2 0 1 0 
2 0 1 0 2 0 1 0 2 0 1 0 2 0 2 0 
1 0 2 0 1 0 2 0 1 0 2 0 1 0 2 0 
1 0 2 0 1 0 2 0 1 0 2 0 1 0 2 0 
1 0 2 0 1 0 2 0 2 0 1 0 2 0 1 0 
2 0 1 0 2 0 1 0 2 0 1 0 2 0 1 0 
2 0 1 0 2 0 1 0 2 0 1 0 2 0 1 0 
2 0 2 0 1 0 2 0 1 0 2 0 1 0 2 0 
1 0 2 0 1 0 2 0 1 0 2 0 1 0 2 0 
1 0 2 0 1 0 2 0 1 0 2 0 2 0 1 0 
2 0 1 0 2 0 1 0 2 0 1 0 2 0 1 0 
2 0 1 0 2 0 1 0 2 0 1 0 2 0 1 0 
2 0 1 0 2 0 2 0 1 0 2 0 1 0 2 0 
1 0 2 0 1 0 2 0 1 0 2 0 1 0 2 0 
1 0 2 0 1 0 2 0 1 0 2 0 1 0 2 0 
2 0 1 0 2 0 1 0 2 0 1 0 2 0 1 0 
2 0 1 0 2 0 1 0 2 0 1 0 2 0 1 0 
2 0 1 0 2 0 1 0 2 0 2 0 1 0 2 0 
1 0 2 0 1 0 2 0 1 0 2 0 1 0 2 0 
1 0 2 0 1 0 2 0 1 0 2 0 1 0 2 0 
1 0 2 0 1 0 2 0 2 0 1 0 2 0 1 0 
2 0 1 0 2 0 1 0 2 0 1 0 2 0 1 0 
2 0 1 0 2 0 1 0 2 0 1 0 2 0 1 0 
2 0 2 0 1 0 2 0 1 0 2 0 1 0 2 0 
1 0 2 0 1 0 5032 1654 300 MP stroke
2 0 1 0 2 0 1 0 2 0 1 0 2 0 1 0 
2 0 1 0 2 0 2 0 1 0 2 0 1 0 2 0 
1 0 2 0 1 0 2 0 1 0 2 0 1 0 2 0 
1 0 2 0 1 0 2 0 1 0 2 0 1 0 2 0 
2 0 1 0 2 0 1 0 2 0 1 0 2 0 1 0 
2 0 1 0 2 0 1 0 2 0 1 0 2 0 1 0 
2 0 1 0 2 0 1 0 2 0 2 0 1 0 2 0 
1 0 2 0 1 0 2 0 1 0 2 0 1 0 2 0 
1 0 2 0 1 0 2 0 1 0 2 0 1 0 2 0 
1 0 2 0 2 0 1 0 2 0 1 0 2 0 1 0 
2 0 1 0 2 0 1 0 2 0 1 0 2 0 1 0 
2 0 1 0 2 0 1 0 2 0 1 0 2 0 2 0 
1 0 2 0 1 0 2 0 1 0 2 0 1 0 2 0 
1 0 2 0 1 0 2 0 1 0 2 1 1 0 2 0 
1 1 2 1 1 1 2 2 2 3 1 4 2 5 1 6 
2 8 1 10 2 12 1 14 2 15 1 17 2 19 1 19 
2 18 1 18 2 17 1 13 2 11 1 6 2 2 1 -2 
2 -7 2 -10 1 -14 2 -16 1 -19 2 -18 1 -19 2 -19 
1 -17 2 -15 1 -14 2 -11 1 -10 2 -8 1 -6 2 -4 
1 -3 2 -2 1 -1 2 0 1 1 2 1 2 2 1 3 
2 4 1 4 2 4 1 5 2 5 1 4 2 5 1 4 
2 3 1 2 2 1 1 0 2 -1 1 -2 2 -2 1 -4 
2 -4 1 -5 2 -5 2 -5 1 -4 2 -4 1 -4 2 -3 
1 -3 2 -2 1 -1 2 -1 1 -1 2 0 1 1 2 1 
1 1 2 2 1 2 2 3 1 3 2 3 1 3 2 4 
2 3 1 3 2 2 1 2 2 1 1 1 2 -1 1 -1 
2 -2 1 -2 2 -3 1 -3 2 -4 1 -3 2 -3 1 -3 
2 -3 1 -2 2 -2 1 -1 2 -1 2 -1 1 0 2 0 
1 0 2 1 1 1 2 2 1 1 2 2 1 2 2 2 
1 2 2 1 1 2 2 1 1 1 2 0 1 0 2 -1 
1 -1 2 -1 2 -2 1 -2 2 -2 1 -2 2 -2 1 -1 
2 -2 1 -1 2 -1 1 -1 2 -1 1 0 2 -1 1 0 
2 0 1 1 2 0 1 0 2 1 1 1 2 0 2 1 
1 0 2 1 1 0 2 0 1 0 2 0 1 0 2 -1 
1 0 2 -1 1 0 2 -1 1 0 2 -1 1 0 2 -1 
1 0 2 0 1 -1 2 0 2 0 1 0 2 0 1 0 
2 0 1 1 2 0 1 0 2 0 1 0 2 0 1 0 
2 0 1 0 2 0 4576 1652 300 MP stroke
1 0 2 0 1 0 2 0 1 0 2 -1 1 0 2 0 
2 0 1 0 2 0 1 0 2 0 1 0 2 0 1 1 
2 0 1 0 2 0 1 0 2 1 1 0 2 0 1 0 
2 0 1 0 2 0 1 -1 2 0 2 0 1 0 2 0 
1 0 2 -1 1 0 2 0 1 0 2 0 1 1 2 0 
1 0 2 0 1 0 2 1 1 0 2 0 1 0 2 0 
1 0 2 0 2 0 1 0 2 0 1 0 2 -1 1 0 
2 0 1 0 2 0 1 0 2 0 1 0 2 0 1 0 
2 0 1 0 2 1 1 0 2 0 1 0 2 0 2 0 
1 0 2 0 1 0 2 0 1 0 2 -1 1 0 2 0 
1 0 2 0 1 0 2 0 1 0 2 0 1 0 2 0 
1 0 2 0 1 1 2 0 2 0 1 0 2 0 1 -1 
2 0 1 0 2 0 1 0 2 0 1 0 2 0 1 0 
2 0 1 0 2 0 1 0 2 0 1 0 2 0 1 0 
2 0 2 0 1 0 2 0 1 0 2 0 1 0 2 0 
1 0 2 0 1 0 2 0 1 0 2 0 1 0 2 1 
1 0 2 0 1 1 2 0 1 1 2 1 2 1 1 2 
2 1 1 2 2 2 1 2 2 2 1 2 2 2 1 1 
2 1 1 2 2 0 1 1 2 0 1 0 2 0 1 0 
2 0 1 1 2 1 2 1 1 2 2 2 1 3 2 3 
1 3 2 2 1 3 2 2 1 2 2 2 1 1 2 0 
1 0 2 0 1 0 2 0 1 0 2 0 1 1 2 1 
2 1 1 1 2 1 1 2 2 1 1 1 2 1 1 0 
2 1 1 0 2 0 1 0 2 1 1 0 2 0 1 0 
2 1 1 0 2 0 1 0 2 0 2 0 1 0 2 0 
1 0 2 -1 1 0 2 -1 1 0 2 0 1 -1 2 0 
1 -1 2 0 1 -1 2 0 1 -1 2 0 1 0 2 -1 
1 0 2 -1 2 0 1 0 2 -1 1 0 2 -1 1 0 
2 -1 1 0 2 0 1 -1 2 0 1 0 2 -1 1 0 
2 0 1 -1 2 0 1 0 2 -1 1 0 2 0 2 0 
1 -1 2 0 1 0 2 0 1 0 2 0 1 -1 2 0 
1 0 2 0 1 0 2 0 1 0 2 0 1 0 2 0 
1 0 2 0 1 0 2 -1 2 0 1 0 2 0 1 0 
2 0 1 0 2 0 1 0 2 0 1 0 2 0 1 0 
2 0 1 0 2 0 1 0 2 0 1 -1 2 0 1 0 
2 0 2 0 1 0 2 0 1 -1 2 0 1 0 2 0 
1 -1 2 0 1 0 2 -1 1 0 2 0 1 -1 2 0 
1 0 2 -1 1 0 4121 1610 300 MP stroke
2 -1 1 0 2 -1 2 0 1 -1 2 0 1 -1 2 0 
1 -1 2 -1 1 0 2 -1 1 0 2 -1 1 -1 2 0 
1 -1 2 -1 1 0 2 -1 1 -1 2 0 1 -1 2 -1 
2 0 1 -1 2 -1 1 0 2 -1 1 -1 2 -1 1 0 
2 -1 1 -1 2 0 1 -1 2 -1 1 0 2 -1 1 0 
2 -1 1 -1 2 0 1 -1 2 0 1 -1 2 0 2 -1 
1 0 2 -1 1 0 2 -1 1 0 2 -1 1 0 2 0 
1 -1 2 0 1 -1 2 0 1 0 2 0 1 -1 2 0 
1 0 2 -1 1 0 2 0 2 0 1 0 2 0 1 -1 
2 0 1 0 2 0 1 0 2 0 1 0 2 0 1 0 
2 0 1 0 2 0 1 0 2 0 1 0 2 0 1 0 
2 0 2 0 1 0 2 0 1 0 2 0 1 0 2 0 
1 0 2 0 1 0 2 0 1 0 2 0 1 0 2 0 
1 1 2 0 1 0 2 0 1 0 2 0 2 0 1 0 
2 0 1 0 2 0 1 0 2 0 1 0 2 0 1 0 
2 0 1 0 2 0 1 0 2 0 1 0 2 0 1 0 
2 0 1 0 2 0 2 0 1 0 2 -1 1 0 2 0 
1 0 2 0 1 0 2 0 1 0 2 0 1 0 2 0 
1 0 2 0 1 0 2 -1 1 0 2 0 1 0 2 0 
2 0 1 0 2 0 1 0 2 0 1 0 2 0 1 0 
2 -1 1 0 2 0 1 0 2 0 1 0 2 0 1 0 
2 0 1 0 2 0 1 0 2 0 2 0 1 0 2 0 
1 0 2 0 1 0 2 0 1 0 2 0 1 0 2 0 
1 0 2 0 1 0 2 0 1 0 2 0 1 0 2 0 
1 0 2 0 2 0 1 0 2 0 1 0 2 0 1 0 
2 0 1 0 2 0 1 0 2 1 1 0 2 0 1 0 
2 0 1 0 2 0 1 0 2 0 1 0 2 0 2 0 
1 0 2 0 1 0 2 0 1 0 2 0 1 0 2 0 
1 0 2 1 1 0 2 0 1 0 2 0 1 0 2 0 
1 0 2 0 1 0 2 0 2 0 1 0 2 0 1 0 
2 0 1 0 2 0 1 0 2 0 1 1 2 0 1 0 
2 0 1 0 2 0 1 0 2 0 1 0 2 0 1 0 
2 0 2 0 1 1 2 0 1 0 2 0 1 0 2 0 
1 0 2 1 1 0 2 0 1 0 2 0 1 1 2 0 
1 0 2 1 1 0 2 0 1 1 2 0 2 0 1 1 
2 0 1 1 2 0 1 1 2 0 1 1 2 0 1 1 
2 0 1 1 2 0 1 0 2 0 1 1 2 0 1 -1 
2 0 1 0 2 0 3665 1636 300 MP stroke
2 -1 1 -1 2 0 1 -1 2 -1 1 -1 2 -1 1 0 
2 -1 1 -1 2 -1 1 -1 2 -1 1 0 2 -1 1 -1 
2 0 1 -1 2 0 1 -1 2 0 2 0 1 -1 2 0 
1 0 2 0 1 -1 2 0 1 0 2 0 1 0 2 0 
1 0 2 0 1 0 2 -1 1 0 2 0 1 0 2 0 
1 0 2 0 2 0 1 0 2 0 1 0 2 0 1 0 
2 0 1 0 2 0 1 0 2 0 1 0 2 0 1 0 
2 0 1 0 2 0 1 0 2 0 1 0 2 0 2 0 
1 0 2 0 1 0 2 0 1 0 2 0 1 0 2 0 
1 0 2 0 1 0 2 0 1 0 2 0 1 0 2 0 
1 0 2 0 1 0 2 0 1 0 2 0 2 0 1 0 
2 0 1 0 2 0 1 0 2 0 1 0 2 0 1 0 
2 0 1 0 2 0 1 0 2 0 1 0 2 0 1 0 
2 0 1 0 2 0 2 0 1 0 2 0 1 0 2 0 
1 0 2 0 1 0 2 0 1 0 2 0 1 0 2 0 
1 0 2 0 1 0 2 0 1 0 2 0 1 0 2 0 
2 0 1 0 2 0 1 0 2 0 1 0 2 0 1 0 
2 0 1 0 2 0 1 0 2 0 1 0 2 0 1 0 
2 0 1 0 2 0 1 0 2 0 2 0 1 0 2 0 
1 0 2 0 1 0 2 0 1 0 2 0 1 0 2 0 
1 0 2 0 1 0 2 0 1 0 2 0 1 0 2 0 
1 0 2 0 2 0 1 0 2 0 1 0 2 0 1 0 
2 0 1 0 2 0 1 0 2 0 1 0 2 0 1 0 
2 0 1 0 2 0 1 0 2 0 1 0 2 0 2 0 
1 0 2 0 1 0 2 0 1 0 2 0 1 0 2 0 
1 0 2 0 1 0 2 0 1 0 2 0 1 0 2 0 
1 0 2 0 1 0 2 0 2 0 1 0 2 0 1 0 
2 0 1 0 2 0 1 0 2 0 1 0 2 0 1 0 
2 0 1 0 2 0 1 0 2 0 1 0 2 0 1 0 
2 0 2 0 1 0 2 0 1 0 2 0 1 0 2 0 
1 0 2 0 1 0 2 0 1 0 2 0 1 0 2 0 
1 0 2 0 1 0 2 0 1 0 2 0 2 0 1 0 
2 0 1 0 2 0 1 0 2 0 1 0 2 0 1 0 
2 0 1 0 2 0 1 0 2 0 1 0 2 0 1 0 
2 0 1 0 2 0 2 0 1 0 2 0 1 0 2 0 
1 0 2 0 1 0 2 0 1 0 2 0 1 1 2 0 
1 0 2 0 1 0 2 0 1 0 2 0 1 0 2 0 
2 1 1 0 2 0 3209 1652 300 MP stroke
1 0 2 1 1 0 2 0 1 1 2 0 1 1 2 0 
1 1 2 0 1 1 2 1 1 1 2 1 1 2 2 1 
1 2 2 1 2 2 1 3 2 2 1 3 2 4 1 4 
2 4 1 5 2 6 1 6 2 8 1 8 2 9 1 11 
2 12 1 14 2 16 1 17 2 20 1 22 2 24 2 27 
1 30 2 32 1 35 2 37 1 39 2 41 1 42 2 43 
1 43 2 43 1 41 2 39 1 36 2 32 1 28 2 22 
1 18 2 12 1 6 2 0 2 -5 1 -10 2 -15 1 -19 
2 -22 1 -25 2 -28 1 -28 2 -29 1 -29 2 -30 1 -28 
2 -27 1 -27 2 -24 1 -24 2 -21 1 -20 2 -19 1 -17 
2 -15 2 -15 1 -13 2 -11 1 -11 2 -10 1 -9 2 -8 
1 -8 2 -7 1 -6 2 -6 1 -5 2 -5 1 -4 2 -4 
1 -4 2 -4 1 -3 2 -3 1 -3 2 -2 1 -2 2 -3 
2 -2 1 -2 2 -1 1 -2 2 -2 1 -1 2 -2 1 -1 
2 -1 1 -1 2 -1 1 -1 2 -1 1 -1 2 0 1 -1 
2 -1 1 -1 2 0 1 -1 2 0 2 -1 1 0 2 0 
1 -1 2 0 1 -1 2 0 1 0 2 0 1 -1 2 0 
1 0 2 0 1 0 2 -1 1 0 2 0 1 0 2 0 
1 0 2 0 2 0 1 0 2 0 1 -1 2 0 1 0 
2 0 1 0 2 0 1 0 2 0 1 0 2 0 1 0 
2 0 1 0 2 0 1 0 2 0 1 0 2 0 2 0 
1 0 2 0 1 0 2 0 1 0 2 0 1 0 2 0 
1 0 2 0 1 0 2 0 1 0 2 0 1 0 2 0 
1 0 2 0 1 0 2 0 2 0 1 0 2 0 1 0 
2 0 1 -1 2 0 1 0 2 0 1 0 2 0 1 0 
2 0 1 0 2 -1 1 0 2 0 1 0 2 0 1 0 
2 -1 2 0 1 0 2 0 1 0 2 -1 1 0 2 0 
1 0 2 -1 1 0 2 0 1 0 2 -1 1 0 2 0 
1 0 2 -1 1 0 2 0 1 -1 2 0 2 0 1 -1 
2 0 1 0 2 -1 1 0 2 0 1 -1 2 0 1 -1 
2 0 1 0 2 -1 1 0 2 -1 1 0 2 0 1 -1 
2 0 1 -1 2 0 2 -1 1 0 2 0 1 -1 2 0 
1 -1 2 0 1 -1 2 0 1 -1 2 0 1 -1 2 0 
1 -1 2 0 1 0 2 -1 1 0 2 -1 1 0 2 -1 
2 0 1 0 2 -1 1 0 2 0 1 -1 2 0 1 0 
2 0 1 0 2 -1 1 0 2 1 1 0 2 0 1 0 
2 1 1 1 2 0 1 1 2 2 2 1 1 2 2 2 
1 3 2 3 1 3 2754 1438 300 MP stroke
2 4 1 5 2 5 1 6 2 6 1 7 2 8 1 8 
2 8 1 9 2 9 1 10 2 9 1 9 2 8 2 8 
1 8 2 6 1 5 2 5 1 2 2 2 1 0 2 -1 
1 -2 2 -3 1 -4 2 -5 1 -6 2 -6 1 -7 2 -7 
1 -7 2 -7 1 -8 2 -6 2 -7 1 -7 2 -6 1 -5 
2 -6 1 -5 2 -5 1 -4 2 -5 1 -3 2 -4 1 -3 
2 -4 1 -3 2 -2 1 -3 2 -3 1 -2 2 -2 1 -2 
2 -2 2 -2 1 -2 2 -2 1 -1 2 -2 1 -1 2 -2 
1 -1 2 -2 1 -1 2 -1 1 -1 2 -2 1 -1 2 -1 
1 -1 2 -1 1 -1 2 -1 1 -1 2 -1 2 -1 1 -1 
2 -1 1 -1 2 -1 1 -1 2 -1 1 -1 2 -1 1 0 
2 -1 1 -1 2 -1 1 -1 2 0 1 -1 2 -1 1 -1 
2 -1 1 0 2 -1 2 -1 1 -1 2 0 1 -1 2 -1 
1 0 2 -1 1 -1 2 0 1 -1 2 -1 1 0 2 -1 
1 -1 2 0 1 -1 2 -1 1 0 2 -1 1 0 2 -1 
2 -1 1 0 2 -1 1 0 2 -1 1 0 2 -1 1 0 
2 -1 1 0 2 -1 1 0 2 -1 1 0 2 -1 1 0 
2 -1 1 0 2 -1 1 0 2 -1 1 0 2 -1 2 0 
1 0 2 -1 1 0 2 -1 1 0 2 0 1 -1 2 0 
1 0 2 -1 1 0 2 0 1 -1 2 0 1 0 2 -1 
1 0 2 0 1 -1 2 0 2 0 1 -1 2 0 1 0 
2 0 1 -1 2 0 1 0 2 -1 1 0 2 0 1 0 
2 -1 1 0 2 0 1 0 2 -1 1 0 2 0 1 0 
2 -1 2 0 1 0 2 0 1 0 2 -1 1 0 2 0 
1 0 2 -1 1 0 2 0 1 0 2 0 1 -1 2 0 
1 0 2 0 1 0 2 -1 1 0 2 0 2 0 1 0 
2 -1 1 0 2 0 1 0 2 0 1 -1 2 0 1 0 
2 0 1 0 2 -1 1 0 2 0 1 0 2 0 1 -1 
2 0 1 0 2 0 2 0 1 -1 2 0 1 0 2 0 
1 -1 2 0 1 0 2 0 1 0 2 -1 1 0 2 0 
1 0 2 -1 1 0 2 0 1 0 2 -1 1 0 2 0 
2 0 1 -1 2 0 1 0 2 0 1 -1 2 0 1 0 
2 -1 1 0 2 0 1 0 2 -1 1 0 2 0 1 -1 
2 0 1 0 2 0 1 -1 2 0 2 0 1 -1 2 0 
1 0 2 -1 1 0 2 0 1 -1 2 0 1 0 2 -1 
1 0 2 0 1 0 2 -1 1 0 2 0 1 -1 2 0 
1 0 2 0 2 -1 1 0 2 0 1 0 2 -1 1 0 
2 0 1 0 2 0 2298 1555 300 MP stroke
1 -1 2 0 1 0 2 0 1 0 2 0 1 -1 2 0 
1 0 2 0 1 0 2 0 2 -1 1 0 2 0 1 0 
2 0 1 -1 2 0 1 0 2 0 1 -1 2 0 1 0 
2 -1 1 0 2 0 1 -1 2 0 1 -1 2 0 1 -1 
2 0 2 -1 1 0 2 -1 1 0 2 -1 1 0 2 -1 
1 -1 2 0 1 -1 2 0 1 -1 2 -1 1 0 2 -1 
1 0 2 -1 1 0 2 -1 1 0 2 -1 2 0 1 -1 
2 0 1 -1 2 0 1 -1 2 0 1 0 2 -1 1 0 
2 -1 1 0 2 0 1 -1 2 0 1 0 2 -1 1 0 
2 -1 1 0 2 0 2 -1 1 0 2 0 1 -1 2 0 
1 0 2 -1 1 0 2 -1 1 0 2 0 1 -1 2 0 
1 -1 2 0 1 0 2 -1 1 0 2 -1 1 0 2 0 
2 -1 1 0 2 0 1 -1 2 0 1 -1 2 0 1 0 
2 -1 1 0 2 0 1 -1 2 0 1 0 2 -1 1 0 
2 0 1 -1 2 0 1 0 2 -1 2 0 1 0 2 0 
1 -1 2 0 1 0 2 -1 1 0 2 0 1 -1 2 0 
1 0 2 -1 1 0 2 -1 1 0 2 0 1 0 2 -1 
1 0 2 0 2 -1 1 0 2 0 1 -1 2 0 1 0 
2 -1 1 0 2 0 1 -1 2 0 1 0 2 0 1 -1 
2 0 1 0 2 0 1 -1 2 0 1 0 2 -1 2 0 
1 0 2 0 1 -1 2 0 1 0 2 -1 1 0 2 0 
1 0 2 -1 1 0 2 0 1 0 2 -1 1 0 2 0 
1 -1 2 0 1 0 2 0 1 -1 2 0 2 0 1 0 
2 -1 1 0 2 0 1 0 2 -1 1 0 2 0 1 0 
2 0 1 -1 2 0 1 0 2 0 1 -1 2 0 1 0 
2 0 1 0 2 -1 2 0 1 0 2 0 1 -1 2 0 
1 0 2 0 1 0 2 -1 1 0 2 0 1 0 2 0 
1 -1 2 0 1 0 2 0 1 0 2 -1 1 0 2 0 
2 0 1 0 2 -1 1 0 2 0 1 0 2 0 1 0 
2 -1 1 0 2 0 1 0 2 0 1 0 2 -1 1 0 
2 0 1 0 2 0 1 0 2 -1 2 0 1 0 2 0 
1 0 2 0 1 -1 2 0 1 0 2 0 1 0 2 0 
1 0 2 -1 1 0 2 0 1 0 2 0 1 0 2 0 
1 0 2 -1 2 0 1 0 2 0 1 0 2 0 1 0 
2 0 1 -1 2 0 1 0 2 0 1 0 2 0 1 0 
2 0 1 0 2 -1 1 0 2 0 1 0 2 0 2 0 
1 0 2 0 1 0 2 0 1 -1 2 0 1 0 2 0 
1 0 2 0 1 0 1843 1638 300 MP stroke
2 0 1 0 2 0 1 0 2 0 1 -1 2 0 1 0 
2 0 2 0 1 0 2 0 1 0 2 0 1 0 2 0 
1 0 2 0 1 0 2 0 1 0 2 -1 1 0 2 0 
1 0 2 0 1 0 2 0 1 0 2 0 2 0 1 0 
2 0 1 0 2 0 1 0 2 0 1 0 2 0 1 0 
2 0 1 0 2 0 1 0 2 0 1 0 2 0 1 0 
2 0 1 0 2 0 2 0 1 0 2 0 1 0 2 0 
1 0 2 0 1 0 2 0 1 0 2 0 1 0 2 0 
1 0 2 0 1 0 2 0 1 0 2 0 1 0 2 0 
2 0 1 0 2 0 1 0 2 0 1 0 2 0 1 0 
2 0 1 0 2 0 1 0 2 0 1 0 2 0 1 0 
2 1 1 0 2 0 1 0 2 0 2 0 1 0 2 0 
1 0 2 0 1 0 2 0 1 0 2 0 1 1 2 0 
1 0 2 0 1 0 2 0 1 0 2 0 1 0 2 0 
1 1 2 0 2 0 1 0 2 0 1 0 2 0 1 0 
2 0 1 1 2 0 1 0 2 0 1 0 2 0 1 0 
2 1 1 0 2 0 1 0 2 0 1 0 2 0 2 1 
1 0 2 0 1 0 2 0 1 0 2 1 1 0 2 0 
1 0 2 0 1 1 2 0 1 0 2 0 1 0 2 1 
1 0 2 0 1 0 2 0 2 1 1 0 2 0 1 0 
2 0 1 1 2 0 1 0 2 0 1 1 2 0 1 0 
2 0 1 1 2 0 1 0 2 1 1 0 2 0 1 0 
2 1 2 0 1 0 2 1 1 0 2 0 1 0 2 1 
1 0 2 0 1 1 2 0 1 0 2 1 1 0 2 0 
1 1 2 0 1 0 2 1 1 0 2 1 2 0 1 0 
2 1 1 0 2 0 1 1 2 0 1 1 2 0 1 0 
2 1 1 0 2 1 1 0 2 1 1 0 2 0 1 1 
2 0 1 1 2 0 1 1 2 0 2 1 1 0 2 1 
1 0 2 1 1 0 2 1 1 0 2 1 1 0 2 1 
1 0 2 1 1 0 2 1 1 0 2 1 1 1 2 0 
1 1 2 0 2 1 1 0 2 1 1 1 2 0 1 1 
2 1 1 0 2 1 1 0 2 1 1 1 2 0 1 1 
2 1 1 0 2 1 1 1 2 0 1 1 2 1 2 0 
1 1 2 1 1 1 2 0 1 1 2 1 1 1 2 0 
1 1 2 1 1 1 2 0 1 1 2 1 1 1 2 1 
1 0 2 1 1 1 2 1 2 1 1 0 2 1 1 1 
2 1 1 1 2 1 1 0 2 1 1 1 2 1 1 1 
2 1 1 1 2 1 1387 1555 300 MP stroke
1 1 2 0 1 1 2 1 1 1 2 1 2 1 1 1 
2 1 1 1 2 1 1 1 2 1 1 1 2 1 1 1 
2 1 1 1 2 1 1 1 2 1 1 0 2 1 1 1 
2 1 1 1 2 1 2 1 1 1 2 1 1 1 2 1 
1 2 2 1 1 1 2 1 1 1 2 1 1 1 2 1 
1 1 2 1 1 1 2 1 1 1 2 1 1 1 2 1 
2 1 1 1 2 1 1 1 2 1 1 1 2 1 1 1 
2 1 1 1 2 1 1 1 2 1 1 1 2 1 1 1 
2 0 1 1 2 1 1 1 2 1 2 1 1 1 2 1 
1 1 2 1 1 1 2 1 1 0 2 1 1 1 2 1 
1 1 2 1 1 0 2 1 1 1 2 1 1 0 2 1 
1 1 2 1 2 0 1 1 2 1 1 0 2 1 1 1 
2 0 1 1 2 1 1 0 2 1 1 0 2 1 1 0 
2 1 1 0 2 1 1 0 2 1 1 0 2 1 2 0 
1 0 2 1 1 0 2 0 1 1 2 0 1 0 2 0 
1 1 2 0 1 0 2 0 1 0 2 0 1 0 2 1 
1 0 2 0 1 0 2 0 2 0 1 -1 2 0 1 0 
2 0 1 0 2 0 1 0 2 -1 1 0 2 0 1 0 
2 -1 1 0 2 0 1 -1 2 0 1 0 2 -1 1 0 
2 -1 2 0 1 -1 2 0 1 -1 2 -1 1 0 2 -1 
1 -1 2 0 1 -1 2 -1 1 0 2 -1 1 -1 2 -1 
1 0 2 -1 1 -1 2 -1 1 -1 2 -1 2 -1 1 -1 
2 -1 1 -1 2 -1 1 -1 2 -1 1 -1 2 -1 1 -1 
2 -1 1 -1 2 -1 1 -1 2 -1 1 -2 2 -1 1 -1 
2 -1 1 -1 2 -2 2 -1 1 -1 2 -1 1 -2 2 -1 
1 -1 2 -1 1 -2 2 -1 1 -1 2 -2 1 -1 2 -1 
1 -2 2 -1 1 -1 2 -2 1 -1 2 -1 1 -2 2 -1 
2 -1 1 -2 2 -1 1 -1 2 -2 1 -1 2 -1 1 -2 
2 -1 1 -1 2 -2 1 -1 2 -1 1 -2 2 -1 1 -1 
2 -2 1 -1 2 -1 1 -2 2 -1 2 -1 1 -2 2 -1 
1 -1 2 -1 1 -2 2 -1 1 -1 2 -1 1 -2 2 -1 
1 -1 2 -1 1 -1 2 -2 1 -1 2 -1 1 -1 2 -1 
1 -1 2 -2 1 -1 2 -1 2 -1 1 -1 2 -1 1 -1 
2 -1 1 -1 2 -1 1 -1 2 -1 1 -1 2 -1 1 -1 
2 -1 1 -1 2 -1 1 -1 2 -1 1 -1 2 -1 1 -1 
2 -1 2 -1 1 -1 2 0 1 -1 2 -1 1 -1 2 -1 
1 -1 2 0 1 -1 2 -1 1 -1 2 0 1 -1 2 -1 
1 -1 2 0 1 -1 932 1616 300 MP stroke
2 -1 1 0 2 -1 2 -1 1 0 2 -1 1 -1 2 0 
1 -1 2 -1 1 0 2 -1 1 0 2 -1 1 0 2 -1 
1 -1 2 0 1 -1 2 0 1 -1 2 0 1 -1 2 0 
2 -1 1 0 2 -1 1 0 2 0 1 -1 2 0 1 -1 
2 0 1 -1 2 0 1 0 2 -1 1 0 2 0 1 -1 
2 0 1 -1 2 0 1 0 2 -1 2 0 1 0 2 0 
1 -1 2 0 1 0 2 -1 1 0 2 0 1 0 2 -1 
1 0 2 0 1 -1 2 0 1 0 2 0 1 0 2 -1 
1 0 2 0 2 0 1 -1 2 0 1 0 2 0 1 0 
2 -1 1 0 2 0 1 0 2 0 1 0 2 -1 1 0 
2 0 1 0 2 0 1 0 2 -1 1 0 2 0 2 0 
1 0 2 0 1 0 2 -1 1 0 2 0 1 0 2 0 
1 0 2 0 1 0 2 0 1 -1 2 0 1 0 2 0 
1 0 2 0 1 0 2 0 2 0 1 0 2 0 1 -1 
2 0 1 0 2 0 1 0 2 0 1 0 2 0 1 0 
2 0 1 0 2 0 1 0 2 0 1 -1 2 0 1 0 
2 0 2 0 1 0 2 0 1 0 2 0 1 0 2 0 
1 0 2 0 1 0 2 0 1 0 2 0 1 0 2 0 
1 0 2 0 1 0 2 -1 1 0 2 0 2 0 1 0 
2 0 1 0 2 0 1 0 2 0 1 0 2 0 1 0 
2 0 1 0 2 0 1 0 2 0 1 0 2 0 1 0 
2 0 1 0 2 0 2 0 1 0 2 0 1 0 2 0 
1 0 2 0 1 0 2 0 1 0 2 0 1 0 2 0 
1 0 2 0 1 0 2 0 1 0 2 0 1 0 2 0 
2 0 1 0 2 -1 1 0 2 0 1 0 2 0 1 0 
2 0 1 0 2 0 1 0 2 0 1 0 2 0 1 0 
2 0 1 0 2 0 1 0 2 0 2 0 1 0 2 0 
1 0 2 0 1 0 2 0 1 0 2 0 1 0 2 0 
1 0 2 0 1 0 2 0 1 0 2 0 1 0 2 0 
1 0 2 0 2 0 1 0 2 0 1 0 2 0 1 0 
2 0 1 0 2 0 1 0 2 0 1 0 2 0 1 0 
2 0 1 0 2 0 1 0 2 0 1 0 2 0 2 0 
1 0 2 0 1 0 2 0 1 0 2 0 1 0 2 0 
1 0 2 0 1 0 2 0 1 0 2 0 1 0 2 0 
1 0 2 0 1 0 2 0 1 0 2 0 2 0 1 0 
2 0 1 0 2 0 1 0 2 0 1 0 2 0 1 0 
2 0 1 0 2 0 1 0 2 0 1 0 2 0 1 0 
2 0 1 0 2 0 476 1654 300 MP stroke
2 0 1 0 2 0 1 0 2 0 1 0 2 0 1 0 
2 0 1 0 2 0 1 0 2 0 1 0 2 0 1 0 
2 0 1 0 2 0 1 0 2 0 2 0 1 0 2 0 
1 0 2 0 1 0 2 0 1 0 2 0 1 0 2 0 
1 0 2 0 1 0 2 0 1 0 2 0 1 0 2 0 
1 0 2 0 2 0 1 0 2 0 1 0 2 0 1 0 
2 0 1 0 2 0 1 0 2 0 1 0 2 0 1 0 
2 0 1 0 2 0 1 0 2 0 1 0 2 0 2 0 
1 0 2 0 1 0 2 0 1 0 2 0 1 0 2 0 
1 0 2 0 1 0 2 0 1 0 2 0 1 0 2 0 
1 0 2 0 1 0 2 0 2 0 1 0 2 0 1 0 
2 0 1 0 2 0 1 0 2 0 1 0 2 0 1 0 
2 0 1 0 2 0 1 0 2 0 1 0 2 0 1 0 
2 0 2 0 1 0 2 0 1 0 2 0 1 0 2 0 
1 0 2 0 1 0 2 0 1 0 2 0 1 0 2 0 
1 0 2 0 1 0 2 0 1 0 2 0 2 0 1 0 
2 0 1 0 2 0 1 0 2 0 1 0 2 0 1 0 
2 0 1 0 2 0 1 0 2 0 1 0 2 0 1 0 
2 0 1 0 2 0 2 0 1 0 2 0 1 0 2 0 
1 0 2 0 1 0 2 0 1 0 2 0 1 0 2 0 
1 0 2 0 1 0 2 0 1 0 2 0 1 0 2 0 
2 0 1 0 2 0 1 0 2 0 1 0 2 0 1 0 
2 0 1 0 2 0 1 0 2 0 1 0 2 0 1 0 
2 0 1 0 2 0 1 0 2 0 2 0 1 0 2 0 
1 0 2 0 1 0 2 0 1 0 2 0 1 0 2 0 
1 0 2 0 1 0 2 0 1 0 2 0 1 0 2 0 
1 0 2 0 2 0 1 0 2 0 1 0 2 0 1 0 
2 0 1 0 2 0 1 0 2 0 1 0 2 0 1 0 
2 0 1 0 2 0 1 0 2 0 1 0 2 0 2 0 
1 0 2 0 1 0 2 0 1 0 2 0 1 0 2 0 
1 0 2 0 1 0 2 0 1 0 2 0 1 0 2 0 
1 0 2 0 1 0 2 0 2 0 1 0 2 0 1 0 
2 0 1 0 2 0 1 0 2 0 1 0 2 0 1 0 
2 0 1 0 2 0 1 0 2 0 1 0 2 0 1 0 
2 0 2 0 1 0 2 0 1 0 2 0 1 0 2 0 
1 0 2 0 1 0 2 0 1 0 2 0 1 0 2 0 
1 0 2 0 1 0 2 0 1 0 2 0 2 0 1 0 
2 0 1 0 2 0 20 1654 300 MP stroke
1 0 2 0 1 0 2 0 1 0 2 0 1 0 2 0 
1 0 2 0 1 0 2 0 1 0 1 0 1 0 2 0 
1 0 2 0 2 0 1 0 2 0 1 0 2 0 1 0 
2 0 1 0 2 0 1 0 2 0 1 0 2 0 1 0 
2 0 1 0 2 0 1 0 2 0 1 0 2 0 2 0 
1 0 2 0 1 0 2 0 1 0 2 0 1 0 2 0 
1 0 2 0 1 0 2 0 1 0 2 0 1 0 2 0 
1 0 2 0 1 0 2 0 2 0 1 0 2 0 1 0 
2 0 1 0 2 0 1 0 2 0 1 0 2 0 1 0 
2 0 1 0 2 0 1 0 2 0 1 0 2 0 1 0 
-100 1654 81 MP stroke
gr

c8
0 sg
2797  424 mt 
(686.75eV) s
1 sg
0 1136 4571 0 0 -1136 767 3156 4 MP
PP
-4571 0 0 1136 4571 0 0 -1136 767 3156 5 MP stroke
4 w
DO
SO
6 w
0 sg
 767 3156 mt 5338 3156 L
 767 2020 mt 5338 2020 L
 767 3156 mt  767 2020 L
5338 3156 mt 5338 2020 L
 767 3156 mt 5338 3156 L
 767 3156 mt  767 2020 L
 767 3156 mt  767 3110 L
 767 2020 mt  767 2066 L
 667 3302 mt 
(645) s
1555 3156 mt 1555 3110 L
1555 2020 mt 1555 2066 L
1455 3302 mt 
(650) s
2343 3156 mt 2343 3110 L
2343 2020 mt 2343 2066 L
2243 3302 mt 
(655) s
3131 3156 mt 3131 3110 L
3131 2020 mt 3131 2066 L
3031 3302 mt 
(660) s
3919 3156 mt 3919 3110 L
3919 2020 mt 3919 2066 L
3819 3302 mt 
(665) s
4708 3156 mt 4708 3110 L
4708 2020 mt 4708 2066 L
4608 3302 mt 
(670) s
 767 3156 mt  813 3156 L
5338 3156 mt 5292 3156 L
 666 3200 mt 
(0) s
 767 2777 mt  813 2777 L
5338 2777 mt 5292 2777 L
 466 2821 mt 
(2000) s
 767 2399 mt  813 2399 L
5338 2399 mt 5292 2399 L
 466 2443 mt 
(4000) s
 767 2020 mt  813 2020 L
5338 2020 mt 5292 2020 L
 466 2064 mt 
(6000) s
 767 3156 mt 5338 3156 L
 767 2020 mt 5338 2020 L
 767 3156 mt  767 2020 L
5338 3156 mt 5338 2020 L
gs 767 2020 4572 1137 rc
c8
1 0 2 0 1 0 2 0 2 0 1 0 2 0 1 0 
2 0 1 0 2 0 2 0 1 0 2 0 1 0 2 0 
1 0 2 0 2 0 1 0 2 0 1 0 2 0 2 0 
1 0 2 0 1 0 2 0 1 0 2 0 2 0 1 0 
2 0 1 0 2 0 1 0 2 0 2 0 1 0 2 0 
1 0 2 0 1 0 2 0 2 0 1 0 2 0 1 0 
2 0 2 0 1 0 2 0 1 0 2 0 1 0 2 0 
2 0 1 0 2 0 1 0 2 0 1 0 2 0 2 0 
1 0 2 0 1 0 2 0 1 0 2 0 2 0 1 0 
2 0 1 0 2 0 1 0 2 0 2 0 1 0 2 0 
1 0 2 0 2 0 1 0 2 0 1 0 2 0 1 0 
2 0 2 0 1 0 2 0 1 0 2 0 1 0 2 0 
2 0 1 0 2 0 1 0 2 0 1 0 2 0 2 0 
1 0 2 0 1 0 2 0 1 0 2 0 2 0 1 0 
2 0 1 0 2 0 2 0 1 0 2 0 1 0 2 0 
1 0 2 0 2 0 1 0 2 0 1 0 2 0 1 0 
2 0 2 0 1 0 2 0 1 0 2 0 1 0 2 0 
2 0 1 0 2 0 1 0 2 0 2 0 1 0 2 0 
1 0 2 0 1 0 2 0 2 0 1 0 2 0 1 0 
2 0 1 0 2 0 2 0 1 0 2 0 1 0 2 0 
1 0 2 0 2 0 1 0 2 0 1 0 2 0 1 0 
2 0 2 0 1 0 2 0 1 0 2 0 2 0 1 0 
2 0 1 0 2 0 1 0 2 0 2 0 1 0 2 0 
1 0 2 0 1 0 2 0 2 0 1 0 2 0 1 0 
2 0 1 0 2 0 2 0 1 0 2 0 1 0 2 0 
2 0 1 0 2 0 1 0 2 0 1 0 2 0 2 0 
1 0 2 0 1 0 2 0 1 0 2 0 2 0 1 0 
2 0 1 0 2 0 1 0 2 0 2 0 1 0 2 0 
1 0 2 0 1 0 2 0 2 0 1 0 2 0 1 0 
2 0 2 0 1 0 2 0 1 0 2 0 1 0 2 0 
2 0 1 0 2 0 1 0 2 0 1 0 2 0 2 0 
1 0 2 0 1 0 2 0 1 0 2 0 2 0 1 0 
2 0 1 0 2 0 2 0 1 0 2 0 1 0 2 0 
1 0 2 0 2 0 1 0 2 0 1 0 2 0 1 0 
2 0 2 0 1 0 2 0 1 0 2 0 1 0 2 0 
2 0 1 0 2 0 1 0 2 0 1 0 2 0 2 0 
1 0 2 0 1 0 2 0 2 0 1 0 2 0 1 0 
2 0 1 0 2 0 5628 3156 300 MP stroke
2 0 1 0 2 0 1 0 2 0 1 0 2 0 2 0 
1 0 2 0 1 0 2 0 1 0 2 0 2 0 1 0 
2 0 1 0 2 0 2 0 1 0 2 0 1 0 2 0 
1 0 2 0 2 0 1 0 2 0 1 0 2 0 1 0 
2 0 2 0 1 0 2 0 1 0 2 0 1 0 2 0 
2 0 1 0 2 0 1 0 2 0 1 0 2 0 2 0 
1 0 2 0 1 0 2 0 2 0 1 0 2 0 1 0 
2 0 1 0 2 0 2 0 1 0 2 0 1 0 2 0 
1 0 2 0 2 0 1 0 2 0 1 0 2 0 1 0 
2 0 2 0 1 0 2 0 1 0 2 0 1 0 2 0 
2 0 1 0 2 0 1 0 2 0 2 0 1 0 2 0 
1 0 2 0 1 0 2 0 2 0 1 0 2 0 1 0 
2 0 1 0 2 0 2 0 1 0 2 0 1 0 2 0 
1 0 2 0 2 0 1 0 2 0 1 0 2 0 2 0 
1 0 2 0 1 0 2 0 1 0 2 0 2 0 1 0 
2 0 1 0 2 0 1 0 2 0 2 0 1 0 2 0 
1 0 2 0 1 0 2 0 2 0 1 0 2 0 1 0 
2 0 1 0 2 0 2 0 1 0 2 0 1 0 2 0 
2 0 1 0 2 0 1 0 2 0 1 0 2 0 2 0 
1 0 2 0 1 0 2 0 1 0 2 0 2 0 1 0 
2 0 1 0 2 0 1 0 2 0 2 0 1 0 2 0 
1 0 2 0 2 0 1 0 2 0 1 0 2 0 1 0 
2 0 2 0 1 0 2 0 1 0 2 0 1 0 2 0 
2 0 1 0 2 0 1 0 2 0 1 0 2 0 2 0 
1 0 2 0 1 0 2 0 1 0 2 0 2 0 1 0 
2 0 1 0 2 0 2 0 1 0 2 0 1 0 2 0 
1 0 2 0 2 0 1 0 2 0 1 0 2 0 1 0 
2 0 2 0 1 0 2 0 1 0 2 0 1 0 2 0 
2 0 1 0 2 0 1 0 2 0 2 0 1 0 2 0 
1 0 2 0 1 0 2 0 2 0 1 0 2 0 1 0 
2 0 1 0 2 0 2 0 1 0 2 0 1 0 2 0 
1 0 2 0 2 0 1 0 2 0 1 0 2 0 1 0 
2 0 2 0 1 0 2 0 1 0 2 0 2 0 1 0 
2 0 1 0 2 0 1 0 2 0 2 0 1 0 2 0 
1 0 2 0 1 0 2 0 2 0 1 0 2 0 1 0 
2 0 1 0 2 0 2 0 1 0 2 0 1 0 2 0 
2 0 1 0 2 0 1 0 2 0 1 0 2 0 2 1 
1 0 2 0 1 1 5157 3154 300 MP stroke
2 1 1 1 2 2 2 2 1 3 2 4 1 5 2 6 
1 7 2 9 2 9 1 11 2 11 1 12 2 12 1 11 
2 10 2 8 1 7 2 4 1 1 2 -2 2 -4 1 -6 
2 -9 1 -10 2 -11 1 -12 2 -11 2 -12 1 -10 2 -10 
1 -8 2 -7 1 -6 2 -5 2 -4 1 -2 2 -2 1 -2 
2 0 1 0 2 0 2 1 1 2 2 1 1 2 2 3 
1 2 2 3 2 3 1 3 2 3 1 2 2 2 2 1 
1 1 2 0 1 0 2 -2 1 -1 2 -3 2 -2 1 -3 
2 -3 1 -3 2 -3 1 -2 2 -2 2 -2 1 -2 2 -1 
1 -2 2 0 1 -1 2 -1 2 0 1 0 2 0 1 0 
2 0 2 0 1 0 2 1 1 0 2 0 1 0 2 0 
2 1 1 0 2 0 1 0 2 0 1 0 2 0 2 -1 
1 0 2 0 1 0 2 0 1 -1 2 0 2 0 1 0 
2 0 1 0 2 0 1 0 2 0 2 0 1 0 2 0 
1 1 2 0 2 0 1 1 2 0 1 1 2 0 1 0 
2 1 2 0 1 0 2 0 1 0 2 0 1 0 2 -1 
2 0 1 0 2 -1 1 0 2 -1 1 0 2 0 2 -1 
1 0 2 0 1 0 2 0 2 0 1 1 2 0 1 0 
2 1 1 0 2 1 2 0 1 1 2 1 1 0 2 0 
1 1 2 0 2 0 1 0 2 0 1 -1 2 0 1 -1 
2 0 2 -1 1 0 2 -1 1 0 2 -1 1 0 2 0 
2 0 1 0 2 0 1 0 2 0 2 1 1 0 2 1 
1 0 2 1 1 0 2 0 2 1 1 0 2 0 1 0 
2 0 1 -1 2 0 2 0 1 -1 2 0 1 -1 2 0 
1 -1 2 0 2 0 1 0 2 0 1 0 2 0 2 0 
1 0 2 1 1 0 2 0 1 1 2 0 2 0 1 0 
2 0 1 0 2 0 1 0 2 0 2 -1 1 0 2 0 
1 -1 2 0 1 0 2 0 2 0 1 0 2 0 1 0 
2 0 1 0 2 0 2 0 1 1 2 0 1 0 2 0 
2 0 1 0 2 0 1 0 2 0 1 0 2 0 2 -1 
1 0 2 0 1 0 2 0 1 0 2 0 2 0 1 0 
2 0 1 0 2 0 1 0 2 0 2 0 1 1 2 0 
1 0 2 0 2 0 1 0 2 -1 1 0 2 0 1 0 
2 0 2 0 1 0 2 0 1 0 2 0 1 0 2 0 
2 0 1 0 2 0 1 0 2 0 1 0 2 0 2 0 
1 0 2 0 1 0 2 0 1 0 2 0 2 0 1 0 
2 0 1 0 2 0 2 0 1 0 2 0 1 0 2 0 
1 0 2 0 2 0 4685 3154 300 MP stroke
1 0 2 0 1 0 2 0 1 0 2 0 2 0 1 0 
2 0 1 0 2 0 1 0 2 0 2 0 1 0 2 1 
1 0 2 0 1 0 2 1 2 0 1 1 2 0 1 1 
2 0 2 1 1 1 2 1 1 0 2 1 1 0 2 1 
2 0 1 0 2 0 1 0 2 0 1 1 2 0 2 0 
1 1 2 0 1 1 2 1 1 1 2 2 2 1 1 1 
2 1 1 1 2 1 2 1 1 0 2 1 1 0 2 0 
1 0 2 0 2 1 1 0 2 0 1 1 2 1 1 1 
2 0 2 1 1 1 2 1 1 0 2 1 1 0 2 1 
2 0 1 0 2 1 1 0 2 1 1 0 2 1 2 0 
1 0 2 1 1 0 2 0 2 0 1 1 2 0 1 0 
2 0 1 0 2 0 2 0 1 0 2 0 1 -1 2 0 
1 0 2 0 2 0 1 0 2 0 1 0 2 0 1 0 
2 -1 2 0 1 0 2 0 1 0 2 -1 2 0 1 0 
2 -1 1 0 2 0 1 -1 2 0 2 0 1 -1 2 0 
1 0 2 -1 1 0 2 -1 2 0 1 0 2 -1 1 0 
2 -1 1 0 2 -1 2 0 1 0 2 -1 1 0 2 -1 
1 0 2 -1 2 0 1 -1 2 0 1 -1 2 0 2 0 
1 -1 2 0 1 -1 2 0 1 -1 2 0 2 -1 1 0 
2 0 1 -1 2 0 1 -1 2 0 2 0 1 -1 2 0 
1 -1 2 0 1 0 2 -1 2 0 1 0 2 -1 1 0 
2 0 2 -1 1 0 2 0 1 -1 2 0 1 0 2 0 
2 -1 1 0 2 0 1 0 2 0 1 -1 2 0 2 0 
1 0 2 0 1 0 2 -1 1 0 2 0 2 0 1 0 
2 0 1 0 2 0 1 0 2 -1 2 0 1 0 2 0 
1 0 2 0 2 0 1 0 2 0 1 0 2 0 1 0 
2 0 2 0 1 0 2 0 1 0 2 0 1 0 2 0 
2 0 1 0 2 0 1 0 2 0 1 0 2 0 2 0 
1 0 2 0 1 0 2 1 2 0 1 0 2 0 1 0 
2 0 1 0 2 0 2 0 1 0 2 0 1 0 2 0 
1 0 2 0 2 0 1 0 2 0 1 0 2 0 1 0 
2 0 2 0 1 0 2 0 1 0 2 0 1 0 2 0 
2 0 1 0 2 0 1 0 2 0 2 0 1 0 2 0 
1 0 2 0 1 -1 2 0 2 0 1 0 2 0 1 0 
2 0 1 0 2 0 2 0 1 0 2 0 1 0 2 0 
1 0 2 -1 2 0 1 0 2 0 1 0 2 0 1 0 
2 0 2 0 1 0 2 0 1 0 2 -1 2 0 1 0 
2 0 1 0 2 0 4214 3151 300 MP stroke
1 0 2 0 2 0 1 0 2 0 1 0 2 0 1 -1 
2 0 2 0 1 0 2 0 1 0 2 0 1 0 2 0 
2 0 1 0 2 0 1 0 2 0 2 0 1 0 2 0 
1 0 2 0 1 0 2 -1 2 0 1 0 2 0 1 0 
2 0 1 0 2 0 2 0 1 0 2 0 1 0 2 0 
1 0 2 0 2 0 1 0 2 0 1 0 2 0 1 0 
2 0 2 0 1 0 2 0 1 0 2 0 2 0 1 0 
2 0 1 0 2 0 1 0 2 1 2 0 1 0 2 0 
1 0 2 0 1 0 2 0 2 0 1 0 2 0 1 0 
2 0 1 0 2 0 2 0 1 0 2 0 1 0 2 0 
2 0 1 0 2 0 1 0 2 0 1 0 2 0 2 0 
1 0 2 0 1 0 2 0 1 0 2 0 2 0 1 0 
2 0 1 0 2 0 1 0 2 0 2 0 1 0 2 0 
1 0 2 0 1 0 2 0 2 0 1 0 2 0 1 0 
2 0 2 0 1 0 2 0 1 0 2 0 1 0 2 0 
2 0 1 0 2 0 1 0 2 0 1 0 2 0 2 0 
1 0 2 0 1 0 2 0 1 0 2 0 2 0 1 0 
2 0 1 0 2 0 2 0 1 0 2 0 1 0 2 0 
1 0 2 0 2 0 1 0 2 0 1 0 2 0 1 0 
2 0 2 0 1 0 2 0 1 0 2 0 1 0 2 0 
2 0 1 0 2 0 1 0 2 0 1 0 2 1 2 0 
1 0 2 0 1 0 2 0 2 0 1 0 2 0 1 0 
2 0 1 0 2 0 2 0 1 0 2 0 1 0 2 0 
1 0 2 0 2 0 1 0 2 0 1 0 2 0 1 0 
2 0 2 0 1 0 2 0 1 0 2 0 2 0 1 0 
2 0 1 0 2 0 1 0 2 1 2 0 1 0 2 0 
1 0 2 0 1 0 2 0 2 0 1 0 2 0 1 0 
2 0 1 0 2 0 2 0 1 0 2 0 1 0 2 1 
1 0 2 0 2 0 1 0 2 0 1 0 2 0 2 0 
1 0 2 0 1 0 2 0 1 1 2 0 2 0 1 0 
2 0 1 0 2 0 1 0 2 1 2 0 1 0 2 0 
1 0 2 0 1 1 2 0 2 0 1 0 2 1 1 0 
2 0 1 1 2 0 2 0 1 1 2 0 1 1 2 0 
2 1 1 1 2 0 1 1 2 1 1 0 2 1 2 1 
1 0 2 1 1 1 2 0 1 1 2 0 2 0 1 1 
2 0 1 0 2 -1 1 0 2 0 2 -1 1 -1 2 -1 
1 -1 2 -1 2 -1 1 -1 2 -1 1 -1 2 -1 1 -1 
2 -1 2 -1 1 -1 3743 3147 300 MP stroke
2 -1 1 -1 2 -1 1 0 2 -1 2 -1 1 0 2 -1 
1 0 2 0 1 -1 2 0 2 0 1 0 2 -1 1 0 
2 0 1 0 2 0 2 0 1 0 2 0 1 0 2 0 
2 -1 1 0 2 0 1 0 2 0 1 0 2 0 2 0 
1 0 2 0 1 0 2 0 1 0 2 0 2 0 1 0 
2 0 1 0 2 0 1 0 2 0 2 0 1 0 2 0 
1 0 2 0 2 0 1 0 2 0 1 0 2 0 1 0 
2 0 2 0 1 0 2 0 1 0 2 0 1 0 2 0 
2 0 1 0 2 0 1 0 2 0 1 0 2 0 2 0 
1 0 2 0 1 0 2 0 1 0 2 0 2 0 1 0 
2 0 1 0 2 0 2 0 1 0 2 0 1 0 2 0 
1 0 2 0 2 0 1 0 2 0 1 0 2 0 1 0 
2 0 2 0 1 0 2 0 1 0 2 0 1 0 2 0 
2 0 1 0 2 0 1 0 2 0 2 0 1 0 2 0 
1 0 2 0 1 0 2 0 2 0 1 0 2 0 1 0 
2 0 1 0 2 0 2 0 1 0 2 0 1 0 2 0 
1 0 2 0 2 0 1 0 2 0 1 0 2 0 1 0 
2 0 2 0 1 0 2 0 1 0 2 0 2 0 1 0 
2 0 1 0 2 0 1 0 2 0 2 0 1 0 2 0 
1 0 2 0 1 0 2 0 2 0 1 0 2 0 1 0 
2 0 1 0 2 0 2 0 1 0 2 0 1 0 2 0 
2 0 1 0 2 0 1 0 2 0 1 0 2 0 2 0 
1 0 2 0 1 0 2 0 1 0 2 0 2 0 1 0 
2 0 1 0 2 0 1 0 2 0 2 0 1 0 2 0 
1 0 2 0 1 0 2 0 2 0 1 0 2 0 1 0 
2 0 2 0 1 0 2 0 1 0 2 0 1 0 2 0 
2 0 1 0 2 0 1 0 2 0 1 0 2 0 2 0 
1 0 2 0 1 0 2 0 1 0 2 0 2 0 1 0 
2 0 1 0 2 0 1 0 2 0 2 0 1 0 2 0 
1 0 2 0 2 0 1 0 2 0 1 0 2 0 1 0 
2 0 2 0 1 0 2 0 1 0 2 0 1 0 2 0 
2 0 1 0 2 0 1 0 2 0 1 0 2 0 2 0 
1 0 2 0 1 0 2 0 2 0 1 0 2 0 1 0 
2 1 1 0 2 0 2 0 1 0 2 0 1 0 2 0 
1 0 2 0 2 0 1 0 2 0 1 1 2 0 1 0 
2 0 2 0 1 1 2 0 1 0 2 1 1 0 2 0 
2 1 1 0 2 1 1 1 2 0 2 1 1 1 2 1 
1 1 2 2 1 1 3272 3142 300 MP stroke
2 2 2 2 1 2 2 2 1 3 2 3 1 3 2 4 
2 4 1 5 2 6 1 6 2 7 1 8 2 9 2 10 
1 12 2 13 1 15 2 17 2 19 1 22 2 24 1 26 
2 30 1 33 2 36 2 39 1 42 2 45 1 47 2 50 
1 50 2 52 2 52 1 50 2 49 1 46 2 42 1 38 
2 32 2 25 1 20 2 12 1 5 2 -1 1 -9 2 -14 
2 -21 1 -25 2 -29 1 -32 2 -35 2 -36 1 -37 2 -38 
1 -37 2 -36 1 -34 2 -34 2 -31 1 -29 2 -28 1 -25 
2 -24 1 -22 2 -20 2 -18 1 -17 2 -15 1 -14 2 -13 
1 -12 2 -11 2 -10 1 -9 2 -8 1 -8 2 -7 2 -7 
1 -6 2 -6 1 -5 2 -5 1 -5 2 -4 2 -4 1 -4 
2 -4 1 -3 2 -3 1 -3 2 -3 2 -2 1 -3 2 -2 
1 -2 2 -2 1 -2 2 -2 2 -2 1 -2 2 -1 1 -2 
2 -1 1 -1 2 -2 2 -1 1 -1 2 -1 1 -1 2 -1 
2 -1 1 0 2 -1 1 -1 2 -1 1 0 2 -1 2 0 
1 -1 2 0 1 0 2 -1 1 0 2 0 2 -1 1 0 
2 0 1 0 2 0 1 0 2 -1 2 0 1 0 2 0 
1 0 2 0 1 1 2 0 2 0 1 0 2 0 1 0 
2 0 2 1 1 0 2 0 1 0 2 1 1 0 2 0 
2 0 1 1 2 0 1 0 2 1 1 0 2 0 2 1 
1 0 2 1 1 0 2 0 1 1 2 0 2 0 1 1 
2 0 1 1 2 0 2 0 1 1 2 0 1 1 2 0 
1 0 2 1 2 0 1 1 2 0 1 0 2 1 1 0 
2 1 2 0 1 0 2 1 1 0 2 0 1 1 2 0 
2 0 1 1 2 0 1 0 2 1 1 0 2 0 2 1 
1 0 2 0 1 1 2 0 2 0 1 0 2 0 1 1 
2 0 1 0 2 0 2 0 1 1 2 0 1 0 2 0 
1 0 2 0 2 0 1 1 2 0 1 0 2 0 1 0 
2 0 2 0 1 0 2 0 1 0 2 0 2 0 1 0 
2 0 1 0 2 0 1 0 2 0 2 0 1 0 2 0 
1 -1 2 0 1 0 2 0 2 0 1 0 2 0 1 0 
2 -1 1 0 2 0 2 0 1 0 2 0 1 0 2 0 
1 -1 2 0 2 0 1 0 2 0 1 0 2 0 2 0 
1 0 2 0 1 0 2 1 1 0 2 0 2 1 1 0 
2 1 1 1 2 1 1 1 2 1 2 2 1 2 2 2 
1 3 2 3 1 4 2 4 2 4 1 6 2 5 1 7 
2 7 2 8 1 9 2 10 1 10 2 10 1 11 2 11 
2 12 1 11 2 11 2800 2783 300 MP stroke
1 10 2 10 1 8 2 8 2 6 1 5 2 3 1 1 
2 0 1 -1 2 -4 2 -4 1 -6 2 -6 1 -8 2 -8 
1 -8 2 -9 2 -9 1 -9 2 -9 1 -8 2 -9 2 -8 
1 -7 2 -7 1 -7 2 -6 1 -6 2 -6 2 -5 1 -5 
2 -4 1 -4 2 -4 1 -4 2 -3 2 -3 1 -3 2 -3 
1 -3 2 -2 1 -3 2 -2 2 -2 1 -2 2 -2 1 -2 
2 -2 2 -2 1 -2 2 -1 1 -2 2 -2 1 -1 2 -2 
2 -1 1 -2 2 -1 1 -1 2 -2 1 -1 2 -1 2 -2 
1 -1 2 -1 1 -1 2 -2 1 -1 2 -1 2 -1 1 -1 
2 -2 1 -1 2 -1 1 -1 2 -1 2 -1 1 -1 2 -1 
1 -2 2 -1 2 -1 1 -1 2 -1 1 -1 2 -1 1 -1 
2 -1 2 -1 1 -1 2 -1 1 -1 2 -1 1 -1 2 -1 
2 -1 1 -1 2 -1 1 -1 2 -1 1 -1 2 -1 2 -1 
1 -1 2 -1 1 -1 2 -1 1 -1 2 -1 2 -1 1 -1 
2 -1 1 -1 2 -1 2 0 1 -1 2 -1 1 -1 2 -1 
1 -1 2 -1 2 -1 1 0 2 -1 1 -1 2 -1 1 -1 
2 0 2 -1 1 -1 2 -1 1 0 2 -1 1 -1 2 -1 
2 0 1 -1 2 -1 1 0 2 -1 2 -1 1 0 2 -1 
1 -1 2 0 1 -1 2 -1 2 0 1 -1 2 0 1 -1 
2 0 1 -1 2 0 2 -1 1 0 2 -1 1 0 2 -1 
1 0 2 -1 2 0 1 -1 2 0 1 -1 2 0 1 -1 
2 0 2 0 1 -1 2 0 1 0 2 -1 2 0 1 -1 
2 0 1 0 2 -1 1 0 2 0 2 0 1 -1 2 0 
1 0 2 -1 1 0 2 0 2 0 1 -1 2 0 1 0 
2 0 1 0 2 -1 2 0 1 0 2 0 1 -1 2 0 
2 0 1 0 2 0 1 0 2 -1 1 0 2 0 2 0 
1 0 2 0 1 0 2 -1 1 0 2 0 2 0 1 0 
2 0 1 0 2 -1 1 0 2 0 2 0 1 0 2 0 
1 0 2 0 1 0 2 -1 2 0 1 0 2 0 1 0 
2 0 2 0 1 0 2 0 1 -1 2 0 1 0 2 0 
2 0 1 0 2 0 1 0 2 -1 1 0 2 0 2 0 
1 0 2 0 1 0 2 0 1 -1 2 0 2 0 1 0 
2 0 1 0 2 -1 2 0 1 0 2 0 1 0 2 0 
1 0 2 -1 2 0 1 0 2 0 1 0 2 0 1 0 
2 0 2 0 1 -1 2 0 1 0 2 0 1 0 2 0 
2 0 1 0 2 0 1 0 2 0 1 0 2 0 2 0 
1 0 2 0 1 0 2 0 2 0 1 0 2 0 1 0 
2 0 1 0 2 0 2329 3066 300 MP stroke
2 0 1 0 2 0 1 0 2 0 1 -1 2 0 2 0 
1 0 2 0 1 -1 2 0 1 0 2 -1 2 0 1 0 
2 -1 1 0 2 -1 2 0 1 0 2 -1 1 -1 2 0 
1 -1 2 0 2 -1 1 0 2 -1 1 0 2 -1 1 0 
2 -1 2 -1 1 0 2 -1 1 0 2 -1 1 0 2 -1 
2 0 1 -1 2 0 1 -1 2 0 1 -1 2 0 2 0 
1 -1 2 0 1 -1 2 0 2 0 1 -1 2 0 1 0 
2 -1 1 0 2 0 2 -1 1 0 2 0 1 -1 2 0 
1 -1 2 0 2 0 1 -1 2 0 1 0 2 -1 1 0 
2 0 2 -1 1 0 2 0 1 -1 2 0 1 -1 2 0 
2 0 1 -1 2 0 1 0 2 -1 2 0 1 -1 2 0 
1 0 2 -1 1 0 2 0 2 -1 1 0 2 -1 1 0 
2 0 1 -1 2 0 2 0 1 -1 2 0 1 0 2 -1 
1 0 2 0 2 0 1 -1 2 0 1 0 2 -1 2 0 
1 0 2 -1 1 0 2 0 1 -1 2 0 2 0 1 -1 
2 0 1 0 2 0 1 -1 2 0 2 0 1 -1 2 0 
1 0 2 -1 1 0 2 0 2 -1 1 0 2 0 1 -1 
2 0 1 0 2 -1 2 0 1 0 2 0 1 -1 2 0 
2 0 1 -1 2 0 1 0 2 0 1 -1 2 0 2 0 
1 0 2 -1 1 0 2 0 1 0 2 -1 2 0 1 0 
2 0 1 -1 2 0 1 0 2 0 2 -1 1 0 2 0 
1 0 2 -1 2 0 1 0 2 0 1 -1 2 0 1 0 
2 0 2 -1 1 0 2 0 1 0 2 -1 1 0 2 0 
2 0 1 -1 2 0 1 0 2 0 1 0 2 -1 2 0 
1 0 2 0 1 0 2 -1 1 0 2 0 2 0 1 0 
2 -1 1 0 2 0 2 0 1 0 2 -1 1 0 2 0 
1 0 2 0 2 -1 1 0 2 0 1 0 2 0 1 -1 
2 0 2 0 1 0 2 0 1 0 2 -1 1 0 2 0 
2 0 1 0 2 -1 1 0 2 0 2 0 1 0 2 0 
1 -1 2 0 1 0 2 0 2 0 1 0 2 0 1 -1 
2 0 1 0 2 0 2 0 1 0 2 0 1 -1 2 0 
1 0 2 0 2 0 1 0 2 0 1 -1 2 0 1 0 
2 0 2 0 1 0 2 0 1 0 2 -1 2 0 1 0 
2 0 1 0 2 0 1 0 2 0 2 -1 1 0 2 0 
1 0 2 0 1 0 2 0 2 0 1 0 2 -1 1 0 
2 0 1 0 2 0 2 0 1 0 2 0 1 0 2 0 
2 0 1 -1 2 0 1 0 2 0 1 0 2 0 2 0 
1 0 2 0 1 0 1858 3145 300 MP stroke
2 0 1 0 2 -1 2 0 1 0 2 0 1 0 2 0 
1 0 2 0 2 0 1 0 2 0 1 0 2 0 1 0 
2 0 2 0 1 0 2 -1 1 0 2 0 2 0 1 0 
2 0 1 0 2 0 1 0 2 0 2 0 1 0 2 0 
1 0 2 0 1 0 2 0 2 0 1 0 2 0 1 0 
2 0 1 0 2 0 2 0 1 0 2 0 1 0 2 0 
1 0 2 0 2 0 1 0 2 0 1 0 2 0 2 0 
1 0 2 0 1 0 2 0 1 0 2 0 2 0 1 0 
2 0 1 0 2 0 1 0 2 0 2 0 1 0 2 0 
1 0 2 0 1 0 2 0 2 0 1 0 2 0 1 1 
2 0 2 0 1 0 2 0 1 0 2 0 1 0 2 0 
2 0 1 0 2 0 1 0 2 0 1 0 2 1 2 0 
1 0 2 0 1 0 2 0 1 0 2 0 2 0 1 0 
2 1 1 0 2 0 1 0 2 0 2 0 1 0 2 0 
1 0 2 1 2 0 1 0 2 0 1 0 2 0 1 0 
2 1 2 0 1 0 2 0 1 0 2 0 1 1 2 0 
2 0 1 0 2 0 1 0 2 1 1 0 2 0 2 0 
1 0 2 1 1 0 2 0 2 0 1 0 2 1 1 0 
2 0 1 0 2 0 2 1 1 0 2 0 1 0 2 0 
1 1 2 0 2 0 1 0 2 1 1 0 2 0 1 0 
2 1 2 0 1 0 2 1 1 0 2 0 1 0 2 1 
2 0 1 0 2 0 1 1 2 0 2 0 1 1 2 0 
1 0 2 1 1 0 2 0 2 0 1 1 2 0 1 0 
2 1 1 0 2 0 2 1 1 0 2 0 1 1 2 0 
1 0 2 1 2 0 1 0 2 1 1 0 2 1 2 0 
1 0 2 1 1 0 2 0 1 1 2 0 2 0 1 1 
2 0 1 1 2 0 1 0 2 1 2 0 1 1 2 0 
1 0 2 1 1 0 2 1 2 0 1 0 2 1 1 0 
2 1 1 0 2 0 2 1 1 0 2 1 1 0 2 0 
2 1 1 0 2 1 1 0 2 0 1 1 2 0 2 1 
1 0 2 0 1 1 2 0 1 1 2 0 2 0 1 1 
2 0 1 0 2 1 1 0 2 1 2 0 1 0 2 1 
1 0 2 1 2 0 1 0 2 1 1 0 2 0 1 1 
2 0 2 0 1 1 2 0 1 0 2 1 1 0 2 0 
2 1 1 0 2 0 1 1 2 0 1 0 2 1 2 0 
1 0 2 0 1 1 2 0 1 0 2 0 2 1 1 0 
2 0 1 0 2 1 2 0 1 0 2 0 1 1 2 0 
1 0 2 0 2 0 1386 3088 300 MP stroke
1 0 2 1 1 0 2 0 1 0 2 0 2 0 1 0 
2 0 1 1 2 0 1 0 2 0 2 0 1 0 2 0 
1 0 2 0 1 0 2 0 2 0 1 0 2 0 1 0 
2 0 2 0 1 0 2 0 1 0 2 0 1 0 2 0 
2 -1 1 0 2 0 1 0 2 0 1 0 2 0 2 0 
1 -1 2 0 1 0 2 0 1 0 2 -1 2 0 1 0 
2 0 1 -1 2 0 2 0 1 0 2 -1 1 0 2 0 
1 0 2 -1 2 0 1 0 2 -1 1 0 2 0 1 -1 
2 0 2 0 1 -1 2 0 1 -1 2 0 1 0 2 -1 
2 0 1 -1 2 0 1 0 2 -1 1 0 2 -1 2 0 
1 -1 2 0 1 0 2 -1 2 0 1 -1 2 0 1 -1 
2 0 1 -1 2 0 2 -1 1 0 2 -1 1 0 2 0 
1 -1 2 0 2 -1 1 0 2 -1 1 0 2 -1 1 0 
2 -1 2 0 1 -1 2 0 1 -1 2 0 2 -1 1 0 
2 -1 1 0 2 -1 1 0 2 -1 2 0 1 -1 2 0 
1 -1 2 0 1 -1 2 0 2 0 1 -1 2 0 1 -1 
2 0 1 -1 2 0 2 -1 1 0 2 -1 1 0 2 0 
1 -1 2 0 2 -1 1 0 2 -1 1 0 2 0 2 -1 
1 0 2 -1 1 0 2 0 1 -1 2 0 2 0 1 -1 
2 0 1 -1 2 0 1 0 2 -1 2 0 1 0 2 -1 
1 0 2 0 1 -1 2 0 2 0 1 -1 2 0 1 0 
2 -1 2 0 1 0 2 -1 1 0 2 0 1 0 2 -1 
2 0 1 0 2 -1 1 0 2 0 1 0 2 -1 2 0 
1 0 2 0 1 -1 2 0 1 0 2 0 2 0 1 -1 
2 0 1 0 2 0 1 -1 2 0 2 0 1 0 2 0 
1 0 2 -1 2 0 1 0 2 0 1 0 2 -1 1 0 
2 0 2 0 1 0 2 0 1 -1 2 0 1 0 2 0 
2 0 1 0 2 0 1 -1 2 0 1 0 2 0 2 0 
1 0 2 0 1 0 2 -1 2 0 1 0 2 0 1 0 
2 0 1 0 2 0 2 0 1 -1 2 0 1 0 2 0 
1 0 2 0 2 0 1 0 2 0 1 0 2 0 1 0 
2 -1 2 0 1 0 2 0 1 0 2 0 1 0 2 0 
2 0 1 0 2 0 1 0 2 0 2 0 1 0 2 -1 
1 0 2 0 1 0 2 0 2 0 1 0 2 0 1 0 
2 0 1 0 2 0 2 0 1 0 2 0 1 0 2 0 
1 0 2 0 2 0 1 0 2 0 1 0 2 -1 1 0 
2 0 2 0 1 0 2 0 1 0 2 0 2 0 1 0 
2 0 1 0 2 0 915 3155 300 MP stroke
1 0 2 0 2 0 1 0 2 0 1 0 2 0 1 0 
2 0 2 0 1 0 2 0 1 0 2 0 1 0 2 0 
2 0 1 0 2 0 1 0 2 0 2 0 1 0 2 0 
1 0 2 0 1 0 2 0 2 0 1 0 2 0 1 0 
2 0 1 0 2 -1 2 0 1 0 2 0 1 0 2 0 
1 0 2 0 2 0 1 0 2 0 1 0 2 0 1 0 
2 0 2 0 1 0 2 0 1 0 2 0 2 0 1 0 
2 0 1 0 2 0 1 0 2 0 2 0 1 0 2 0 
1 0 2 0 1 0 2 0 2 0 1 0 2 0 1 0 
2 0 1 0 2 0 2 0 1 0 2 0 1 0 2 0 
2 0 1 0 2 0 1 0 2 0 1 0 2 0 2 0 
1 0 2 0 1 0 2 0 1 0 2 0 2 0 1 0 
2 0 1 0 2 0 1 0 2 0 2 0 1 0 2 0 
1 0 2 0 1 0 2 0 2 0 1 0 2 0 1 0 
2 0 2 0 1 0 2 0 1 0 2 0 1 0 2 0 
2 0 1 0 2 0 1 0 2 0 1 0 2 0 2 0 
1 0 2 0 1 0 2 0 1 0 2 0 2 0 1 0 
2 0 1 0 2 0 2 0 1 0 2 0 1 0 2 0 
1 0 2 0 2 0 1 0 2 0 1 0 2 0 1 0 
2 0 2 0 1 0 2 0 1 0 2 0 1 0 2 0 
2 0 1 0 2 0 1 0 2 0 1 0 2 0 2 0 
1 0 2 0 1 0 2 0 2 0 1 0 2 0 1 0 
2 0 1 0 2 0 2 0 1 0 2 0 1 0 2 0 
1 0 2 0 2 0 1 0 2 0 1 0 2 0 1 0 
2 0 2 0 1 0 2 0 1 0 2 0 2 0 1 0 
2 0 1 0 2 0 1 0 2 0 2 0 1 0 2 0 
1 0 2 0 1 0 2 0 2 0 1 0 2 0 1 0 
2 0 1 0 2 0 2 0 1 0 2 0 1 0 2 0 
1 0 2 0 2 0 1 0 2 0 1 0 2 0 2 0 
1 0 2 0 1 0 2 0 1 0 2 0 2 0 1 0 
2 0 1 0 2 0 1 0 2 0 2 0 1 0 2 0 
1 0 2 0 1 0 2 0 2 0 1 0 2 0 1 0 
2 0 1 0 2 0 2 0 1 0 2 0 1 0 2 0 
2 0 1 0 2 0 1 0 2 0 1 0 2 0 2 0 
1 0 2 0 1 0 2 0 1 0 2 0 2 0 1 0 
2 0 1 0 2 0 1 0 2 0 2 0 1 0 2 0 
1 0 2 0 2 0 1 0 2 0 1 0 2 0 1 0 
2 0 2 0 1 0 444 3156 300 MP stroke
2 0 1 0 2 0 1 0 2 0 2 0 1 0 2 0 
1 0 2 0 1 0 2 0 2 0 1 0 2 0 1 0 
2 0 1 0 2 0 2 0 1 0 2 0 1 0 2 0 
2 0 1 0 2 0 1 0 2 0 1 0 2 0 2 0 
1 0 2 0 1 0 2 0 1 0 2 0 2 0 1 0 
2 0 1 0 2 0 1 0 2 0 2 0 1 0 2 0 
1 0 2 0 2 0 1 0 2 0 1 0 2 0 1 0 
2 0 2 0 1 0 2 0 1 0 2 0 1 0 2 0 
2 0 1 0 2 0 1 0 2 0 1 0 2 0 2 0 
1 0 2 0 1 0 2 0 1 0 2 0 2 0 1 0 
2 0 1 0 2 0 2 0 1 0 2 0 1 0 2 0 
1 0 2 0 2 0 1 0 2 0 1 0 2 0 1 0 
2 0 2 0 1 0 2 0 1 0 2 0 1 0 2 0 
2 0 1 0 2 0 1 0 2 0 2 0 1 0 2 0 
1 0 2 0 1 0 2 0 2 0 1 0 2 0 1 0 
2 0 1 0 2 0 2 0 1 0 2 0 1 0 2 0 
1 0 2 0 2 0 1 0 2 0 1 0 2 0 1 0 
2 0 2 0 1 0 2 0 1 0 2 0 2 0 1 0 
2 0 1 0 2 0 1 0 2 0 2 0 1 0 2 0 
1 0 2 0 1 0 2 0 2 0 1 0 2 0 1 0 
2 0 1 0 2 0 2 0 1 0 2 0 1 0 2 0 
2 0 1 0 2 0 1 0 2 0 1 0 2 0 2 0 
1 0 2 0 1 0 2 0 1 0 2 0 2 0 1 0 
2 0 1 0 2 0 1 0 2 0 2 0 1 0 2 0 
1 0 2 0 1 0 2 0 2 0 1 0 2 0 1 0 
2 0 2 0 1 0 2 0 1 0 2 0 1 0 2 0 
2 0 1 0 2 0 1 0 2 0 1 0 2 0 2 0 
1 0 2 0 1 0 2 0 1 0 2 0 2 0 1 0 
2 0 1 0 2 0 1 0 2 0 2 0 1 0 2 0 
1 0 2 0 2 0 1 0 2 0 1 0 2 0 1 0 
2 0 2 0 1 0 2 0 1 0 2 0 1 0 2 0 
2 0 1 0 2 0 1 0 2 0 1 0 2 0 2 0 
1 0 2 0 1 0 2 0 2 0 1 0 2 0 1 0 
2 0 1 0 2 0 2 0 1 0 2 0 1 0 2 0 
1 0 2 0 2 0 1 0 2 0 1 0 2 0 1 0 
2 0 1 0 1 0 2 0 1 0 2 0 1 0 2 0 
2 0 1 0 2 0 1 0 2 0 2 0 1 0 2 0 
1 0 2 0 1 0 -26 3156 300 MP stroke
2 0 2 0 1 0 2 0 1 0 2 0 1 0 2 0 
2 0 1 0 2 0 1 0 2 0 1 0 2 0 2 0 
1 0 2 0 1 0 2 0 2 0 1 0 2 0 1 0 
2 0 1 0 2 0 2 0 1 0 2 0 1 0 2 0 
1 0 2 0 2 0 1 0 2 0 1 0 2 0 1 0 
2 0 2 0 1 0 2 0 1 0 2 0 1 0 -100 3156 48 MP stroke
gr

c8
0 sg
2797 1925 mt 
(686.75eV) s
1 sg
0 1136 4571 0 0 -1136 767 4657 4 MP
PP
-4571 0 0 1136 4571 0 0 -1136 767 4657 5 MP stroke
4 w
DO
SO
6 w
0 sg
 767 4657 mt 5338 4657 L
 767 3521 mt 5338 3521 L
 767 4657 mt  767 3521 L
5338 4657 mt 5338 3521 L
 767 4657 mt 5338 4657 L
 767 4657 mt  767 3521 L
 767 4657 mt  767 4611 L
 767 3521 mt  767 3567 L
 667 4803 mt 
(645) s
1529 4657 mt 1529 4611 L
1529 3521 mt 1529 3567 L
1429 4803 mt 
(650) s
2291 4657 mt 2291 4611 L
2291 3521 mt 2291 3567 L
2191 4803 mt 
(655) s
3053 4657 mt 3053 4611 L
3053 3521 mt 3053 3567 L
2953 4803 mt 
(660) s
3814 4657 mt 3814 4611 L
3814 3521 mt 3814 3567 L
3714 4803 mt 
(665) s
4576 4657 mt 4576 4611 L
4576 3521 mt 4576 3567 L
4476 4803 mt 
(670) s
5338 4657 mt 5338 4611 L
5338 3521 mt 5338 3567 L
5238 4803 mt 
(675) s
 767 4657 mt  813 4657 L
5338 4657 mt 5292 4657 L
 666 4701 mt 
(0) s
 767 4373 mt  813 4373 L
5338 4373 mt 5292 4373 L
 466 4417 mt 
(1000) s
 767 4089 mt  813 4089 L
5338 4089 mt 5292 4089 L
 466 4133 mt 
(2000) s
 767 3805 mt  813 3805 L
5338 3805 mt 5292 3805 L
 466 3849 mt 
(3000) s
 767 3521 mt  813 3521 L
5338 3521 mt 5292 3521 L
 466 3565 mt 
(4000) s
 767 4657 mt 5338 4657 L
 767 3521 mt 5338 3521 L
 767 4657 mt  767 3521 L
5338 4657 mt 5338 3521 L
gs 767 3521 4572 1137 rc
c8
2 0 1 0 2 0 1 0 2 0 1 0 2 0 1 0 
2 0 1 0 2 0 1 0 2 0 1 0 2 0 1 0 
2 0 2 0 1 0 2 0 1 0 2 0 1 0 2 0 
1 0 2 0 1 0 2 0 1 0 2 0 1 0 2 0 
1 0 2 0 1 0 2 0 1 0 2 0 2 0 1 0 
2 0 1 0 2 0 1 0 2 0 1 0 2 0 1 0 
2 0 1 0 2 0 1 0 2 0 1 0 2 0 1 0 
2 0 1 0 2 0 2 0 1 0 2 0 1 0 2 0 
1 0 2 0 1 0 2 0 1 0 2 0 1 0 2 0 
1 0 2 0 1 0 2 0 1 0 2 0 1 0 2 0 
2 0 1 0 2 0 1 0 2 0 1 0 2 0 1 0 
2 0 1 0 2 0 1 0 2 0 1 0 2 0 1 0 
2 0 1 0 2 0 1 0 2 0 2 0 1 0 2 0 
1 0 2 0 1 0 2 0 1 0 2 0 1 0 2 0 
1 0 2 0 1 0 2 0 1 0 2 0 1 0 2 0 
1 0 2 0 2 0 1 0 2 0 1 0 2 0 1 0 
2 0 1 0 2 0 1 0 2 0 1 0 2 0 1 0 
2 0 1 0 2 0 1 0 2 0 1 0 2 0 2 0 
1 0 2 0 1 0 2 0 1 0 2 0 1 0 2 0 
1 0 2 0 1 0 2 0 1 0 2 0 1 0 2 0 
1 0 2 0 1 0 2 0 2 0 1 0 2 0 1 0 
2 0 1 0 2 0 1 0 2 0 1 0 2 0 1 0 
2 0 1 0 2 0 1 0 2 0 1 0 2 0 1 0 
2 0 2 0 1 0 2 0 1 0 2 0 1 0 2 0 
1 0 2 0 1 0 2 0 1 0 2 0 1 0 2 0 
1 0 2 0 1 0 2 0 1 0 2 0 2 0 1 0 
2 0 1 0 2 0 1 0 2 0 1 0 2 0 1 0 
2 0 1 0 2 0 1 0 2 0 1 0 2 0 1 0 
2 0 1 0 2 0 2 0 1 0 2 0 1 0 2 0 
1 0 2 0 1 0 2 0 1 0 2 0 1 0 2 0 
1 0 2 0 1 0 2 0 1 0 2 0 1 0 2 0 
1 0 2 0 2 0 1 0 2 0 1 0 2 0 1 0 
2 0 1 0 2 0 1 0 2 0 1 0 2 0 1 0 
2 0 1 0 2 0 1 0 2 0 1 0 2 0 2 0 
1 0 2 0 1 0 2 0 1 0 2 0 1 0 2 0 
1 0 2 0 1 0 2 0 1 0 2 0 1 0 2 0 
1 0 2 0 1 0 2 0 2 0 1 0 2 0 1 0 
2 0 1 0 2 0 5487 4657 300 MP stroke
1 0 2 0 1 0 2 0 1 0 2 0 1 0 2 0 
1 0 2 0 1 0 2 0 1 0 2 0 2 0 1 0 
2 0 1 0 2 0 1 0 2 0 1 0 2 0 1 0 
2 0 1 0 2 0 1 0 2 0 1 0 2 0 1 0 
2 0 1 0 2 0 2 0 1 0 2 0 1 0 2 0 
1 0 2 0 1 0 2 0 1 0 2 0 1 0 2 0 
1 0 2 0 1 0 2 0 1 0 2 0 1 0 2 0 
2 0 1 0 2 0 1 0 2 0 1 0 2 0 1 0 
2 0 1 0 2 0 1 0 2 0 1 0 2 0 1 0 
2 0 1 0 2 0 1 0 2 0 2 0 1 0 2 0 
1 0 2 0 1 0 2 0 1 0 2 0 1 0 2 0 
1 0 2 0 1 0 2 0 1 0 2 0 1 0 2 0 
1 0 2 0 2 0 1 0 2 0 1 0 2 0 1 0 
2 0 1 0 2 0 1 0 2 0 1 0 2 0 1 0 
2 0 1 0 2 0 1 0 2 0 1 0 2 0 2 0 
1 0 2 0 1 0 2 0 1 0 2 0 1 0 2 0 
1 0 2 0 1 0 2 0 1 0 2 0 1 0 2 0 
1 0 2 0 1 0 2 0 2 0 1 0 2 0 1 0 
2 0 1 0 2 0 1 0 2 0 1 0 2 0 1 0 
2 0 1 0 2 0 1 0 2 0 1 0 2 0 1 0 
2 0 2 0 1 0 2 0 1 0 2 0 1 0 2 0 
1 0 2 0 1 0 2 0 1 0 2 0 1 0 2 0 
1 0 2 0 1 0 2 0 1 0 2 0 2 0 1 0 
2 0 1 0 2 0 1 0 2 0 1 0 2 0 1 0 
2 0 1 0 2 0 1 0 2 0 1 0 2 0 1 0 
2 0 1 0 2 0 2 0 1 0 2 0 1 0 2 0 
1 1 2 0 1 0 2 1 1 1 2 2 1 2 2 3 
1 4 2 5 1 6 2 9 1 10 2 12 1 15 2 16 
2 18 1 19 2 20 1 20 2 19 1 17 2 14 1 11 
2 7 1 2 2 -2 1 -7 2 -11 1 -15 2 -17 1 -19 
2 -20 1 -20 2 -19 1 -18 2 -16 2 -14 1 -12 2 -10 
1 -8 2 -6 1 -4 2 -3 1 -1 2 0 1 1 2 2 
1 4 2 5 1 5 2 7 1 8 2 9 1 9 2 9 
1 10 2 8 1 8 2 6 2 5 1 2 2 0 1 -1 
2 -4 1 -6 2 -7 1 -9 2 -9 1 -9 2 -10 1 -8 
2 -9 1 -7 2 -6 1 -6 2 -4 1 -3 2 -3 1 -2 
2 -1 2 0 1 0 2 1 1 1 2 2 1 2 2 2 
1 2 2 3 1 2 5032 4636 300 MP stroke
2 3 1 2 2 2 1 1 2 1 1 1 2 -1 1 -1 
2 -1 1 -2 2 -2 2 -3 1 -2 2 -3 1 -2 2 -3 
1 -2 2 -2 1 -1 2 -1 1 -1 2 -1 1 0 2 -1 
1 0 2 1 1 0 2 0 1 1 2 0 1 1 2 1 
2 0 1 1 2 0 1 1 2 0 1 0 2 0 1 0 
2 -1 1 0 2 -1 1 0 2 -1 1 -1 2 0 1 -1 
2 0 1 -1 2 0 1 -1 2 0 2 0 1 0 2 0 
1 0 2 0 1 0 2 1 1 0 2 0 1 1 2 0 
1 0 2 0 1 0 2 1 1 0 2 0 1 -1 2 0 
1 0 2 0 2 0 1 -1 2 0 1 0 2 -1 1 0 
2 0 1 0 2 0 1 0 2 0 1 0 2 0 1 1 
2 0 1 0 2 0 1 1 2 0 1 0 2 0 2 0 
1 0 2 0 1 0 2 0 1 0 2 0 1 -1 2 0 
1 0 2 0 1 0 2 -1 1 0 2 0 1 0 2 0 
1 1 2 0 1 0 2 0 2 1 1 0 2 0 1 0 
2 0 1 0 2 1 1 -1 2 0 1 0 2 0 1 0 
2 0 1 -1 2 0 1 0 2 0 1 0 2 -1 1 0 
2 1 2 0 1 0 2 0 1 0 2 0 1 1 2 0 
1 0 2 0 1 0 2 0 1 0 2 0 1 0 2 0 
1 0 2 -1 1 0 2 0 1 0 2 0 2 0 1 0 
2 0 1 0 2 0 1 0 2 0 1 0 2 1 1 0 
2 0 1 0 2 0 1 0 2 0 1 0 2 0 1 -1 
2 0 1 0 2 0 2 0 1 0 2 0 1 0 2 0 
1 0 2 0 1 0 2 0 1 0 2 0 1 0 2 1 
1 0 2 -1 1 0 2 0 1 0 2 0 1 0 2 0 
2 0 1 0 2 0 1 0 2 0 1 0 2 0 1 0 
2 0 1 0 2 0 1 0 2 0 1 0 2 0 1 0 
2 0 1 0 2 0 1 0 2 0 2 0 1 0 2 0 
1 0 2 0 1 0 2 0 1 1 2 0 1 0 2 1 
1 0 2 1 1 0 2 1 1 1 2 1 1 1 2 1 
1 1 2 1 2 0 1 1 2 1 1 0 2 0 1 0 
2 0 1 1 2 0 1 0 2 0 1 1 2 1 1 1 
2 1 1 2 2 2 1 1 2 2 1 2 2 1 2 1 
1 1 2 1 1 0 2 0 1 1 2 0 1 0 2 0 
1 1 2 1 1 1 2 1 1 1 2 1 1 1 2 1 
1 1 2 1 1 1 2 0 2 1 1 1 2 0 1 1 
2 1 1 0 2 1 1 1 2 0 1 1 2 1 1 0 
2 1 1 0 2 0 4576 4604 300 MP stroke
1 1 2 0 1 0 2 0 1 1 2 0 1 0 2 0 
2 0 1 0 2 1 1 0 2 0 1 0 2 0 1 0 
2 0 1 1 2 0 1 0 2 0 1 0 2 0 1 0 
2 -1 1 0 2 0 1 0 2 0 2 0 1 0 2 0 
1 0 2 -1 1 0 2 0 1 0 2 0 1 -1 2 0 
1 0 2 0 1 -1 2 0 1 0 2 0 1 -1 2 0 
1 0 2 -1 2 0 1 0 2 -1 1 0 2 -1 1 0 
2 0 1 -1 2 0 1 0 2 -1 1 0 2 -1 1 0 
2 -1 1 0 2 0 1 -1 2 0 1 -1 2 0 2 -1 
1 0 2 -1 1 0 2 -1 1 0 2 0 1 -1 2 0 
1 -1 2 0 1 -1 2 0 1 -1 2 0 1 -1 2 0 
1 -1 2 0 1 -1 2 0 2 -1 1 0 2 -1 1 0 
2 -1 1 0 2 -1 1 0 2 -1 1 0 2 -1 1 0 
2 -1 1 0 2 0 1 -1 2 0 1 -1 2 0 1 -1 
2 0 2 -1 1 0 2 -1 1 0 2 0 1 -1 2 0 
1 -1 2 0 1 -1 2 0 1 0 2 -1 1 0 2 -1 
1 0 2 0 1 -1 2 0 1 0 2 -1 2 0 1 0 
2 -1 1 0 2 0 1 -1 2 0 1 0 2 -1 1 0 
2 0 1 -1 2 0 1 0 2 0 1 -1 2 0 1 0 
2 0 1 -1 2 0 2 0 1 0 2 -1 1 0 2 0 
1 0 2 0 1 -1 2 0 1 0 2 0 1 0 2 0 
1 -1 2 0 1 0 2 0 1 0 2 0 1 0 2 0 
2 -1 1 0 2 0 1 0 2 0 1 0 2 0 1 0 
2 0 1 0 2 0 1 0 2 0 1 0 2 0 1 -1 
2 0 1 0 2 0 1 0 2 0 2 0 1 0 2 0 
1 0 2 0 1 0 2 0 1 0 2 0 1 0 2 0 
1 0 2 0 1 0 2 0 1 0 2 0 1 0 2 0 
1 0 2 0 2 0 1 0 2 0 1 0 2 0 1 0 
2 0 1 0 2 0 1 1 2 0 1 0 2 0 1 0 
2 0 1 0 2 0 1 0 2 0 1 0 2 0 2 0 
1 0 2 0 1 0 2 0 1 0 2 0 1 0 2 0 
1 0 2 0 1 0 2 0 1 0 2 0 1 0 2 0 
1 0 2 0 1 0 2 0 2 0 1 0 2 0 1 0 
2 0 1 0 2 0 1 0 2 0 1 0 2 0 1 0 
2 0 1 0 2 0 1 0 2 0 1 0 2 0 1 0 
2 0 2 0 1 0 2 0 1 0 2 0 1 0 2 0 
1 0 2 -1 1 0 2 0 1 0 2 0 1 0 2 0 
1 0 2 0 1 0 4121 4654 300 MP stroke
2 0 1 0 2 0 2 0 1 0 2 0 1 0 2 0 
1 0 2 0 1 0 2 0 1 0 2 0 1 0 2 0 
1 0 2 0 1 0 2 0 1 0 2 0 1 0 2 0 
2 0 1 0 2 0 1 0 2 0 1 0 2 0 1 0 
2 0 1 0 2 0 1 0 2 0 1 0 2 0 1 0 
2 0 1 0 2 0 1 0 2 0 1 0 2 0 2 0 
1 0 2 0 1 0 2 0 1 0 2 0 1 0 2 0 
1 0 2 0 1 0 2 0 1 0 2 0 1 0 2 0 
1 0 2 0 1 0 2 0 2 0 1 0 2 0 1 0 
2 0 1 0 2 0 1 0 2 0 1 0 2 0 1 0 
2 0 1 0 2 0 1 0 2 0 1 0 2 0 1 0 
2 0 2 0 1 0 2 0 1 0 2 0 1 0 2 0 
1 0 2 0 1 0 2 0 1 0 2 0 1 0 2 0 
1 0 2 0 1 0 2 0 1 0 2 0 2 0 1 0 
2 0 1 0 2 0 1 0 2 0 1 0 2 0 1 0 
2 0 1 0 2 0 1 0 2 0 1 0 2 0 1 0 
2 0 1 0 2 0 2 1 1 0 2 0 1 0 2 0 
1 0 2 0 1 0 2 0 1 0 2 0 1 0 2 0 
1 0 2 0 1 0 2 0 1 0 2 0 1 0 2 0 
2 0 1 0 2 0 1 0 2 0 1 0 2 0 1 0 
2 0 1 0 2 0 1 0 2 0 1 0 2 0 1 0 
2 0 1 0 2 0 1 0 2 0 2 0 1 0 2 0 
1 0 2 0 1 0 2 0 1 0 2 0 1 0 2 0 
1 0 2 0 1 0 2 0 1 0 2 0 1 0 2 0 
1 0 2 0 2 0 1 0 2 0 1 0 2 0 1 0 
2 1 1 0 2 0 1 0 2 0 1 0 2 0 1 0 
2 0 1 0 2 0 1 0 2 0 1 0 2 0 2 0 
1 0 2 0 1 0 2 0 1 0 2 0 1 0 2 0 
1 0 2 0 1 1 2 0 1 0 2 0 1 0 2 0 
1 0 2 0 1 0 2 0 2 0 1 0 2 0 1 0 
2 0 1 0 2 0 1 1 2 0 1 0 2 0 1 0 
2 0 1 0 2 0 1 0 2 0 1 1 2 0 1 0 
2 0 2 0 1 0 2 0 1 1 2 0 1 0 2 0 
1 0 2 1 1 0 2 0 1 0 2 1 1 0 2 0 
1 1 2 0 1 1 2 0 1 1 2 0 2 1 1 1 
2 0 1 1 2 1 1 1 2 0 1 1 2 1 1 1 
2 0 1 1 2 1 1 0 2 0 1 1 2 0 1 0 
2 0 1 -1 2 0 3665 4633 300 MP stroke
2 -1 1 -1 2 -1 1 0 2 -2 1 -1 2 -1 1 -1 
2 -1 1 -1 2 -2 1 -1 2 -1 1 -1 2 -1 1 -1 
2 0 1 -1 2 -1 1 0 2 -1 2 0 1 -1 2 0 
1 0 2 -1 1 0 2 0 1 0 2 -1 1 0 2 0 
1 0 2 0 1 0 2 0 1 0 2 0 1 0 2 -1 
1 0 2 0 2 0 1 0 2 0 1 0 2 0 1 0 
2 0 1 0 2 0 1 0 2 0 1 0 2 0 1 0 
2 0 1 0 2 0 1 0 2 0 1 0 2 0 2 0 
1 0 2 0 1 0 2 0 1 0 2 0 1 0 2 0 
1 0 2 0 1 0 2 0 1 0 2 0 1 0 2 0 
1 0 2 0 1 0 2 0 1 0 2 0 2 0 1 0 
2 0 1 0 2 0 1 0 2 0 1 0 2 0 1 0 
2 0 1 0 2 0 1 0 2 0 1 0 2 0 1 0 
2 0 1 0 2 0 2 0 1 0 2 0 1 0 2 0 
1 0 2 0 1 0 2 0 1 0 2 0 1 0 2 0 
1 0 2 0 1 0 2 0 1 0 2 0 1 0 2 0 
2 0 1 0 2 0 1 0 2 0 1 0 2 0 1 0 
2 0 1 0 2 0 1 0 2 0 1 0 2 0 1 0 
2 0 1 0 2 0 1 0 2 0 2 0 1 0 2 0 
1 0 2 0 1 0 2 0 1 0 2 0 1 0 2 0 
1 0 2 0 1 0 2 0 1 0 2 0 1 0 2 0 
1 0 2 0 2 0 1 0 2 0 1 0 2 0 1 0 
2 0 1 0 2 0 1 0 2 0 1 0 2 0 1 0 
2 0 1 0 2 0 1 0 2 0 1 0 2 0 2 0 
1 0 2 0 1 0 2 0 1 0 2 0 1 0 2 0 
1 0 2 0 1 0 2 0 1 0 2 0 1 0 2 0 
1 0 2 0 1 0 2 0 2 0 1 0 2 0 1 0 
2 0 1 0 2 0 1 0 2 0 1 0 2 0 1 0 
2 0 1 0 2 0 1 0 2 0 1 0 2 0 1 0 
2 0 2 0 1 0 2 0 1 0 2 0 1 0 2 0 
1 0 2 0 1 0 2 0 1 0 2 0 1 0 2 0 
1 0 2 0 1 0 2 0 1 0 2 0 2 0 1 0 
2 0 1 0 2 0 1 0 2 0 1 0 2 0 1 0 
2 0 1 1 2 0 1 0 2 0 1 0 2 0 1 0 
2 0 1 0 2 0 2 0 1 0 2 0 1 0 2 0 
1 0 2 1 1 0 2 0 1 0 2 0 1 0 2 0 
1 0 2 1 1 0 2 0 1 0 2 1 1 0 2 0 
2 0 1 1 2 0 3209 4652 300 MP stroke
1 0 2 1 1 0 2 1 1 0 2 1 1 1 2 0 
1 1 2 1 1 1 2 1 1 2 2 1 1 2 2 1 
1 2 2 3 2 2 1 3 2 3 1 3 2 4 1 5 
2 5 1 6 2 7 1 7 2 9 1 9 2 11 1 13 
2 14 1 17 2 18 1 21 2 23 1 26 2 29 2 32 
1 35 2 39 1 41 2 45 1 47 2 49 1 51 2 52 
1 52 2 52 1 50 2 47 1 44 2 39 1 34 2 28 
1 21 2 15 1 7 2 0 2 -6 1 -13 2 -19 1 -23 
2 -28 1 -32 2 -34 1 -36 2 -37 1 -37 2 -37 1 -37 
2 -35 1 -34 2 -32 1 -31 2 -28 1 -27 2 -24 1 -23 
2 -21 2 -20 1 -18 2 -17 1 -15 2 -14 1 -13 2 -12 
1 -11 2 -11 1 -10 2 -9 1 -8 2 -8 1 -7 2 -7 
1 -7 2 -6 1 -6 2 -6 1 -5 2 -5 1 -5 2 -5 
2 -4 1 -4 2 -4 1 -4 2 -4 1 -4 2 -3 1 -4 
2 -3 1 -3 2 -3 1 -3 2 -3 1 -3 2 -2 1 -3 
2 -3 1 -2 2 -2 1 -3 2 -2 2 -2 1 -2 2 -2 
1 -2 2 -2 1 -1 2 -2 1 -2 2 -1 1 -2 2 -1 
1 -2 2 -1 1 -1 2 -2 1 -1 2 -1 1 -1 2 -1 
1 -1 2 -1 2 -1 1 0 2 -1 1 -1 2 -1 1 0 
2 -1 1 0 2 -1 1 0 2 0 1 -1 2 0 1 0 
2 0 1 0 2 0 1 -1 2 1 1 0 2 0 2 0 
1 0 2 0 1 0 2 1 1 0 2 0 1 1 2 0 
1 1 2 0 1 1 2 0 1 1 2 0 1 1 2 1 
1 1 2 0 1 1 2 1 2 1 1 0 2 1 1 1 
2 1 1 1 2 1 1 1 2 1 1 1 2 1 1 1 
2 1 1 1 2 1 1 1 2 1 1 1 2 1 1 2 
2 1 2 1 1 1 2 1 1 1 2 1 1 2 2 1 
1 1 2 1 1 1 2 2 1 1 2 1 1 1 2 1 
1 2 2 1 1 1 2 1 1 1 2 1 2 2 1 1 
2 1 1 1 2 1 1 1 2 2 1 1 2 1 1 1 
2 1 1 1 2 1 1 1 2 2 1 1 2 1 1 1 
2 1 1 1 2 1 2 1 1 1 2 1 1 1 2 1 
1 1 2 1 1 1 2 1 1 1 2 1 1 0 2 1 
1 1 2 1 1 1 2 1 1 1 2 1 1 1 2 1 
2 0 1 1 2 1 1 1 2 1 1 1 2 1 1 1 
2 2 1 1 2 1 1 1 2 2 1 1 2 2 1 2 
2 2 1 2 2 2 1 3 2 3 2 3 1 4 2 4 
1 5 2 5 1 6 2754 4384 300 MP stroke
2 6 1 7 2 8 1 8 2 9 1 10 2 11 1 11 
2 11 1 12 2 12 1 13 2 12 1 11 2 11 2 10 
1 9 2 8 1 6 2 5 1 3 2 1 1 0 2 -2 
1 -3 2 -5 1 -6 2 -7 1 -8 2 -8 1 -9 2 -9 
1 -10 2 -9 1 -9 2 -9 2 -8 1 -8 2 -8 1 -7 
2 -6 1 -7 2 -5 1 -6 2 -5 1 -4 2 -4 1 -4 
2 -4 1 -3 2 -4 1 -3 2 -2 1 -3 2 -2 1 -3 
2 -2 2 -2 1 -2 2 -2 1 -2 2 -1 1 -2 2 -1 
1 -2 2 -1 1 -2 2 -1 1 -1 2 -2 1 -1 2 -1 
1 -1 2 -1 1 -2 2 -1 1 -1 2 -1 2 -1 1 -1 
2 -1 1 -1 2 -1 1 -1 2 -1 1 -1 2 -1 1 -1 
2 -2 1 -1 2 -1 1 -1 2 -1 1 -1 2 -1 1 -1 
2 -1 1 -1 2 -1 2 -1 1 -1 2 -1 1 -1 2 -2 
1 -1 2 -1 1 -1 2 -1 1 -1 2 -1 1 -2 2 -1 
1 -1 2 -1 1 -1 2 -1 1 -2 2 -1 1 -1 2 -1 
2 -2 1 -1 2 -1 1 -1 2 -2 1 -1 2 -1 1 -2 
2 -1 1 -1 2 -1 1 -2 2 -1 1 -1 2 -2 1 -1 
2 -1 1 -2 2 -1 1 -1 2 -2 1 -1 2 -1 2 -2 
1 -1 2 -1 1 -2 2 -1 1 -1 2 -1 1 -2 2 -1 
1 -1 2 -2 1 -1 2 -1 1 -1 2 -2 1 -1 2 -1 
1 -1 2 -2 1 -1 2 -1 2 -1 1 -2 2 -1 1 -1 
2 -1 1 -1 2 -1 1 -1 2 -2 1 -1 2 -1 1 -1 
2 -1 1 -1 2 -1 1 -1 2 -1 1 -1 2 -1 1 -1 
2 -1 2 -1 1 -1 2 -1 1 -1 2 -1 1 0 2 -1 
1 -1 2 -1 1 -1 2 -1 1 0 2 -1 1 -1 2 -1 
1 0 2 -1 1 -1 2 0 1 -1 2 -1 2 0 1 -1 
2 0 1 -1 2 -1 1 0 2 -1 1 0 2 -1 1 0 
2 -1 1 0 2 -1 1 0 2 0 1 -1 2 0 1 -1 
2 0 1 0 2 -1 2 0 1 0 2 0 1 -1 2 0 
1 0 2 0 1 -1 2 0 1 0 2 0 1 -1 2 0 
1 0 2 0 1 0 2 0 1 0 2 0 1 -1 2 0 
2 0 1 0 2 0 1 0 2 0 1 0 2 0 1 0 
2 0 1 0 2 0 1 0 2 0 1 0 2 0 1 0 
2 0 1 0 2 0 1 0 2 0 2 0 1 0 2 0 
1 0 2 0 1 0 2 0 1 0 2 0 1 0 2 0 
1 0 2 0 1 1 2 0 1 0 2 0 1 0 2 0 
1 0 2 0 2 0 1 0 2 1 1 0 2 0 1 0 
2 0 1 0 2 0 2298 4567 300 MP stroke
1 1 2 0 1 0 2 0 1 0 2 1 1 0 2 0 
1 0 2 0 1 1 2 0 2 0 1 0 2 0 1 1 
2 0 1 0 2 0 1 0 2 0 1 0 2 1 1 0 
2 0 1 0 2 0 1 0 2 0 1 0 2 0 1 0 
2 0 2 0 1 -1 2 0 1 0 2 0 1 0 2 -1 
1 0 2 0 1 -1 2 0 1 0 2 -1 1 0 2 0 
1 -1 2 0 1 -1 2 0 1 0 2 -1 2 0 1 -1 
2 0 1 0 2 -1 1 0 2 0 1 -1 2 0 1 0 
2 -1 1 0 2 0 1 0 2 -1 1 0 2 0 1 -1 
2 0 1 0 2 0 2 -1 1 0 2 0 1 0 2 -1 
1 0 2 0 1 -1 2 0 1 0 2 -1 1 0 2 0 
1 -1 2 0 1 0 2 -1 1 0 2 0 1 -1 2 0 
2 -1 1 0 2 0 1 -1 2 0 1 -1 2 0 1 0 
2 -1 1 0 2 0 1 -1 2 0 1 -1 2 0 1 0 
2 -1 1 0 2 0 1 -1 2 0 2 -1 1 0 2 0 
1 -1 2 0 1 0 2 -1 1 0 2 -1 1 0 2 0 
1 -1 2 0 1 0 2 -1 1 0 2 0 1 -1 2 0 
1 -1 2 0 2 0 1 -1 2 0 1 0 2 -1 1 0 
2 0 1 -1 2 0 1 -1 2 0 1 0 2 -1 1 0 
2 0 1 -1 2 0 1 0 2 -1 1 0 2 0 2 -1 
1 0 2 0 1 -1 2 0 1 0 2 -1 1 0 2 0 
1 -1 2 0 1 0 2 0 1 -1 2 0 1 0 2 -1 
1 0 2 0 1 0 2 -1 1 0 2 0 2 -1 1 0 
2 0 1 0 2 -1 1 0 2 0 1 0 2 -1 1 0 
2 0 1 0 2 -1 1 0 2 0 1 0 2 0 1 -1 
2 0 1 0 2 0 2 -1 1 0 2 0 1 0 2 0 
1 -1 2 0 1 0 2 0 1 0 2 -1 1 0 2 0 
1 0 2 0 1 -1 2 0 1 0 2 0 1 0 2 -1 
2 0 1 0 2 0 1 0 2 0 1 0 2 -1 1 0 
2 0 1 0 2 0 1 0 2 0 1 0 2 -1 1 0 
2 0 1 0 2 0 1 0 2 0 2 0 1 0 2 0 
1 -1 2 0 1 0 2 0 1 0 2 0 1 0 2 0 
1 0 2 0 1 0 2 -1 1 0 2 0 1 0 2 0 
1 0 2 0 2 0 1 0 2 0 1 0 2 0 1 0 
2 0 1 0 2 0 1 0 2 0 1 0 2 -1 1 0 
2 0 1 0 2 0 1 0 2 0 1 0 2 0 2 0 
1 0 2 0 1 0 2 0 1 1 2 0 1 0 2 0 
1 0 2 0 1 0 1843 4626 300 MP stroke
2 0 1 0 2 0 1 0 2 0 1 0 2 0 1 0 
2 0 2 0 1 0 2 0 1 0 2 0 1 0 2 0 
1 0 2 0 1 0 2 0 1 0 2 0 1 1 2 0 
1 0 2 0 1 0 2 0 1 0 2 0 2 0 1 0 
2 0 1 0 2 1 1 0 2 0 1 0 2 0 1 0 
2 0 1 0 2 0 1 0 2 1 1 0 2 0 1 0 
2 0 1 0 2 0 2 0 1 1 2 0 1 0 2 0 
1 0 2 0 1 0 2 1 1 0 2 0 1 0 2 0 
1 0 2 0 1 1 2 0 1 0 2 0 1 0 2 0 
2 1 1 0 2 0 1 0 2 0 1 1 2 0 1 0 
2 0 1 0 2 1 1 0 2 0 1 0 2 0 1 1 
2 0 1 0 2 0 1 0 2 1 2 0 1 0 2 0 
1 1 2 0 1 0 2 0 1 1 2 0 1 0 2 0 
1 1 2 0 1 0 2 0 1 1 2 0 1 0 2 0 
1 1 2 0 2 0 1 1 2 0 1 0 2 0 1 1 
2 0 1 0 2 1 1 0 2 0 1 1 2 0 1 0 
2 0 1 1 2 0 1 0 2 1 1 0 2 0 2 1 
1 0 2 0 1 1 2 0 1 0 2 1 1 0 2 0 
1 1 2 0 1 0 2 1 1 0 2 1 1 0 2 0 
1 1 2 0 1 0 2 1 2 0 1 0 2 1 1 0 
2 0 1 1 2 0 1 1 2 0 1 0 2 1 1 0 
2 0 1 1 2 0 1 1 2 0 1 0 2 1 1 0 
2 0 2 1 1 0 2 1 1 0 2 0 1 1 2 0 
1 0 2 1 1 0 2 0 1 1 2 0 1 0 2 1 
1 0 2 1 1 0 2 0 1 1 2 0 2 0 1 0 
2 1 1 0 2 0 1 1 2 0 1 0 2 1 1 0 
2 0 1 1 2 0 1 0 2 0 1 1 2 0 1 0 
2 0 1 1 2 0 1 0 2 0 2 1 1 0 2 0 
1 0 2 0 1 0 2 1 1 0 2 0 1 0 2 0 
1 0 2 1 1 0 2 0 1 0 2 0 1 0 2 0 
1 0 2 0 2 0 1 0 2 0 1 0 2 0 1 0 
2 0 1 0 2 0 1 0 2 0 1 0 2 0 1 0 
2 0 1 0 2 0 1 0 2 0 1 -1 2 0 2 0 
1 0 2 0 1 0 2 -1 1 0 2 0 1 0 2 0 
1 -1 2 0 1 0 2 0 1 -1 2 0 1 0 2 -1 
1 0 2 0 1 -1 2 0 2 0 1 -1 2 0 1 0 
2 -1 1 0 2 -1 1 0 2 0 1 -1 2 0 1 -1 
2 0 1 -1 2 0 1387 4584 300 MP stroke
1 -1 2 0 1 -1 2 0 1 -1 2 0 2 -1 1 0 
2 -1 1 0 2 -1 1 0 2 -1 1 0 2 -1 1 0 
2 -1 1 -1 2 0 1 -1 2 0 1 -1 2 0 1 -1 
2 -1 1 0 2 -1 2 0 1 -1 2 -1 1 0 2 -1 
1 0 2 -1 1 -1 2 0 1 -1 2 0 1 -1 2 0 
1 -1 2 -1 1 0 2 -1 1 0 2 -1 1 -1 2 0 
2 -1 1 0 2 -1 1 -1 2 0 1 -1 2 0 1 -1 
2 0 1 -1 2 0 1 -1 2 -1 1 0 2 -1 1 0 
2 -1 1 0 2 -1 1 0 2 -1 2 0 1 -1 2 0 
1 -1 2 0 1 -1 2 0 1 -1 2 0 1 -1 2 0 
1 -1 2 0 1 -1 2 0 1 0 2 -1 1 0 2 -1 
1 0 2 -1 2 0 1 0 2 -1 1 0 2 -1 1 0 
2 0 1 -1 2 0 1 -1 2 0 1 0 2 -1 1 0 
2 0 1 -1 2 0 1 0 2 -1 1 0 2 0 2 -1 
1 0 2 0 1 -1 2 0 1 0 2 0 1 -1 2 0 
1 0 2 -1 1 0 2 0 1 0 2 -1 1 0 2 0 
1 0 2 -1 1 0 2 0 2 0 1 -1 2 0 1 0 
2 0 1 0 2 -1 1 0 2 0 1 0 2 0 1 -1 
2 0 1 0 2 0 1 0 2 0 1 -1 2 0 1 0 
2 0 2 0 1 0 2 0 1 -1 2 0 1 0 2 0 
1 0 2 0 1 0 2 -1 1 0 2 0 1 0 2 0 
1 0 2 0 1 0 2 0 1 -1 2 0 2 0 1 0 
2 0 1 0 2 0 1 0 2 0 1 0 2 -1 1 0 
2 0 1 0 2 0 1 0 2 0 1 0 2 0 1 0 
2 0 1 0 2 0 2 0 1 0 2 -1 1 0 2 0 
1 0 2 0 1 0 2 0 1 0 2 0 1 0 2 0 
1 0 2 0 1 0 2 0 1 0 2 0 1 0 2 0 
2 0 1 0 2 -1 1 0 2 0 1 0 2 0 1 0 
2 0 1 0 2 0 1 0 2 0 1 0 2 0 1 0 
2 0 1 0 2 0 1 0 2 0 2 0 1 0 2 0 
1 0 2 0 1 0 2 0 1 0 2 0 1 0 2 0 
1 0 2 0 1 0 2 0 1 0 2 0 1 0 2 0 
1 0 2 0 1 0 2 0 2 0 1 0 2 0 1 0 
2 -1 1 0 2 0 1 0 2 0 1 0 2 0 1 0 
2 0 1 0 2 0 1 0 2 0 1 0 2 0 1 0 
2 0 2 0 1 0 2 0 1 0 2 0 1 0 2 0 
1 0 2 0 1 0 2 0 1 0 2 0 1 0 2 0 
1 0 2 0 1 0 932 4657 300 MP stroke
2 0 1 0 2 0 2 0 1 0 2 0 1 0 2 0 
1 0 2 0 1 0 2 0 1 0 2 0 1 0 2 0 
1 0 2 0 1 0 2 0 1 0 2 0 1 0 2 0 
2 0 1 0 2 0 1 0 2 0 1 0 2 0 1 0 
2 0 1 0 2 0 1 0 2 0 1 0 2 0 1 0 
2 0 1 0 2 0 1 0 2 0 2 0 1 0 2 0 
1 0 2 0 1 0 2 0 1 0 2 0 1 0 2 0 
1 0 2 0 1 0 2 0 1 0 2 0 1 0 2 0 
1 0 2 0 2 0 1 0 2 0 1 0 2 0 1 0 
2 0 1 0 2 0 1 0 2 0 1 0 2 0 1 0 
2 0 1 0 2 0 1 0 2 0 1 0 2 0 2 0 
1 0 2 0 1 0 2 0 1 0 2 0 1 0 2 0 
1 0 2 0 1 0 2 0 1 0 2 0 1 0 2 0 
1 0 2 0 1 0 2 0 2 0 1 0 2 0 1 0 
2 0 1 0 2 0 1 0 2 0 1 0 2 0 1 0 
2 0 1 0 2 0 1 0 2 0 1 0 2 0 1 0 
2 0 2 0 1 0 2 0 1 0 2 0 1 0 2 0 
1 0 2 0 1 0 2 0 1 0 2 0 1 0 2 0 
1 0 2 0 1 0 2 0 1 0 2 0 2 0 1 0 
2 0 1 0 2 0 1 0 2 0 1 0 2 0 1 0 
2 0 1 0 2 0 1 0 2 0 1 0 2 0 1 0 
2 0 1 0 2 0 2 0 1 0 2 0 1 0 2 0 
1 0 2 0 1 0 2 0 1 0 2 0 1 0 2 0 
1 0 2 0 1 0 2 0 1 0 2 0 1 0 2 0 
2 0 1 0 2 0 1 0 2 0 1 0 2 0 1 0 
2 0 1 0 2 0 1 0 2 0 1 0 2 0 1 0 
2 0 1 0 2 0 1 0 2 0 2 0 1 0 2 0 
1 0 2 0 1 0 2 0 1 0 2 0 1 0 2 0 
1 0 2 0 1 0 2 0 1 0 2 0 1 0 2 0 
1 0 2 0 2 0 1 0 2 0 1 0 2 0 1 0 
2 0 1 0 2 0 1 0 2 0 1 0 2 0 1 0 
2 0 1 0 2 0 1 0 2 0 1 0 2 0 2 0 
1 0 2 0 1 0 2 0 1 0 2 0 1 0 2 0 
1 0 2 0 1 0 2 0 1 0 2 0 1 0 2 0 
1 0 2 0 1 0 2 0 1 0 2 0 2 0 1 0 
2 0 1 0 2 0 1 0 2 0 1 0 2 0 1 0 
2 0 1 0 2 0 1 0 2 0 1 0 2 0 1 0 
2 0 1 0 2 0 476 4657 300 MP stroke
2 0 1 0 2 0 1 0 2 0 1 0 2 0 1 0 
2 0 1 0 2 0 1 0 2 0 1 0 2 0 1 0 
2 0 1 0 2 0 1 0 2 0 2 0 1 0 2 0 
1 0 2 0 1 0 2 0 1 0 2 0 1 0 2 0 
1 0 2 0 1 0 2 0 1 0 2 0 1 0 2 0 
1 0 2 0 2 0 1 0 2 0 1 0 2 0 1 0 
2 0 1 0 2 0 1 0 2 0 1 0 2 0 1 0 
2 0 1 0 2 0 1 0 2 0 1 0 2 0 2 0 
1 0 2 0 1 0 2 0 1 0 2 0 1 0 2 0 
1 0 2 0 1 0 2 0 1 0 2 0 1 0 2 0 
1 0 2 0 1 0 2 0 2 0 1 0 2 0 1 0 
2 0 1 0 2 0 1 0 2 0 1 0 2 0 1 0 
2 0 1 0 2 0 1 0 2 0 1 0 2 0 1 0 
2 0 2 0 1 0 2 0 1 0 2 0 1 0 2 0 
1 0 2 0 1 0 2 0 1 0 2 0 1 0 2 0 
1 0 2 0 1 0 2 0 1 0 2 0 2 0 1 0 
2 0 1 0 2 0 1 0 2 0 1 0 2 0 1 0 
2 0 1 0 2 0 1 0 2 0 1 0 2 0 1 0 
2 0 1 0 2 0 2 0 1 0 2 0 1 0 2 0 
1 0 2 0 1 0 2 0 1 0 2 0 1 0 2 0 
1 0 2 0 1 0 2 0 1 0 2 0 1 0 2 0 
2 0 1 0 2 0 1 0 2 0 1 0 2 0 1 0 
2 0 1 0 2 0 1 0 2 0 1 0 2 0 1 0 
2 0 1 0 2 0 1 0 2 0 2 0 1 0 2 0 
1 0 2 0 1 0 2 0 1 0 2 0 1 0 2 0 
1 0 2 0 1 0 2 0 1 0 2 0 1 0 2 0 
1 0 2 0 2 0 1 0 2 0 1 0 2 0 1 0 
2 0 1 0 2 0 1 0 2 0 1 0 2 0 1 0 
2 0 1 0 2 0 1 0 2 0 1 0 2 0 2 0 
1 0 2 0 1 0 2 0 1 0 2 0 1 0 2 0 
1 0 2 0 1 0 2 0 1 0 2 0 1 0 2 0 
1 0 2 0 1 0 2 0 2 0 1 0 2 0 1 0 
2 0 1 0 2 0 1 0 2 0 1 0 2 0 1 0 
2 0 1 0 2 0 1 0 2 0 1 0 2 0 1 0 
2 0 2 0 1 0 2 0 1 0 2 0 1 0 2 0 
1 0 2 0 1 0 2 0 1 0 2 0 1 0 2 0 
1 0 2 0 1 0 2 0 1 0 2 0 2 0 1 0 
2 0 1 0 2 0 20 4657 300 MP stroke
1 0 2 0 1 0 2 0 1 0 2 0 1 0 2 0 
1 0 2 0 1 0 2 0 1 0 1 0 1 0 2 0 
1 0 2 0 2 0 1 0 2 0 1 0 2 0 1 0 
2 0 1 0 2 0 1 0 2 0 1 0 2 0 1 0 
2 0 1 0 2 0 1 0 2 0 1 0 2 0 2 0 
1 0 2 0 1 0 2 0 1 0 2 0 1 0 2 0 
1 0 2 0 1 0 2 0 1 0 2 0 1 0 2 0 
1 0 2 0 1 0 2 0 2 0 1 0 2 0 1 0 
2 0 1 0 2 0 1 0 2 0 1 0 2 0 1 0 
2 0 1 0 2 0 1 0 2 0 1 0 2 0 1 0 
-100 4657 81 MP stroke
gr

c8
0 sg
2797 3426 mt 
(687.75eV) s
1 sg
0 1136 4571 0 0 -1136 767 6158 4 MP
PP
-4571 0 0 1136 4571 0 0 -1136 767 6158 5 MP stroke
4 w
DO
SO
6 w
0 sg
 767 6158 mt 5338 6158 L
 767 5022 mt 5338 5022 L
 767 6158 mt  767 5022 L
5338 6158 mt 5338 5022 L
 767 6158 mt 5338 6158 L
 767 6158 mt  767 5022 L
 767 6158 mt  767 6112 L
 767 5022 mt  767 5068 L
 667 6304 mt 
(645) s
1529 6158 mt 1529 6112 L
1529 5022 mt 1529 5068 L
1429 6304 mt 
(650) s
2291 6158 mt 2291 6112 L
2291 5022 mt 2291 5068 L
2191 6304 mt 
(655) s
3053 6158 mt 3053 6112 L
3053 5022 mt 3053 5068 L
2953 6304 mt 
(660) s
3814 6158 mt 3814 6112 L
3814 5022 mt 3814 5068 L
3714 6304 mt 
(665) s
4576 6158 mt 4576 6112 L
4576 5022 mt 4576 5068 L
4476 6304 mt 
(670) s
5338 6158 mt 5338 6112 L
5338 5022 mt 5338 5068 L
5238 6304 mt 
(675) s
 767 6158 mt  813 6158 L
5338 6158 mt 5292 6158 L
 666 6202 mt 
(0) s
 767 5874 mt  813 5874 L
5338 5874 mt 5292 5874 L
 532 5918 mt 
(200) s
 767 5590 mt  813 5590 L
5338 5590 mt 5292 5590 L
 532 5634 mt 
(400) s
 767 5306 mt  813 5306 L
5338 5306 mt 5292 5306 L
 532 5350 mt 
(600) s
 767 5022 mt  813 5022 L
5338 5022 mt 5292 5022 L
 532 5066 mt 
(800) s
 767 6158 mt 5338 6158 L
 767 5022 mt 5338 5022 L
 767 6158 mt  767 5022 L
5338 6158 mt 5338 5022 L
gs 767 5022 4572 1137 rc
c8
2 0 1 0 2 0 1 0 2 0 1 0 2 0 1 0 
2 0 1 0 2 0 1 0 2 0 1 0 2 0 1 0 
2 0 2 0 1 0 2 0 1 0 2 0 1 0 2 0 
1 0 2 0 1 0 2 0 1 0 2 0 1 0 2 0 
1 0 2 0 1 0 2 0 1 0 2 0 2 0 1 0 
2 0 1 0 2 0 1 0 2 0 1 0 2 0 1 0 
2 0 1 0 2 0 1 0 2 0 1 0 2 0 1 0 
2 0 1 0 2 0 2 0 1 0 2 0 1 0 2 0 
1 0 2 0 1 0 2 0 1 0 2 0 1 0 2 0 
1 0 2 0 1 0 2 0 1 0 2 0 1 0 2 0 
2 0 1 0 2 0 1 0 2 0 1 0 2 0 1 0 
2 0 1 0 2 0 1 0 2 0 1 0 2 0 1 0 
2 0 1 0 2 0 1 0 2 0 2 0 1 0 2 0 
1 0 2 0 1 0 2 0 1 0 2 0 1 0 2 0 
1 0 2 0 1 0 2 0 1 0 2 0 1 0 2 0 
1 0 2 0 2 0 1 0 2 0 1 0 2 0 1 0 
2 0 1 0 2 0 1 0 2 0 1 0 2 0 1 0 
2 0 1 0 2 0 1 0 2 0 1 0 2 0 2 0 
1 0 2 0 1 0 2 0 1 0 2 0 1 0 2 0 
1 0 2 0 1 0 2 0 1 0 2 0 1 0 2 0 
1 0 2 0 1 0 2 0 2 0 1 0 2 0 1 0 
2 0 1 0 2 0 1 0 2 0 1 0 2 0 1 0 
2 0 1 0 2 0 1 0 2 0 1 0 2 0 1 0 
2 0 2 0 1 0 2 0 1 0 2 0 1 0 2 0 
1 0 2 0 1 0 2 0 1 0 2 0 1 0 2 0 
1 0 2 0 1 0 2 0 1 0 2 0 2 0 1 0 
2 0 1 0 2 0 1 0 2 0 1 0 2 0 1 0 
2 0 1 0 2 0 1 0 2 0 1 0 2 0 1 0 
2 0 1 0 2 0 2 0 1 0 2 0 1 0 2 0 
1 0 2 0 1 0 2 0 1 0 2 0 1 0 2 0 
1 0 2 0 1 0 2 0 1 0 2 0 1 0 2 0 
1 0 2 0 2 0 1 0 2 0 1 0 2 0 1 0 
2 0 1 0 2 0 1 0 2 0 1 0 2 0 1 0 
2 0 1 0 2 0 1 0 2 0 1 0 2 0 2 0 
1 0 2 0 1 0 2 0 1 0 2 0 1 0 2 0 
1 0 2 0 1 0 2 0 1 0 2 0 1 0 2 0 
1 0 2 0 1 0 2 0 2 0 1 0 2 0 1 0 
2 0 1 0 2 0 5487 6158 300 MP stroke
1 0 2 0 1 0 2 0 1 0 2 0 1 0 2 0 
1 0 2 0 1 0 2 0 1 0 2 0 2 0 1 0 
2 0 1 0 2 0 1 0 2 0 1 0 2 0 1 0 
2 0 1 0 2 0 1 0 2 0 1 0 2 0 1 0 
2 0 1 0 2 0 2 0 1 0 2 0 1 0 2 0 
1 0 2 0 1 0 2 0 1 0 2 0 1 0 2 0 
1 0 2 0 1 0 2 0 1 0 2 0 1 0 2 0 
2 0 1 0 2 0 1 0 2 0 1 0 2 0 1 0 
2 0 1 0 2 0 1 0 2 0 1 0 2 0 1 0 
2 0 1 0 2 0 1 0 2 0 2 0 1 0 2 0 
1 0 2 0 1 0 2 0 1 0 2 0 1 0 2 0 
1 0 2 0 1 0 2 0 1 0 2 0 1 0 2 0 
1 0 2 0 2 0 1 0 2 0 1 0 2 0 1 1 
2 0 1 0 2 0 1 1 2 1 1 1 2 2 1 3 
2 4 1 7 2 9 1 12 2 16 1 22 2 28 2 36 
1 43 2 52 1 61 2 69 1 76 2 81 1 84 2 84 
1 80 2 72 1 60 2 46 1 28 2 9 1 -10 2 -29 
1 -47 2 -61 1 -72 2 -80 2 -84 1 -84 2 -81 1 -75 
2 -69 1 -59 2 -51 1 -42 2 -34 1 -25 2 -19 1 -11 
2 -6 1 -1 2 5 1 9 2 15 1 19 2 23 1 28 
2 32 2 35 1 37 2 37 1 38 2 34 1 31 2 25 
1 18 2 10 1 2 2 -8 1 -16 2 -23 1 -29 2 -34 
1 -37 2 -38 1 -37 2 -36 1 -33 2 -29 2 -26 1 -22 
2 -17 1 -13 2 -10 1 -7 2 -4 1 -1 2 2 1 3 
2 6 1 7 2 9 1 10 2 11 1 11 2 12 1 11 
2 10 1 8 2 6 2 4 1 2 2 -2 1 -4 2 -6 
1 -8 2 -11 1 -11 2 -11 1 -12 2 -11 1 -11 2 -9 
1 -8 2 -7 1 -5 2 -4 1 -3 2 -2 1 -1 2 1 
2 1 1 2 2 2 1 4 2 3 1 4 2 4 1 4 
2 3 1 3 2 2 1 2 2 0 1 0 2 -2 1 -2 
2 -3 1 -3 2 -4 1 -4 2 -4 2 -3 1 -4 2 -3 
1 -3 2 -2 1 -2 2 -1 1 -1 2 -1 1 0 2 1 
1 0 2 1 1 1 2 2 1 1 2 1 1 2 2 1 
1 1 2 1 1 0 2 0 2 0 1 -1 2 0 1 -1 
2 -2 1 -1 2 -1 1 -2 2 -1 1 -1 2 -2 1 0 
2 -1 1 -1 2 0 1 0 2 0 1 0 2 1 1 0 
2 0 2 1 1 0 2 1 1 0 2 1 1 0 2 0 
1 0 2 0 1 -1 5032 6152 300 MP stroke
2 0 1 -1 2 0 1 -1 2 0 1 -1 2 0 1 -1 
2 0 1 0 2 0 2 0 1 0 2 0 1 0 2 0 
1 0 2 1 1 0 2 0 1 0 2 0 1 0 2 0 
1 0 2 0 1 0 2 0 1 -1 2 0 1 0 2 0 
2 0 1 -1 2 0 1 0 2 0 1 0 2 0 1 0 
2 0 1 1 2 0 1 0 2 0 1 0 2 0 1 0 
2 0 1 0 2 0 1 0 2 0 2 0 1 -1 2 0 
1 0 2 0 1 0 2 0 1 0 2 0 1 0 2 0 
1 0 2 0 1 1 2 0 1 0 2 0 1 0 2 0 
1 0 2 0 2 0 1 -1 2 0 1 0 2 0 1 0 
2 0 1 0 2 0 1 0 2 0 1 0 2 0 1 0 
2 0 1 1 2 0 1 0 2 0 1 0 2 0 2 -1 
1 0 2 0 1 0 2 0 1 0 2 0 1 0 2 0 
1 0 2 0 1 0 2 0 1 0 2 1 1 0 2 0 
1 0 2 -1 1 0 2 0 2 0 1 0 2 0 1 0 
2 0 1 1 2 0 1 0 2 0 1 0 2 1 1 1 
2 0 1 2 2 1 1 2 2 2 1 3 2 3 1 4 
2 4 2 5 1 4 2 5 1 5 2 4 1 4 2 3 
1 2 2 2 1 1 2 1 1 0 2 0 1 1 2 1 
1 2 2 3 1 4 2 5 1 7 2 7 2 8 1 8 
2 8 1 7 2 6 1 6 2 4 1 3 2 1 1 2 
2 0 1 1 2 1 1 2 2 2 1 3 2 4 1 4 
2 5 1 5 2 5 2 5 1 4 2 4 1 3 2 3 
1 2 2 3 1 2 2 3 1 3 2 2 1 3 2 3 
1 3 2 2 1 3 2 2 1 2 2 1 1 1 2 1 
2 1 1 1 2 0 1 1 2 0 1 0 2 1 1 0 
2 0 1 0 2 1 1 0 2 0 1 0 2 1 1 0 
2 -1 1 0 2 0 1 -1 2 0 2 -1 1 0 2 -1 
1 -1 2 0 1 -1 2 -1 1 -1 2 -1 1 -1 2 -1 
1 -1 2 -1 1 -1 2 -2 1 -1 2 -1 1 -1 2 -2 
1 -1 2 -2 2 -1 1 -2 2 -1 1 -2 2 -2 1 -1 
2 -2 1 -2 2 -1 1 -2 2 -2 1 -1 2 -2 1 -2 
2 -2 1 -2 2 -1 1 -2 2 -2 1 -2 2 -2 2 -1 
1 -2 2 -2 1 -2 2 -2 1 -2 2 -1 1 -2 2 -2 
1 -2 2 -2 1 -2 2 -1 1 -2 2 -2 1 -2 2 -2 
1 -1 2 -2 1 -2 2 -2 2 -2 1 -1 2 -2 1 -2 
2 -2 1 -1 2 -2 1 -2 2 -1 1 -2 2 -2 1 -1 
2 -2 1 -2 2 -1 4576 6044 300 MP stroke
1 -2 2 -2 1 -1 2 -2 1 -1 2 -2 1 -1 2 -2 
2 -1 1 -2 2 -1 1 -2 2 -1 1 -2 2 -1 1 -2 
2 -1 1 -1 2 -2 1 -1 2 -1 1 -2 2 -1 1 -1 
2 -2 1 -1 2 -1 1 -1 2 -2 2 -1 1 -1 2 -1 
1 -1 2 -2 1 -1 2 -1 1 -1 2 -1 1 -1 2 -1 
1 -1 2 -1 1 -1 2 -1 1 -1 2 -1 1 -1 2 -1 
1 -1 2 -1 2 -1 1 -1 2 -1 1 -1 2 -1 1 -1 
2 -1 1 -1 2 0 1 -1 2 -1 1 -1 2 -1 1 0 
2 -1 1 -1 2 -1 1 0 2 -1 1 -1 2 -1 2 0 
1 -1 2 -1 1 0 2 -1 1 -1 2 0 1 -1 2 0 
1 -1 2 -1 1 0 2 -1 1 0 2 -1 1 0 2 -1 
1 -1 2 0 1 -1 2 0 2 -1 1 0 2 0 1 -1 
2 0 1 -1 2 0 1 -1 2 0 1 -1 2 0 1 0 
2 -1 1 0 2 -1 1 0 2 0 1 -1 2 0 1 0 
2 -1 2 0 1 0 2 -1 1 0 2 0 1 0 2 -1 
1 0 2 0 1 -1 2 0 1 0 2 0 1 -1 2 0 
1 0 2 0 1 0 2 -1 1 0 2 0 2 0 1 0 
2 -1 1 0 2 0 1 0 2 0 1 0 2 0 1 -1 
2 0 1 0 2 0 1 0 2 0 1 0 2 0 1 -1 
2 0 1 0 2 0 2 0 1 0 2 0 1 0 2 0 
1 0 2 0 1 0 2 0 1 -1 2 0 1 0 2 0 
1 0 2 0 1 0 2 0 1 0 2 0 1 0 2 0 
2 0 1 0 2 0 1 0 2 0 1 0 2 0 1 0 
2 0 1 0 2 0 1 0 2 0 1 0 2 0 1 0 
2 0 1 0 2 0 1 0 2 0 2 0 1 0 2 0 
1 0 2 0 1 0 2 0 1 0 2 0 1 0 2 0 
1 0 2 0 1 0 2 0 1 0 2 0 1 0 2 0 
1 0 2 0 2 0 1 0 2 0 1 0 2 0 1 0 
2 0 1 0 2 0 1 0 2 0 1 0 2 0 1 0 
2 0 1 0 2 0 1 0 2 0 1 0 2 0 2 0 
1 0 2 0 1 0 2 0 1 0 2 0 1 0 2 0 
1 0 2 0 1 0 2 0 1 0 2 0 1 0 2 0 
1 0 2 0 1 0 2 0 2 0 1 0 2 0 1 0 
2 0 1 0 2 0 1 0 2 0 1 0 2 0 1 0 
2 0 1 0 2 0 1 0 2 0 1 0 2 0 1 0 
2 0 2 0 1 0 2 0 1 0 2 0 1 0 2 0 
1 0 2 0 1 0 2 0 1 0 2 0 1 0 2 0 
1 0 2 0 1 0 4121 6156 300 MP stroke
2 0 1 0 2 0 2 0 1 0 2 0 1 0 2 0 
1 0 2 0 1 0 2 0 1 0 2 0 1 0 2 0 
1 0 2 0 1 0 2 0 1 0 2 0 1 0 2 0 
2 0 1 0 2 0 1 0 2 0 1 0 2 0 1 0 
2 0 1 0 2 0 1 0 2 0 1 0 2 0 1 0 
2 0 1 0 2 0 1 0 2 0 1 0 2 0 2 0 
1 0 2 0 1 0 2 0 1 0 2 0 1 0 2 0 
1 0 2 0 1 0 2 0 1 0 2 0 1 0 2 0 
1 0 2 0 1 0 2 0 2 0 1 0 2 0 1 0 
2 0 1 0 2 0 1 0 2 0 1 0 2 0 1 0 
2 0 1 0 2 0 1 0 2 0 1 0 2 0 1 0 
2 0 2 0 1 0 2 0 1 0 2 0 1 0 2 0 
1 0 2 0 1 0 2 0 1 0 2 0 1 0 2 0 
1 0 2 0 1 0 2 0 1 0 2 0 2 0 1 0 
2 0 1 0 2 0 1 0 2 0 1 0 2 0 1 0 
2 0 1 0 2 0 1 0 2 0 1 0 2 0 1 0 
2 0 1 0 2 0 2 0 1 0 2 0 1 0 2 0 
1 0 2 0 1 0 2 0 1 0 2 0 1 0 2 0 
1 0 2 0 1 0 2 0 1 0 2 0 1 0 2 0 
2 0 1 0 2 0 1 0 2 0 1 0 2 0 1 0 
2 0 1 0 2 0 1 0 2 0 1 0 2 0 1 0 
2 0 1 0 2 0 1 0 2 0 2 1 1 0 2 0 
1 0 2 0 1 0 2 0 1 0 2 0 1 0 2 0 
1 0 2 0 1 0 2 0 1 0 2 0 1 0 2 0 
1 0 2 0 2 0 1 0 2 0 1 0 2 0 1 0 
2 0 1 0 2 0 1 0 2 0 1 0 2 0 1 0 
2 0 1 0 2 0 1 0 2 0 1 0 2 0 2 0 
1 0 2 0 1 0 2 0 1 0 2 0 1 0 2 0 
1 0 2 1 1 0 2 0 1 0 2 0 1 0 2 0 
1 0 2 0 1 0 2 0 2 0 1 0 2 0 1 0 
2 0 1 0 2 0 1 0 2 0 1 0 2 0 1 1 
2 0 1 0 2 0 1 0 2 0 1 0 2 0 1 0 
2 0 2 0 1 0 2 1 1 0 2 0 1 0 2 0 
1 0 2 0 1 1 2 0 1 0 2 0 1 1 2 0 
1 0 2 0 1 1 2 0 1 1 2 0 2 0 1 1 
2 0 1 1 2 0 1 1 2 1 1 0 2 1 1 0 
2 1 1 0 2 1 1 0 2 0 1 0 2 1 1 0 
2 -1 1 0 2 0 3665 6141 300 MP stroke
2 0 1 -1 2 -1 1 0 2 -1 1 -1 2 -1 1 0 
2 -1 1 -1 2 -1 1 -1 2 -1 1 0 2 -1 1 -1 
2 0 1 -1 2 0 1 -1 2 0 2 0 1 -1 2 0 
1 0 2 0 1 0 2 -1 1 0 2 0 1 0 2 0 
1 0 2 0 1 0 2 0 1 0 2 -1 1 0 2 0 
1 0 2 0 2 0 1 0 2 0 1 0 2 0 1 0 
2 0 1 0 2 0 1 0 2 0 1 0 2 0 1 0 
2 0 1 0 2 0 1 0 2 0 1 0 2 0 2 0 
1 0 2 0 1 0 2 0 1 0 2 0 1 0 2 0 
1 0 2 0 1 0 2 0 1 0 2 0 1 0 2 0 
1 0 2 0 1 0 2 0 1 0 2 0 2 0 1 0 
2 0 1 0 2 0 1 0 2 0 1 0 2 0 1 0 
2 0 1 0 2 0 1 0 2 0 1 0 2 0 1 0 
2 0 1 0 2 0 2 0 1 0 2 0 1 0 2 0 
1 0 2 0 1 0 2 0 1 0 2 0 1 0 2 0 
1 0 2 0 1 0 2 0 1 0 2 0 1 0 2 0 
2 0 1 0 2 0 1 0 2 0 1 0 2 0 1 0 
2 0 1 0 2 0 1 0 2 0 1 0 2 0 1 0 
2 0 1 0 2 0 1 0 2 0 2 0 1 0 2 0 
1 0 2 0 1 0 2 0 1 0 2 0 1 0 2 0 
1 0 2 0 1 0 2 0 1 0 2 0 1 0 2 0 
1 0 2 0 2 0 1 0 2 0 1 0 2 0 1 0 
2 0 1 0 2 0 1 0 2 0 1 0 2 0 1 0 
2 0 1 0 2 0 1 0 2 0 1 0 2 0 2 0 
1 0 2 0 1 1 2 0 1 0 2 0 1 0 2 0 
1 0 2 0 1 0 2 0 1 0 2 0 1 0 2 0 
1 0 2 0 1 0 2 0 2 0 1 0 2 0 1 0 
2 0 1 0 2 0 1 0 2 0 1 0 2 0 1 0 
2 0 1 0 2 0 1 0 2 0 1 0 2 0 1 0 
2 0 2 0 1 0 2 0 1 0 2 0 1 0 2 0 
1 0 2 0 1 0 2 0 1 0 2 0 1 0 2 0 
1 0 2 0 1 0 2 0 1 0 2 1 2 0 1 0 
2 0 1 0 2 0 1 0 2 0 1 0 2 0 1 0 
2 0 1 0 2 1 1 0 2 0 1 0 2 0 1 0 
2 0 1 1 2 0 2 0 1 0 2 0 1 1 2 0 
1 0 2 0 1 1 2 0 1 0 2 1 1 0 2 1 
1 0 2 0 1 1 2 0 1 1 2 0 1 1 2 0 
2 1 1 1 2 0 3209 6145 300 MP stroke
1 1 2 1 1 1 2 0 1 1 2 1 1 1 2 1 
1 1 2 1 1 1 2 1 1 1 2 1 1 2 2 1 
1 2 2 1 2 2 1 2 2 2 1 2 2 2 1 3 
2 3 1 3 2 4 1 4 2 4 1 5 2 6 1 6 
2 8 1 8 2 9 1 11 2 12 1 14 2 15 2 17 
1 19 2 21 1 23 2 24 1 27 2 28 1 29 2 30 
1 31 2 32 1 30 2 30 1 29 2 26 1 24 2 21 
1 18 2 14 1 10 2 6 2 3 1 -2 2 -4 1 -8 
2 -11 1 -13 2 -15 1 -16 2 -18 1 -18 2 -18 1 -19 
2 -18 1 -17 2 -17 1 -17 2 -15 1 -15 2 -13 1 -13 
2 -12 2 -11 1 -11 2 -9 1 -9 2 -9 1 -8 2 -7 
1 -7 2 -6 1 -6 2 -6 1 -6 2 -5 1 -5 2 -5 
1 -4 2 -5 1 -4 2 -4 1 -4 2 -4 1 -4 2 -4 
2 -4 1 -4 2 -3 1 -4 2 -4 1 -3 2 -4 1 -3 
2 -4 1 -3 2 -4 1 -3 2 -4 1 -3 2 -4 1 -3 
2 -4 1 -3 2 -4 1 -3 2 -4 2 -3 1 -3 2 -4 
1 -3 2 -4 1 -3 2 -3 1 -4 2 -3 1 -3 2 -3 
1 -4 2 -3 1 -3 2 -3 1 -3 2 -3 1 -3 2 -3 
1 -3 2 -3 2 -3 1 -3 2 -3 1 -2 2 -3 1 -3 
2 -2 1 -3 2 -2 1 -3 2 -2 1 -2 2 -3 1 -2 
2 -2 1 -2 2 -2 1 -2 2 -2 1 -2 2 -2 2 -1 
1 -2 2 -1 1 -2 2 -1 1 -2 2 -1 1 -1 2 -1 
1 -1 2 -1 1 -1 2 -1 1 -1 2 -1 1 0 2 -1 
1 0 2 -1 1 0 2 0 2 -1 1 0 2 0 1 0 
2 0 1 0 2 0 1 1 2 0 1 0 2 1 1 0 
2 1 1 0 2 1 1 1 2 0 1 1 2 1 1 1 
2 1 2 1 1 1 2 1 1 1 2 2 1 1 2 1 
1 2 2 1 1 2 2 1 1 2 2 1 1 2 2 2 
1 1 2 2 1 2 2 2 1 1 2 2 2 2 1 2 
2 2 1 2 2 2 1 2 2 2 1 2 2 2 1 3 
2 2 1 2 2 2 1 2 2 3 1 2 2 2 1 2 
2 3 1 2 2 2 2 2 1 3 2 2 1 2 2 3 
1 2 2 2 1 3 2 2 1 2 2 3 1 2 2 2 
1 3 2 2 1 2 2 3 1 2 2 2 1 3 2 2 
2 2 1 2 2 3 1 2 2 3 1 2 2 2 1 3 
2 2 1 3 2 2 1 3 2 2 1 3 2 3 1 3 
2 3 1 3 2 3 1 4 2 3 2 4 1 5 2 4 
1 5 2 6 1 6 2754 5924 300 MP stroke
2 6 1 7 2 7 1 8 2 9 1 9 2 10 1 10 
2 11 1 11 2 11 1 11 2 11 1 10 2 10 2 10 
1 8 2 8 1 6 2 5 1 4 2 2 1 1 2 0 
1 -2 2 -3 1 -4 2 -5 1 -5 2 -6 1 -7 2 -6 
1 -7 2 -7 1 -6 2 -7 2 -6 1 -6 2 -5 1 -5 
2 -5 1 -4 2 -5 1 -3 2 -4 1 -3 2 -3 1 -2 
2 -3 1 -2 2 -2 1 -2 2 -2 1 -1 2 -1 1 -2 
2 -1 2 -1 1 -1 2 -1 1 -1 2 -1 1 0 2 -1 
1 0 2 -1 1 -1 2 0 1 0 2 -1 1 0 2 -1 
1 0 2 0 1 0 2 -1 1 0 2 0 2 0 1 0 
2 -1 1 0 2 0 1 0 2 0 1 0 2 0 1 -1 
2 0 1 0 2 0 1 0 2 0 1 0 2 -1 1 0 
2 0 1 0 2 0 2 -1 1 0 2 0 1 0 2 -1 
1 0 2 0 1 -1 2 0 1 0 2 -1 1 0 2 -1 
1 0 2 0 1 -1 2 -1 1 0 2 -1 1 0 2 -1 
2 -1 1 0 2 -1 1 -1 2 -1 1 -1 2 -1 1 -1 
2 0 1 -1 2 -1 1 -1 2 -2 1 -1 2 -1 1 -1 
2 -1 1 -1 2 -2 1 -1 2 -1 1 -2 2 -1 2 -1 
1 -2 2 -1 1 -2 2 -1 1 -2 2 -1 1 -2 2 -2 
1 -1 2 -2 1 -1 2 -2 1 -2 2 -2 1 -1 2 -2 
1 -2 2 -2 1 -1 2 -2 2 -2 1 -2 2 -2 1 -2 
2 -2 1 -2 2 -1 1 -2 2 -2 1 -2 2 -2 1 -2 
2 -2 1 -2 2 -2 1 -2 2 -2 1 -1 2 -2 1 -2 
2 -2 2 -2 1 -2 2 -2 1 -2 2 -2 1 -1 2 -2 
1 -2 2 -2 1 -2 2 -2 1 -1 2 -2 1 -2 2 -2 
1 -1 2 -2 1 -2 2 -2 1 -1 2 -2 2 -1 1 -2 
2 -2 1 -1 2 -2 1 -1 2 -2 1 -1 2 -1 1 -2 
2 -1 1 -2 2 -1 1 -1 2 -1 1 -2 2 -1 1 -1 
2 -1 1 -2 2 -1 2 -1 1 -1 2 -1 1 -1 2 -1 
1 -1 2 -1 1 -1 2 -1 1 0 2 -1 1 -1 2 -1 
1 -1 2 0 1 -1 2 -1 1 0 2 -1 1 0 2 -1 
2 -1 1 0 2 -1 1 0 2 0 1 -1 2 0 1 0 
2 -1 1 0 2 0 1 -1 2 0 1 0 2 0 1 -1 
2 0 1 0 2 0 1 0 2 0 2 0 1 0 2 0 
1 0 2 0 1 0 2 0 1 0 2 0 1 1 2 0 
1 0 2 0 1 1 2 0 1 0 2 1 1 0 2 0 
1 1 2 0 2 0 1 1 2 0 1 1 2 0 1 0 
2 1 1 0 2 0 2298 6075 300 MP stroke
1 1 2 0 1 0 2 1 1 0 2 0 1 0 2 1 
1 0 2 0 1 0 2 0 2 0 1 0 2 0 1 1 
2 0 1 0 2 0 1 0 2 0 1 0 2 0 1 1 
2 0 1 0 2 0 1 1 2 0 1 0 2 1 1 0 
2 0 2 1 1 0 2 1 1 0 2 1 1 0 2 1 
1 0 2 1 1 1 2 0 1 1 2 0 1 1 2 0 
1 1 2 0 1 1 2 0 1 1 2 0 2 1 1 0 
2 0 1 1 2 0 1 1 2 0 1 0 2 1 1 0 
2 0 1 0 2 1 1 0 2 0 1 1 2 0 1 0 
2 1 1 0 2 0 2 0 1 1 2 0 1 0 2 1 
1 0 2 0 1 1 2 0 1 0 2 1 1 0 2 0 
1 1 2 0 1 0 2 0 1 1 2 0 1 0 2 0 
2 0 1 1 2 0 1 0 2 0 1 0 2 0 1 0 
2 0 1 0 2 0 1 0 2 0 1 1 2 0 1 0 
2 0 1 0 2 0 1 0 2 0 2 0 1 0 2 0 
1 0 2 0 1 0 2 0 1 0 2 0 1 0 2 0 
1 0 2 0 1 0 2 0 1 0 2 0 1 0 2 0 
1 0 2 0 2 0 1 0 2 0 1 0 2 0 1 0 
2 0 1 0 2 0 1 0 2 0 1 0 2 0 1 0 
2 0 1 0 2 0 1 0 2 0 1 0 2 0 2 0 
1 0 2 0 1 0 2 0 1 0 2 0 1 0 2 0 
1 0 2 0 1 0 2 0 1 0 2 0 1 0 2 1 
1 0 2 0 1 0 2 0 1 0 2 1 2 0 1 0 
2 0 1 0 2 0 1 1 2 0 1 0 2 0 1 0 
2 1 1 0 2 0 1 0 2 1 1 0 2 0 1 0 
2 1 1 0 2 0 2 1 1 0 2 1 1 0 2 0 
1 1 2 0 1 1 2 0 1 1 2 0 1 1 2 0 
1 1 2 1 1 0 2 1 1 1 2 0 1 1 2 1 
2 0 1 1 2 1 1 1 2 0 1 1 2 1 1 1 
2 1 1 0 2 1 1 1 2 1 1 1 2 1 1 1 
2 1 1 1 2 0 1 1 2 1 2 2 1 1 2 1 
1 1 2 1 1 1 2 1 1 1 2 1 1 2 2 1 
1 1 2 2 1 1 2 1 1 2 2 1 1 1 2 2 
1 1 2 2 2 1 1 2 2 1 1 2 2 1 1 2 
2 1 1 2 2 2 1 1 2 2 1 1 2 2 1 2 
2 2 1 1 2 2 1 2 2 1 1 2 2 2 2 2 
1 2 2 1 1 2 2 2 1 2 2 2 1 2 2 2 
1 2 2 2 1 2 1843 5923 300 MP stroke
2 2 1 2 2 2 1 2 2 2 1 2 2 2 1 2 
2 3 2 2 1 2 2 2 1 2 2 2 1 3 2 2 
1 2 2 2 1 3 2 2 1 2 2 2 1 3 2 2 
1 2 2 2 1 3 2 2 1 2 2 3 2 2 1 2 
2 3 1 2 2 2 1 2 2 3 1 2 2 2 1 3 
2 2 1 2 2 2 1 3 2 2 1 2 2 3 1 2 
2 2 1 2 2 3 2 2 1 2 2 2 1 3 2 2 
1 2 2 2 1 2 2 3 1 2 2 2 1 2 2 2 
1 2 2 2 1 2 2 2 1 2 2 2 1 2 2 2 
2 2 1 2 2 2 1 2 2 2 1 1 2 2 1 2 
2 2 1 1 2 2 1 1 2 2 1 2 2 1 1 2 
2 1 1 1 2 2 1 1 2 1 2 2 1 1 2 1 
1 1 2 2 1 1 2 1 1 1 2 1 1 1 2 1 
1 0 2 1 1 1 2 1 1 0 2 1 1 1 2 0 
1 1 2 0 2 1 1 0 2 0 1 1 2 0 1 0 
2 0 1 0 2 0 1 0 2 0 1 0 2 0 1 0 
2 -1 1 0 2 0 1 -1 2 0 1 -1 2 0 2 -1 
1 0 2 -1 1 -1 2 -1 1 -1 2 0 1 -1 2 -1 
1 -1 2 -1 1 -2 2 -1 1 -1 2 -1 1 -2 2 -1 
1 -1 2 -2 1 -1 2 -2 2 -1 1 -2 2 -2 1 -1 
2 -2 1 -2 2 -2 1 -2 2 -2 1 -2 2 -2 1 -2 
2 -2 1 -2 2 -2 1 -2 2 -2 1 -3 2 -2 1 -2 
2 -2 2 -3 1 -2 2 -3 1 -2 2 -3 1 -2 2 -3 
1 -2 2 -3 1 -2 2 -3 1 -3 2 -2 1 -3 2 -3 
1 -3 2 -2 1 -3 2 -3 1 -3 2 -2 2 -3 1 -3 
2 -3 1 -3 2 -3 1 -2 2 -3 1 -3 2 -3 1 -3 
2 -3 1 -3 2 -3 1 -3 2 -3 1 -2 2 -3 1 -3 
2 -3 1 -3 2 -3 1 -3 2 -3 2 -3 1 -2 2 -3 
1 -3 2 -3 1 -3 2 -3 1 -3 2 -2 1 -3 2 -3 
1 -3 2 -2 1 -3 2 -3 1 -3 2 -2 1 -3 2 -3 
1 -2 2 -3 2 -3 1 -2 2 -3 1 -2 2 -3 1 -2 
2 -3 1 -2 2 -3 1 -2 2 -3 1 -2 2 -3 1 -2 
2 -2 1 -3 2 -2 1 -2 2 -2 1 -3 2 -2 2 -2 
1 -2 2 -2 1 -3 2 -2 1 -2 2 -2 1 -2 2 -2 
1 -2 2 -2 1 -2 2 -2 1 -2 2 -2 1 -1 2 -2 
1 -2 2 -2 1 -2 2 -2 2 -1 1 -2 2 -2 1 -1 
2 -2 1 -2 2 -1 1 -2 2 -1 1 -2 2 -2 1 -1 
2 -2 1 -1 2 -1 1387 6073 300 MP stroke
1 -2 2 -1 1 -2 2 -1 1 -1 2 -2 2 -1 1 -1 
2 -2 1 -1 2 -1 1 -1 2 -2 1 -1 2 -1 1 -1 
2 -1 1 -1 2 -2 1 -1 2 -1 1 -1 2 -1 1 -1 
2 -1 1 -1 2 -1 2 -1 1 -1 2 -1 1 -1 2 0 
1 -1 2 -1 1 -1 2 -1 1 -1 2 -1 1 0 2 -1 
1 -1 2 -1 1 -1 2 0 1 -1 2 -1 1 0 2 -1 
2 -1 1 0 2 -1 1 -1 2 0 1 -1 2 -1 1 0 
2 -1 1 0 2 -1 1 -1 2 0 1 -1 2 0 1 -1 
2 0 1 -1 2 0 1 -1 2 0 2 -1 1 0 2 -1 
1 0 2 0 1 -1 2 0 1 -1 2 0 1 -1 2 0 
1 0 2 -1 1 0 2 0 1 -1 2 0 1 0 2 -1 
1 0 2 0 2 -1 1 0 2 0 1 -1 2 0 1 0 
2 0 1 -1 2 0 1 0 2 -1 1 0 2 0 1 0 
2 -1 1 0 2 0 1 0 2 0 1 -1 2 0 2 0 
1 0 2 0 1 -1 2 0 1 0 2 0 1 0 2 -1 
1 0 2 0 1 0 2 0 1 0 2 0 1 -1 2 0 
1 0 2 0 1 0 2 0 2 0 1 -1 2 0 1 0 
2 0 1 0 2 0 1 0 2 0 1 -1 2 0 1 0 
2 0 1 0 2 0 1 0 2 0 1 0 2 0 1 0 
2 -1 2 0 1 0 2 0 1 0 2 0 1 0 2 0 
1 0 2 0 1 0 2 0 1 0 2 0 1 -1 2 0 
1 0 2 0 1 0 2 0 1 0 2 0 2 0 1 0 
2 0 1 0 2 0 1 0 2 0 1 0 2 0 1 0 
2 0 1 0 2 0 1 -1 2 0 1 0 2 0 1 0 
2 0 1 0 2 0 2 0 1 0 2 0 1 0 2 0 
1 0 2 0 1 0 2 0 1 0 2 0 1 0 2 0 
1 0 2 0 1 0 2 0 1 0 2 0 1 0 2 0 
2 0 1 0 2 0 1 0 2 0 1 0 2 0 1 0 
2 0 1 0 2 0 1 0 2 0 1 0 2 0 1 -1 
2 0 1 0 2 0 1 0 2 0 2 0 1 0 2 0 
1 0 2 0 1 0 2 0 1 0 2 0 1 0 2 0 
1 0 2 0 1 0 2 0 1 0 2 0 1 0 2 0 
1 0 2 0 1 0 2 0 2 0 1 0 2 0 1 0 
2 0 1 0 2 0 1 0 2 0 1 0 2 0 1 0 
2 0 1 0 2 0 1 0 2 0 1 0 2 0 1 0 
2 0 2 0 1 0 2 0 1 0 2 0 1 0 2 0 
1 0 2 0 1 0 2 0 1 0 2 0 1 0 2 0 
1 0 2 0 1 0 932 6158 300 MP stroke
2 0 1 0 2 0 2 0 1 0 2 0 1 0 2 0 
1 0 2 0 1 0 2 0 1 0 2 0 1 0 2 0 
1 0 2 0 1 0 2 0 1 0 2 0 1 0 2 0 
2 0 1 0 2 0 1 0 2 0 1 0 2 0 1 0 
2 0 1 0 2 0 1 0 2 0 1 0 2 0 1 0 
2 0 1 0 2 0 1 0 2 0 2 0 1 0 2 0 
1 0 2 0 1 0 2 0 1 0 2 0 1 0 2 0 
1 0 2 0 1 0 2 0 1 0 2 0 1 0 2 0 
1 0 2 0 2 0 1 0 2 0 1 0 2 0 1 0 
2 0 1 0 2 0 1 0 2 0 1 0 2 0 1 0 
2 0 1 0 2 0 1 0 2 0 1 0 2 0 2 0 
1 0 2 0 1 0 2 0 1 0 2 0 1 0 2 0 
1 0 2 0 1 0 2 0 1 0 2 0 1 0 2 0 
1 0 2 0 1 0 2 0 2 0 1 0 2 0 1 0 
2 0 1 0 2 0 1 0 2 0 1 0 2 0 1 0 
2 0 1 0 2 0 1 0 2 0 1 0 2 0 1 0 
2 0 2 0 1 0 2 0 1 0 2 0 1 0 2 0 
1 0 2 0 1 0 2 0 1 0 2 0 1 0 2 0 
1 0 2 0 1 0 2 0 1 0 2 0 2 0 1 0 
2 0 1 0 2 0 1 0 2 0 1 0 2 0 1 0 
2 0 1 0 2 0 1 0 2 0 1 0 2 0 1 0 
2 0 1 0 2 0 2 0 1 0 2 0 1 0 2 0 
1 0 2 0 1 0 2 0 1 0 2 0 1 0 2 0 
1 0 2 0 1 0 2 0 1 0 2 0 1 0 2 0 
2 0 1 0 2 0 1 0 2 0 1 0 2 0 1 0 
2 0 1 0 2 0 1 0 2 0 1 0 2 0 1 0 
2 0 1 0 2 0 1 0 2 0 2 0 1 0 2 0 
1 0 2 0 1 0 2 0 1 0 2 0 1 0 2 0 
1 0 2 0 1 0 2 0 1 0 2 0 1 0 2 0 
1 0 2 0 2 0 1 0 2 0 1 0 2 0 1 0 
2 0 1 0 2 0 1 0 2 0 1 0 2 0 1 0 
2 0 1 0 2 0 1 0 2 0 1 0 2 0 2 0 
1 0 2 0 1 0 2 0 1 0 2 0 1 0 2 0 
1 0 2 0 1 0 2 0 1 0 2 0 1 0 2 0 
1 0 2 0 1 0 2 0 1 0 2 0 2 0 1 0 
2 0 1 0 2 0 1 0 2 0 1 0 2 0 1 0 
2 0 1 0 2 0 1 0 2 0 1 0 2 0 1 0 
2 0 1 0 2 0 476 6158 300 MP stroke
2 0 1 0 2 0 1 0 2 0 1 0 2 0 1 0 
2 0 1 0 2 0 1 0 2 0 1 0 2 0 1 0 
2 0 1 0 2 0 1 0 2 0 2 0 1 0 2 0 
1 0 2 0 1 0 2 0 1 0 2 0 1 0 2 0 
1 0 2 0 1 0 2 0 1 0 2 0 1 0 2 0 
1 0 2 0 2 0 1 0 2 0 1 0 2 0 1 0 
2 0 1 0 2 0 1 0 2 0 1 0 2 0 1 0 
2 0 1 0 2 0 1 0 2 0 1 0 2 0 2 0 
1 0 2 0 1 0 2 0 1 0 2 0 1 0 2 0 
1 0 2 0 1 0 2 0 1 0 2 0 1 0 2 0 
1 0 2 0 1 0 2 0 2 0 1 0 2 0 1 0 
2 0 1 0 2 0 1 0 2 0 1 0 2 0 1 0 
2 0 1 0 2 0 1 0 2 0 1 0 2 0 1 0 
2 0 2 0 1 0 2 0 1 0 2 0 1 0 2 0 
1 0 2 0 1 0 2 0 1 0 2 0 1 0 2 0 
1 0 2 0 1 0 2 0 1 0 2 0 2 0 1 0 
2 0 1 0 2 0 1 0 2 0 1 0 2 0 1 0 
2 0 1 0 2 0 1 0 2 0 1 0 2 0 1 0 
2 0 1 0 2 0 2 0 1 0 2 0 1 0 2 0 
1 0 2 0 1 0 2 0 1 0 2 0 1 0 2 0 
1 0 2 0 1 0 2 0 1 0 2 0 1 0 2 0 
2 0 1 0 2 0 1 0 2 0 1 0 2 0 1 0 
2 0 1 0 2 0 1 0 2 0 1 0 2 0 1 0 
2 0 1 0 2 0 1 0 2 0 2 0 1 0 2 0 
1 0 2 0 1 0 2 0 1 0 2 0 1 0 2 0 
1 0 2 0 1 0 2 0 1 0 2 0 1 0 2 0 
1 0 2 0 2 0 1 0 2 0 1 0 2 0 1 0 
2 0 1 0 2 0 1 0 2 0 1 0 2 0 1 0 
2 0 1 0 2 0 1 0 2 0 1 0 2 0 2 0 
1 0 2 0 1 0 2 0 1 0 2 0 1 0 2 0 
1 0 2 0 1 0 2 0 1 0 2 0 1 0 2 0 
1 0 2 0 1 0 2 0 2 0 1 0 2 0 1 0 
2 0 1 0 2 0 1 0 2 0 1 0 2 0 1 0 
2 0 1 0 2 0 1 0 2 0 1 0 2 0 1 0 
2 0 2 0 1 0 2 0 1 0 2 0 1 0 2 0 
1 0 2 0 1 0 2 0 1 0 2 0 1 0 2 0 
1 0 2 0 1 0 2 0 1 0 2 0 2 0 1 0 
2 0 1 0 2 0 20 6158 300 MP stroke
1 0 2 0 1 0 2 0 1 0 2 0 1 0 2 0 
1 0 2 0 1 0 2 0 1 0 1 0 1 0 2 0 
1 0 2 0 2 0 1 0 2 0 1 0 2 0 1 0 
2 0 1 0 2 0 1 0 2 0 1 0 2 0 1 0 
2 0 1 0 2 0 1 0 2 0 1 0 2 0 2 0 
1 0 2 0 1 0 2 0 1 0 2 0 1 0 2 0 
1 0 2 0 1 0 2 0 1 0 2 0 1 0 2 0 
1 0 2 0 1 0 2 0 2 0 1 0 2 0 1 0 
2 0 1 0 2 0 1 0 2 0 1 0 2 0 1 0 
2 0 1 0 2 0 1 0 2 0 1 0 2 0 1 0 
-100 6158 81 MP stroke
gr

c8
0 sg
2797 4927 mt 
(688.75eV) s

end

eplot
%%EndObject

epage
end

showpage

%%Trailer
%%BoundingBox:    85   179   508   686
%%Pages: 001
%%EOF
